0.000000000000000000e+00 1.000000000000000000e+00 2.000000000000000000e+00 3.000000000000000000e+00
2.269200881636379563e-02 5.363560239836033361e+00 3.859805406019404472e+00 1.591075532037280027e+00
1.032147588781617742e+01 1.657210010586888984e+02 1.175923093858880293e+02 1.129831163760168238e+02
1.145596192484039832e+01 9.762601592044894971e-02 5.947531702780395335e-02 1.163725816621230535e-02
1.155569680764230611e+01 1.319012727423406695e+01 1.054603142012096129e+01 9.546772097417360214e+00
1.243603819253424891e-01 6.301374927254919101e-01 1.282711729434287129e-01 5.076688497924215504e-01
