1.903921464933329351e-12
1.928161924177617314e-12
1.902220511026543579e-12
1.418180047572601679e-04
5.397725403611312693e-04
1.295105003154015631e-03
2.505930498405517341e-03
4.280411904145134221e-03
6.749196955494279893e-03
