\relax 
\providecommand\hyper@newdestlabel[2]{}
\providecommand\HyperFirstAtBeginDocument{\AtBeginDocument}
\HyperFirstAtBeginDocument{\ifx\hyper@anchor\@undefined
\global\let\oldcontentsline\contentsline
\gdef\contentsline#1#2#3#4{\oldcontentsline{#1}{#2}{#3}}
\global\let\oldnewlabel\newlabel
\gdef\newlabel#1#2{\newlabelxx{#1}#2}
\gdef\newlabelxx#1#2#3#4#5#6{\oldnewlabel{#1}{{#2}{#3}}}
\AtEndDocument{\ifx\hyper@anchor\@undefined
\let\contentsline\oldcontentsline
\let\newlabel\oldnewlabel
\fi}
\fi}
\global\let\hyper@last\relax 
\gdef\HyperFirstAtBeginDocument#1{#1}
\providecommand\HyField@AuxAddToFields[1]{}
\providecommand\HyField@AuxAddToCoFields[2]{}
\select@language{english}
\@writefile{toc}{\select@language{english}}
\@writefile{lof}{\select@language{english}}
\@writefile{lot}{\select@language{english}}
\citation{li2008effectiveness}
\citation{dimarco2014numerical}
\@writefile{toc}{\contentsline {chapter}{\numberline {1}Introduction}{2}{chapter.1}}
\@writefile{lof}{\addvspace {10\p@ }}
\@writefile{lot}{\addvspace {10\p@ }}
\@writefile{toc}{\contentsline {section}{\numberline {1.1}Background of this thesis}{2}{section.1.1}}
\@writefile{toc}{\contentsline {section}{\numberline {1.2}Techniques to overcome stiffness}{2}{section.1.2}}
\citation{abdulle2008s}
\citation{givon2004extracting}
\citation{kevrekidis2009equation}
\citation{debrabant2015micro}
\citation{debrabant2015micro}
\@writefile{toc}{\contentsline {section}{\numberline {1.3}Goal of this thesis}{4}{section.1.3}}
\citation{debrabant2015micro}
\@writefile{toc}{\contentsline {chapter}{\numberline {2}Idea Of Matching}{5}{chapter.2}}
\@writefile{lof}{\addvspace {10\p@ }}
\@writefile{lot}{\addvspace {10\p@ }}
\@writefile{toc}{\contentsline {section}{\numberline {2.1}A General Micro-Macro Acceleration Algorithm}{5}{section.2.1}}
\newlabel{eq:generalsde}{{2.1}{5}{A General Micro-Macro Acceleration Algorithm}{equation.2.1.1}{}}
\citation{debrabant2015micro}
\citation{debrabant2015micro}
\citation{debrabant2015micro}
\@writefile{lof}{\contentsline {figure}{\numberline {2.1}{\ignorespaces Visual representation of acceleration algorithm \ref  {algo:accelerationalgorithm}. This figure was taken from \cite  {debrabant2015micro}.\relax }}{6}{figure.caption.2}}
\providecommand*\caption@xref[2]{\@setref\relax\@undefined{#1}}
\newlabel{fig:acceleration}{{2.1}{6}{Visual representation of acceleration algorithm \ref {algo:accelerationalgorithm}. This figure was taken from \cite {debrabant2015micro}.\relax }{figure.caption.2}{}}
\newlabel{eq:finiterestriction}{{2.2}{6}{A General Micro-Macro Acceleration Algorithm}{equation.2.1.2}{}}
\citation{debrabant2015micro}
\@writefile{loa}{\contentsline {algorithm}{\numberline {1}{\ignorespaces The general micro-macro acceleration algorithm for stiff SDE's with the matching procedure.\relax }}{7}{algorithm.1}}
\newlabel{algo:accelerationalgorithm}{{1}{7}{The general micro-macro acceleration algorithm for stiff SDE's with the matching procedure.\relax }{algorithm.1}{}}
\@writefile{toc}{\contentsline {section}{\numberline {2.2}Restriction and Matching Operators}{7}{section.2.2}}
\@writefile{toc}{\contentsline {subsection}{\numberline {2.2.1}Definition of the restriction operator}{7}{subsection.2.2.1}}
\newlabel{eq:momentintegral}{{2.3}{7}{Definition of the restriction operator}{equation.2.2.3}{}}
\newlabel{eq:restrictionoperator}{{2.4}{7}{Definition of the restriction operator}{equation.2.2.4}{}}
\citation{debrabant2015micro}
\newlabel{def:momentfunctions}{{2.2.1}{8}{}{equation.2.2.4}{}}
\@writefile{toc}{\contentsline {subsection}{\numberline {2.2.2}Definition of the matching operator}{8}{subsection.2.2.2}}
\@writefile{toc}{\contentsline {subsection}{\numberline {2.2.3}Consistency between the restriction and matching operator}{8}{subsection.2.2.3}}
\newlabel{def:restrictionmatchingpair}{{2.2.3}{8}{}{subsection.2.2.3}{}}
\citation{debrabant2015micro}
\citation{debrabant2015micro}
\citation{debrabant2015micro}
\citation{debrabant2015micro}
\@writefile{toc}{\contentsline {subsection}{\numberline {2.2.4}Extrapolation Operator}{9}{subsection.2.2.4}}
\newlabel{eq:linearextrapolation}{{2.5}{9}{Extrapolation Operator}{equation.2.2.5}{}}
\@writefile{toc}{\contentsline {section}{\numberline {2.3}Convergence Theorem}{9}{section.2.3}}
\newlabel{eq:convergenceresult}{{2.6}{9}{}{equation.2.3.6}{}}
\citation{debrabant2015micro}
\bibdata{biblio}
\bibcite{BM02b}{1}
\bibcite{BM02}{2}
\bibcite{BM02a}{3}
\bibcite{GSM97}{4}
\bibcite{z120}{5}
\bibcite{Lam94}{6}
\bibcite{RudolphGrabowskiGraubmann96}{7}
\bibstyle{plain}
