\BOOKMARK [1][-]{section.0.1}{Introduction}{}% 1
\BOOKMARK [1][-]{section.0.2}{Numerical results of matching}{}% 2
\BOOKMARK [2][-]{subsection.0.2.1}{Sampling from the initial distribution}{section.0.2}% 3
\BOOKMARK [2][-]{subsection.0.2.2}{Full micro simulation}{section.0.2}% 4
\BOOKMARK [2][-]{subsection.0.2.3}{Empirical matching pdf's}{section.0.2}% 5
\BOOKMARK [2][-]{subsection.0.2.4}{Errors in the computed moments}{section.0.2}% 6
\BOOKMARK [2][-]{subsection.0.2.5}{Matching error as a function of the time step}{section.0.2}% 7
\BOOKMARK [2][-]{subsection.0.2.6}{On the number of NR steps}{section.0.2}% 8
