\relax 
\providecommand\hyper@newdestlabel[2]{}
\providecommand\HyperFirstAtBeginDocument{\AtBeginDocument}
\HyperFirstAtBeginDocument{\ifx\hyper@anchor\@undefined
\global\let\oldcontentsline\contentsline
\gdef\contentsline#1#2#3#4{\oldcontentsline{#1}{#2}{#3}}
\global\let\oldnewlabel\newlabel
\gdef\newlabel#1#2{\newlabelxx{#1}#2}
\gdef\newlabelxx#1#2#3#4#5#6{\oldnewlabel{#1}{{#2}{#3}}}
\AtEndDocument{\ifx\hyper@anchor\@undefined
\let\contentsline\oldcontentsline
\let\newlabel\oldnewlabel
\fi}
\fi}
\global\let\hyper@last\relax 
\gdef\HyperFirstAtBeginDocument#1{#1}
\providecommand\HyField@AuxAddToFields[1]{}
\providecommand\HyField@AuxAddToCoFields[2]{}
\select@language{english}
\@writefile{toc}{\select@language{english}}
\@writefile{lof}{\select@language{english}}
\@writefile{lot}{\select@language{english}}
\citation{micromacroacceleration}
\citation{micromacro}
\citation{micromacroacceleration}
\@writefile{toc}{\contentsline {section}{\numberline {0.1}Introduction}{1}{section.0.1}}
\@writefile{toc}{\contentsline {section}{\numberline {0.2}Numerical results of matching}{1}{section.0.2}}
\@writefile{toc}{\contentsline {subsection}{\numberline {0.2.1}Sampling from the initial distribution}{1}{subsection.0.2.1}}
\@writefile{toc}{\contentsline {subsection}{\numberline {0.2.2}Full micro simulation}{1}{subsection.0.2.2}}
\citation{micromacroacceleration}
\@writefile{toc}{\contentsline {subsection}{\numberline {0.2.3}Empirical matching pdf's}{2}{subsection.0.2.3}}
\@writefile{toc}{\contentsline {subsection}{\numberline {0.2.4}Errors in the computed moments}{2}{subsection.0.2.4}}
\@writefile{toc}{\contentsline {subsection}{\numberline {0.2.5}Matching error as a function of the time step}{2}{subsection.0.2.5}}
\@writefile{toc}{\contentsline {subsection}{\numberline {0.2.6}On the number of NR steps}{2}{subsection.0.2.6}}
