\BOOKMARK [2][]{Outline0.1}{Introduction}{}% 1
\BOOKMARK [2][]{Outline0.2}{Matching Strategies}{}% 2
\BOOKMARK [2][]{Outline0.3}{Matching on a linear test SDE}{}% 3
\BOOKMARK [2][]{Outline0.4}{Outlook}{}% 4
