\relax 
\providecommand\hyper@newdestlabel[2]{}
\providecommand\HyperFirstAtBeginDocument{\AtBeginDocument}
\HyperFirstAtBeginDocument{\ifx\hyper@anchor\@undefined
\global\let\oldcontentsline\contentsline
\gdef\contentsline#1#2#3#4{\oldcontentsline{#1}{#2}{#3}}
\global\let\oldnewlabel\newlabel
\gdef\newlabel#1#2{\newlabelxx{#1}#2}
\gdef\newlabelxx#1#2#3#4#5#6{\oldnewlabel{#1}{{#2}{#3}}}
\AtEndDocument{\ifx\hyper@anchor\@undefined
\let\contentsline\oldcontentsline
\let\newlabel\oldnewlabel
\fi}
\fi}
\global\let\hyper@last\relax 
\gdef\HyperFirstAtBeginDocument#1{#1}
\providecommand\HyField@AuxAddToFields[1]{}
\providecommand\HyField@AuxAddToCoFields[2]{}
\abx@aux@sortscheme{nty}
\abx@aux@refcontext{nty/global/}
\@writefile{toc}{\boolfalse {citerequest}\boolfalse {citetracker}\boolfalse {pagetracker}\boolfalse {backtracker}\relax }
\@writefile{lof}{\boolfalse {citerequest}\boolfalse {citetracker}\boolfalse {pagetracker}\boolfalse {backtracker}\relax }
\@writefile{lot}{\boolfalse {citerequest}\boolfalse {citetracker}\boolfalse {pagetracker}\boolfalse {backtracker}\relax }
\select@language{english}
\@writefile{toc}{\defcounter {refsection}{0}\relax }\@writefile{toc}{\select@language{english}}
\@writefile{lof}{\defcounter {refsection}{0}\relax }\@writefile{lof}{\select@language{english}}
\@writefile{lot}{\defcounter {refsection}{0}\relax }\@writefile{lot}{\select@language{english}}
\@writefile{nav}{\headcommand {\slideentry {0}{0}{1}{1/1}{}{0}}}
\@writefile{nav}{\headcommand {\beamer@framepages {1}{1}}}
\@writefile{toc}{\beamer@sectionintoc {1}{Introduction}{2}{0}{1}}
\@writefile{nav}{\headcommand {\sectionentry {1}{Introduction}{2}{Introduction}{0}}}
\@writefile{nav}{\headcommand {\beamer@sectionpages {1}{1}}}
\@writefile{nav}{\headcommand {\beamer@subsectionpages {1}{1}}}
\providecommand*\caption@xref[2]{\@setref\relax\@undefined{#1}}
\newlabel{fig:cutmypic}{{\caption@xref {fig:cutmypic}{ on input line 72}}{2}{Introduction}{Doc-Start}{}}
\@writefile{snm}{\beamer@slide {fig:cutmypic}{2}}
\@writefile{nav}{\headcommand {\slideentry {1}{0}{1}{2/2}{}{0}}}
\@writefile{nav}{\headcommand {\beamer@framepages {2}{2}}}
\@writefile{nav}{\headcommand {\slideentry {1}{0}{2}{3/3}{}{0}}}
\@writefile{nav}{\headcommand {\beamer@framepages {3}{3}}}
\@writefile{nav}{\headcommand {\slideentry {1}{0}{3}{4/4}{}{0}}}
\@writefile{nav}{\headcommand {\beamer@framepages {4}{4}}}
\@writefile{nav}{\headcommand {\slideentry {1}{0}{4}{5/5}{}{0}}}
\@writefile{nav}{\headcommand {\beamer@framepages {5}{5}}}
\newlabel{fig:acceleration}{{\caption@xref {fig:acceleration}{ on input line 145}}{6}{Introduction}{Doc-Start}{}}
\@writefile{snm}{\beamer@slide {fig:acceleration}{6}}
\@writefile{nav}{\headcommand {\slideentry {1}{0}{5}{6/6}{}{0}}}
\@writefile{nav}{\headcommand {\beamer@framepages {6}{6}}}
\@writefile{toc}{\beamer@sectionintoc {2}{Matching Strategies}{7}{0}{2}}
\@writefile{nav}{\headcommand {\sectionentry {2}{Matching Strategies}{7}{Matching Strategies}{0}}}
\@writefile{nav}{\headcommand {\beamer@sectionpages {2}{6}}}
\@writefile{nav}{\headcommand {\beamer@subsectionpages {2}{6}}}
\@writefile{nav}{\headcommand {\slideentry {2}{0}{1}{7/7}{}{0}}}
\@writefile{nav}{\headcommand {\beamer@framepages {7}{7}}}
\@writefile{nav}{\headcommand {\slideentry {2}{0}{2}{8/8}{}{0}}}
\@writefile{nav}{\headcommand {\beamer@framepages {8}{8}}}
\@writefile{nav}{\headcommand {\slideentry {2}{0}{3}{9/9}{}{0}}}
\@writefile{nav}{\headcommand {\beamer@framepages {9}{9}}}
\@writefile{nav}{\headcommand {\slideentry {2}{0}{4}{10/10}{}{0}}}
\@writefile{nav}{\headcommand {\beamer@framepages {10}{10}}}
\newlabel{fig:Strategies}{{\caption@xref {fig:Strategies}{ on input line 217}}{11}{Matching Strategies}{Doc-Start}{}}
\@writefile{snm}{\beamer@slide {fig:Strategies}{11}}
\@writefile{nav}{\headcommand {\slideentry {2}{0}{5}{11/11}{}{0}}}
\@writefile{nav}{\headcommand {\beamer@framepages {11}{11}}}
\@writefile{toc}{\beamer@sectionintoc {3}{Matching on a linear test SDE}{12}{0}{3}}
\@writefile{nav}{\headcommand {\sectionentry {3}{Matching on a linear test SDE}{12}{Matching on a linear test SDE}{0}}}
\@writefile{nav}{\headcommand {\beamer@sectionpages {7}{11}}}
\@writefile{nav}{\headcommand {\beamer@subsectionpages {7}{11}}}
\@writefile{nav}{\headcommand {\slideentry {3}{0}{1}{12/12}{}{0}}}
\@writefile{nav}{\headcommand {\beamer@framepages {12}{12}}}
\@writefile{nav}{\headcommand {\slideentry {3}{0}{2}{13/13}{}{0}}}
\@writefile{nav}{\headcommand {\beamer@framepages {13}{13}}}
\newlabel{thm:linearmatchingmean}{{1}{14}{}{Doc-Start}{}}
\@writefile{snm}{\beamer@slide {thm:linearmatchingmean}{14}}
\@writefile{nav}{\headcommand {\slideentry {3}{0}{3}{14/14}{}{0}}}
\@writefile{nav}{\headcommand {\beamer@framepages {14}{14}}}
\newlabel{fig:meanreferencely1tend1gaussianinitial}{{\caption@xref {fig:meanreferencely1tend1gaussianinitial}{ on input line 255}}{15}{Matching on a linear test SDE}{Doc-Start}{}}
\@writefile{snm}{\beamer@slide {fig:meanreferencely1tend1gaussianinitial}{15}}
\@writefile{nav}{\headcommand {\slideentry {3}{0}{4}{15/15}{}{0}}}
\@writefile{nav}{\headcommand {\beamer@framepages {15}{15}}}
\newlabel{fig:variancereferencely1tend1gaussianinitial}{{\caption@xref {fig:variancereferencely1tend1gaussianinitial}{ on input line 265}}{16}{Matching on a linear test SDE}{Doc-Start}{}}
\@writefile{snm}{\beamer@slide {fig:variancereferencely1tend1gaussianinitial}{16}}
\@writefile{nav}{\headcommand {\slideentry {3}{0}{5}{16/16}{}{0}}}
\@writefile{nav}{\headcommand {\beamer@framepages {16}{16}}}
\newlabel{thm:linearmatchingmeanvariance}{{2}{17}{}{Doc-Start}{}}
\@writefile{snm}{\beamer@slide {thm:linearmatchingmeanvariance}{17}}
\@writefile{nav}{\headcommand {\slideentry {3}{0}{6}{17/17}{}{0}}}
\@writefile{nav}{\headcommand {\beamer@framepages {17}{17}}}
\newlabel{fig:variancereferencely2tend1gaussianinitial}{{\caption@xref {fig:variancereferencely2tend1gaussianinitial}{ on input line 282}}{18}{Matching on a linear test SDE}{Doc-Start}{}}
\@writefile{snm}{\beamer@slide {fig:variancereferencely2tend1gaussianinitial}{18}}
\@writefile{nav}{\headcommand {\slideentry {3}{0}{7}{18/18}{}{0}}}
\@writefile{nav}{\headcommand {\beamer@framepages {18}{18}}}
\@writefile{nav}{\headcommand {\slideentry {3}{0}{8}{19/19}{}{0}}}
\@writefile{nav}{\headcommand {\beamer@framepages {19}{19}}}
\newlabel{fig:meanvariancelx0ly0123guassianinitialtend1}{{\caption@xref {fig:meanvariancelx0ly0123guassianinitialtend1}{ on input line 303}}{20}{Matching on a linear test SDE}{Doc-Start}{}}
\@writefile{snm}{\beamer@slide {fig:meanvariancelx0ly0123guassianinitialtend1}{20}}
\@writefile{nav}{\headcommand {\slideentry {3}{0}{9}{20/20}{}{0}}}
\@writefile{nav}{\headcommand {\beamer@framepages {20}{20}}}
\newlabel{fig:meanvariancelx0123ly2gaussianinitialtend1}{{\caption@xref {fig:meanvariancelx0123ly2gaussianinitialtend1}{ on input line 313}}{21}{Matching on a linear test SDE}{Doc-Start}{}}
\@writefile{snm}{\beamer@slide {fig:meanvariancelx0123ly2gaussianinitialtend1}{21}}
\@writefile{nav}{\headcommand {\slideentry {3}{0}{10}{21/21}{}{0}}}
\@writefile{nav}{\headcommand {\beamer@framepages {21}{21}}}
\@writefile{toc}{\beamer@sectionintoc {4}{Outlook}{22}{0}{4}}
\@writefile{nav}{\headcommand {\sectionentry {4}{Outlook}{22}{Outlook}{0}}}
\@writefile{nav}{\headcommand {\beamer@sectionpages {12}{21}}}
\@writefile{nav}{\headcommand {\beamer@subsectionpages {12}{21}}}
\@writefile{nav}{\headcommand {\slideentry {4}{0}{1}{22/22}{}{0}}}
\@writefile{nav}{\headcommand {\beamer@framepages {22}{22}}}
\@writefile{nav}{\headcommand {\slideentry {4}{0}{2}{23/23}{}{0}}}
\@writefile{nav}{\headcommand {\beamer@framepages {23}{23}}}
\@writefile{nav}{\headcommand {\slideentry {4}{0}{3}{24/24}{}{0}}}
\@writefile{nav}{\headcommand {\beamer@framepages {24}{24}}}
\@writefile{nav}{\headcommand {\slideentry {4}{0}{4}{25/25}{}{0}}}
\@writefile{nav}{\headcommand {\beamer@framepages {25}{25}}}
\newlabel{fig:dt0197}{{1a}{26}{$\delta t=0.197$\relax }{Doc-Start}{}}
\@writefile{snm}{\beamer@slide {fig:dt0197}{26}}
\newlabel{sub@fig:dt0197}{{a}{26}{$\delta t=0.197$\relax }{Doc-Start}{}}
\@writefile{snm}{\beamer@slide {sub@fig:dt0197}{26}}
\newlabel{fig:dt0203}{{1b}{26}{$\delta t = 0.203$\relax }{Doc-Start}{}}
\@writefile{snm}{\beamer@slide {fig:dt0203}{26}}
\newlabel{sub@fig:dt0203}{{b}{26}{$\delta t = 0.203$\relax }{Doc-Start}{}}
\@writefile{snm}{\beamer@slide {sub@fig:dt0203}{26}}
\@writefile{nav}{\headcommand {\slideentry {4}{0}{5}{26/26}{}{0}}}
\@writefile{nav}{\headcommand {\beamer@framepages {26}{26}}}
\newlabel{fig:Dt195}{{2a}{27}{$\Delta t=1.95$\relax }{Doc-Start}{}}
\@writefile{snm}{\beamer@slide {fig:Dt195}{27}}
\newlabel{sub@fig:Dt195}{{a}{27}{$\Delta t=1.95$\relax }{Doc-Start}{}}
\@writefile{snm}{\beamer@slide {sub@fig:Dt195}{27}}
\newlabel{fig:Dt21}{{2b}{27}{$\Delta t = 2.1$\relax }{Doc-Start}{}}
\@writefile{snm}{\beamer@slide {fig:Dt21}{27}}
\newlabel{sub@fig:Dt21}{{b}{27}{$\Delta t = 2.1$\relax }{Doc-Start}{}}
\@writefile{snm}{\beamer@slide {sub@fig:Dt21}{27}}
\@writefile{nav}{\headcommand {\slideentry {4}{0}{6}{27/27}{}{0}}}
\@writefile{nav}{\headcommand {\beamer@framepages {27}{27}}}
\@writefile{nav}{\headcommand {\beamer@partpages {1}{27}}}
\@writefile{nav}{\headcommand {\beamer@subsectionpages {22}{27}}}
\@writefile{nav}{\headcommand {\beamer@sectionpages {22}{27}}}
\@writefile{nav}{\headcommand {\beamer@documentpages {27}}}
\@writefile{nav}{\headcommand {\def \inserttotalframenumber {24}}}
