\relax 
\providecommand\hyper@newdestlabel[2]{}
\providecommand\HyperFirstAtBeginDocument{\AtBeginDocument}
\HyperFirstAtBeginDocument{\ifx\hyper@anchor\@undefined
\global\let\oldcontentsline\contentsline
\gdef\contentsline#1#2#3#4{\oldcontentsline{#1}{#2}{#3}}
\global\let\oldnewlabel\newlabel
\gdef\newlabel#1#2{\newlabelxx{#1}#2}
\gdef\newlabelxx#1#2#3#4#5#6{\oldnewlabel{#1}{{#2}{#3}}}
\AtEndDocument{\ifx\hyper@anchor\@undefined
\let\contentsline\oldcontentsline
\let\newlabel\oldnewlabel
\fi}
\fi}
\global\let\hyper@last\relax 
\gdef\HyperFirstAtBeginDocument#1{#1}
\providecommand\HyField@AuxAddToFields[1]{}
\providecommand\HyField@AuxAddToCoFields[2]{}
\select@language{english}
\@writefile{toc}{\select@language{english}}
\@writefile{lof}{\select@language{english}}
\@writefile{lot}{\select@language{english}}
\@writefile{toc}{\contentsline {section}{\numberline {1}Minimizing relative entropy with Gaussian prior}{1}{section.1}}
\newlabel{eq:entropytominimize}{{4}{1}{Minimizing relative entropy with Gaussian prior}{equation.1.4}{}}
\newlabel{eq:functionentropytominimize}{{5}{1}{Minimizing relative entropy with Gaussian prior}{equation.1.5}{}}
\@writefile{toc}{\contentsline {section}{\numberline {2}Analytical expression for matching with slow mean and variance with Gaussian prior}{2}{section.2}}
\newlabel{eq:meandefinition}{{6}{2}{Analytical expression for matching with slow mean and variance with Gaussian prior}{equation.2.6}{}}
\newlabel{eq:covariancedefinition}{{7}{2}{Analytical expression for matching with slow mean and variance with Gaussian prior}{equation.2.7}{}}
\newlabel{eq:restrictiondefinition}{{8}{2}{Analytical expression for matching with slow mean and variance with Gaussian prior}{equation.2.8}{}}
\newlabel{eq:proposition}{{9}{2}{}{equation.2.9}{}}
\newlabel{eq:propositionresult}{{10}{2}{}{equation.2.10}{}}
\newlabel{eq:normalfactorization}{{14}{3}{Analytical expression for matching with slow mean and variance with Gaussian prior}{equation.2.14}{}}
\newlabel{eq:normalfactorizationparameters}{{15}{3}{Analytical expression for matching with slow mean and variance with Gaussian prior}{equation.2.15}{}}
\newlabel{eq:matchingslowgaussian}{{17}{3}{Analytical expression for matching with slow mean and variance with Gaussian prior}{equation.2.17}{}}
\newlabel{eq:matchingfactorization}{{18}{3}{Analytical expression for matching with slow mean and variance with Gaussian prior}{equation.2.18}{}}
\newlabel{eq:jointfactorization}{{19}{3}{Analytical expression for matching with slow mean and variance with Gaussian prior}{equation.2.19}{}}
\newlabel{eq:jointfactorizationparameters}{{20}{3}{Analytical expression for matching with slow mean and variance with Gaussian prior}{equation.2.20}{}}
\newlabel{eq:propositionsystem}{{22}{3}{Analytical expression for matching with slow mean and variance with Gaussian prior}{equation.2.22}{}}
