\relax 
\providecommand\hyper@newdestlabel[2]{}
\providecommand\HyperFirstAtBeginDocument{\AtBeginDocument}
\HyperFirstAtBeginDocument{\ifx\hyper@anchor\@undefined
\global\let\oldcontentsline\contentsline
\gdef\contentsline#1#2#3#4{\oldcontentsline{#1}{#2}{#3}}
\global\let\oldnewlabel\newlabel
\gdef\newlabel#1#2{\newlabelxx{#1}#2}
\gdef\newlabelxx#1#2#3#4#5#6{\oldnewlabel{#1}{{#2}{#3}}}
\AtEndDocument{\ifx\hyper@anchor\@undefined
\let\contentsline\oldcontentsline
\let\newlabel\oldnewlabel
\fi}
\fi}
\global\let\hyper@last\relax 
\gdef\HyperFirstAtBeginDocument#1{#1}
\providecommand\HyField@AuxAddToFields[1]{}
\providecommand\HyField@AuxAddToCoFields[2]{}
\select@language{english}
\@writefile{toc}{\select@language{english}}
\@writefile{lof}{\select@language{english}}
\@writefile{lot}{\select@language{english}}
\@writefile{toc}{\contentsline {paragraph}{Micro Time Stepper}{1}{section*.1}}
\newlabel{eq:emmean}{{2}{1}{Micro Time Stepper}{equation.0.2}{}}
\@writefile{toc}{\contentsline {paragraph}{Extrapolation of coarse mean and variance}{1}{section*.2}}
\newlabel{eq:coarsemean}{{4}{1}{Extrapolation of coarse mean and variance}{equation.0.4}{}}
\@writefile{toc}{\contentsline {paragraph}{Matching with extrapolated mean and variance}{1}{section*.3}}
\newlabel{eq:matching}{{6}{2}{Matching with extrapolated mean and variance}{equation.0.6}{}}
