{
"title": "L = 3 Moment Functions",
"legend": true,
"interval": [4,7],
"plottype": "linear",
"xlabel": "Dumbbell Length",
"lines": [{ 
			"color": "r",
			"style":"-",
			"datafile": "../../Samples/fene/data/Fenedatareport1.0s.txt",
			"label": "Prior after 1 second",
			"bandwidth": 0.1
		  },
		  { 
			"color": "b",
			"style":"-",
			"datafile": "../../Samples/fene/data/Fenedatareport1.1s.txt",
			"label": "Target after 1.1 seconds",
			"bandwidth": 0.1
		  },
		  { 
			"color": "k",
			"style":"-",
			"datafile": "../../Samples/fene/data/matchkld4",
			"label": "KLD",
			"bandwidth": 0.1
		  },
		  { 
			"color": "tab:orange",
			"style":"-",
			"datafile": "../../Samples/fene/data/matchl2d4",
			"label": "L2D",
			"bandwidth": 0.1
		  },
		  { 
			"color": "g",
			"style":"-",
			"datafile": "../../Samples/fene/data/matchl2n4",
			"label": "L2N",
			"bandwidth": 0.1
		  }]  
}