\relax 
\providecommand\hyper@newdestlabel[2]{}
\providecommand\HyperFirstAtBeginDocument{\AtBeginDocument}
\HyperFirstAtBeginDocument{\ifx\hyper@anchor\@undefined
\global\let\oldcontentsline\contentsline
\gdef\contentsline#1#2#3#4{\oldcontentsline{#1}{#2}{#3}}
\global\let\oldnewlabel\newlabel
\gdef\newlabel#1#2{\newlabelxx{#1}#2}
\gdef\newlabelxx#1#2#3#4#5#6{\oldnewlabel{#1}{{#2}{#3}}}
\AtEndDocument{\ifx\hyper@anchor\@undefined
\let\contentsline\oldcontentsline
\let\newlabel\oldnewlabel
\fi}
\fi}
\global\let\hyper@last\relax 
\gdef\HyperFirstAtBeginDocument#1{#1}
\providecommand\HyField@AuxAddToFields[1]{}
\providecommand\HyField@AuxAddToCoFields[2]{}
\abx@aux@sortscheme{nty}
\abx@aux@refcontext{nty/global/}
\@writefile{toc}{\boolfalse {citerequest}\boolfalse {citetracker}\boolfalse {pagetracker}\boolfalse {backtracker}\relax }
\@writefile{lof}{\boolfalse {citerequest}\boolfalse {citetracker}\boolfalse {pagetracker}\boolfalse {backtracker}\relax }
\@writefile{lot}{\boolfalse {citerequest}\boolfalse {citetracker}\boolfalse {pagetracker}\boolfalse {backtracker}\relax }
\select@language{english}
\@writefile{toc}{\defcounter {refsection}{0}\relax }\@writefile{toc}{\select@language{english}}
\@writefile{lof}{\defcounter {refsection}{0}\relax }\@writefile{lof}{\select@language{english}}
\@writefile{lot}{\defcounter {refsection}{0}\relax }\@writefile{lot}{\select@language{english}}
\@writefile{nav}{\headcommand {\slideentry {0}{0}{1}{1/1}{}{0}}}
\@writefile{nav}{\headcommand {\beamer@framepages {1}{1}}}
\@writefile{toc}{\beamer@sectionintoc {1}{Introduction}{2}{0}{1}}
\@writefile{nav}{\headcommand {\sectionentry {1}{Introduction}{2}{Introduction}{0}}}
\@writefile{nav}{\headcommand {\beamer@sectionpages {1}{1}}}
\@writefile{nav}{\headcommand {\beamer@subsectionpages {1}{1}}}
\@writefile{nav}{\headcommand {\slideentry {1}{0}{1}{2/2}{}{0}}}
\@writefile{nav}{\headcommand {\beamer@framepages {2}{2}}}
\providecommand*\caption@xref[2]{\@setref\relax\@undefined{#1}}
\newlabel{fig:accelration}{{\caption@xref {fig:accelration}{ on input line 82}}{3}{Introduction}{Doc-Start}{}}
\@writefile{snm}{\beamer@slide {fig:accelration}{3}}
\@writefile{nav}{\headcommand {\slideentry {1}{0}{2}{3/3}{}{0}}}
\@writefile{nav}{\headcommand {\beamer@framepages {3}{3}}}
\@writefile{nav}{\headcommand {\slideentry {1}{0}{3}{4/4}{}{0}}}
\@writefile{nav}{\headcommand {\beamer@framepages {4}{4}}}
\@writefile{toc}{\beamer@sectionintoc {2}{Linear SDEs: Convergence \& Stability}{5}{0}{2}}
\@writefile{nav}{\headcommand {\sectionentry {2}{Linear SDEs: Convergence \& Stability}{5}{Linear SDEs: Convergence \& Stability}{0}}}
\@writefile{nav}{\headcommand {\beamer@sectionpages {2}{4}}}
\@writefile{nav}{\headcommand {\beamer@subsectionpages {2}{4}}}
\@writefile{nav}{\headcommand {\slideentry {2}{0}{1}{5/5}{}{0}}}
\@writefile{nav}{\headcommand {\beamer@framepages {5}{5}}}
\newlabel{thm:linearslowconvergence}{{1}{6}{}{Doc-Start}{}}
\@writefile{snm}{\beamer@slide {thm:linearslowconvergence}{6}}
\@writefile{nav}{\headcommand {\slideentry {2}{0}{2}{6/6}{}{0}}}
\@writefile{nav}{\headcommand {\beamer@framepages {6}{6}}}
\@writefile{nav}{\headcommand {\slideentry {2}{0}{3}{7/7}{}{0}}}
\@writefile{nav}{\headcommand {\beamer@framepages {7}{7}}}
\@writefile{nav}{\headcommand {\slideentry {2}{0}{4}{8/8}{}{0}}}
\@writefile{nav}{\headcommand {\beamer@framepages {8}{8}}}
\@writefile{nav}{\headcommand {\slideentry {2}{0}{5}{9/9}{}{0}}}
\@writefile{nav}{\headcommand {\beamer@framepages {9}{9}}}
\@writefile{nav}{\headcommand {\slideentry {2}{0}{6}{10/10}{}{0}}}
\@writefile{nav}{\headcommand {\beamer@framepages {10}{10}}}
\@writefile{toc}{\beamer@sectionintoc {3}{Influence of moment selection}{11}{0}{3}}
\@writefile{nav}{\headcommand {\sectionentry {3}{Influence of moment selection}{11}{Influence of moment selection}{0}}}
\@writefile{nav}{\headcommand {\beamer@sectionpages {5}{10}}}
\@writefile{nav}{\headcommand {\beamer@subsectionpages {5}{10}}}
\@writefile{nav}{\headcommand {\slideentry {3}{0}{1}{11/11}{}{0}}}
\@writefile{nav}{\headcommand {\beamer@framepages {11}{11}}}
\@writefile{nav}{\headcommand {\slideentry {3}{0}{2}{12/12}{}{0}}}
\@writefile{nav}{\headcommand {\beamer@framepages {12}{12}}}
\@writefile{nav}{\headcommand {\slideentry {3}{0}{3}{13/13}{}{0}}}
\@writefile{nav}{\headcommand {\beamer@framepages {13}{13}}}
\newlabel{fig:strategy1factor5}{{\caption@xref {fig:strategy1factor5}{ on input line 257}}{14}{Influence of moment selection}{Doc-Start}{}}
\@writefile{snm}{\beamer@slide {fig:strategy1factor5}{14}}
\@writefile{nav}{\headcommand {\slideentry {3}{0}{4}{14/14}{}{0}}}
\@writefile{nav}{\headcommand {\beamer@framepages {14}{14}}}
\newlabel{fig:strategy2factor5}{{\caption@xref {fig:strategy2factor5}{ on input line 268}}{15}{Influence of moment selection}{Doc-Start}{}}
\@writefile{snm}{\beamer@slide {fig:strategy2factor5}{15}}
\@writefile{nav}{\headcommand {\slideentry {3}{0}{5}{15/15}{}{0}}}
\@writefile{nav}{\headcommand {\beamer@framepages {15}{15}}}
\newlabel{fig:strategy3factor5}{{\caption@xref {fig:strategy3factor5}{ on input line 279}}{16}{Influence of moment selection}{Doc-Start}{}}
\@writefile{snm}{\beamer@slide {fig:strategy3factor5}{16}}
\@writefile{nav}{\headcommand {\slideentry {3}{0}{6}{16/16}{}{0}}}
\@writefile{nav}{\headcommand {\beamer@framepages {16}{16}}}
\@writefile{toc}{\beamer@sectionintoc {4}{Effect of the extrapolation step}{17}{0}{4}}
\@writefile{nav}{\headcommand {\sectionentry {4}{Effect of the extrapolation step}{17}{Effect of the extrapolation step}{0}}}
\@writefile{nav}{\headcommand {\beamer@sectionpages {11}{16}}}
\@writefile{nav}{\headcommand {\beamer@subsectionpages {11}{16}}}
\@writefile{nav}{\headcommand {\slideentry {4}{0}{1}{17/17}{}{0}}}
\@writefile{nav}{\headcommand {\beamer@framepages {17}{17}}}
\@writefile{snm}{\beamer@slide {eq:lineardrivensde}{18}}
\newlabel{eq:lineardrivensde}{{15}{18}{Effect of the extrapolation step}{Doc-Start}{}}
\@writefile{nav}{\headcommand {\slideentry {4}{0}{2}{18/18}{}{0}}}
\@writefile{nav}{\headcommand {\beamer@framepages {18}{18}}}
\@writefile{snm}{\beamer@slide {eq:ch6sdesystem}{19}}
\newlabel{eq:ch6sdesystem}{{16}{19}{Effect of the extrapolation step}{Doc-Start}{}}
\@writefile{snm}{\beamer@slide {eq:ch6macro}{19}}
\newlabel{eq:ch6macro}{{16}{19}{Effect of the extrapolation step}{Doc-Start}{}}
\@writefile{nav}{\headcommand {\slideentry {4}{0}{3}{19/19}{}{0}}}
\@writefile{nav}{\headcommand {\beamer@framepages {19}{19}}}
\@writefile{nav}{\headcommand {\slideentry {4}{0}{4}{20/20}{}{0}}}
\@writefile{nav}{\headcommand {\beamer@framepages {20}{20}}}
\@writefile{nav}{\headcommand {\slideentry {4}{0}{5}{21/21}{}{0}}}
\@writefile{nav}{\headcommand {\beamer@framepages {21}{21}}}
\@writefile{toc}{\beamer@sectionintoc {5}{A practical example}{22}{0}{5}}
\@writefile{nav}{\headcommand {\sectionentry {5}{A practical example}{22}{A practical example}{0}}}
\@writefile{nav}{\headcommand {\beamer@sectionpages {17}{21}}}
\@writefile{nav}{\headcommand {\beamer@subsectionpages {17}{21}}}
\@writefile{nav}{\headcommand {\slideentry {5}{0}{1}{22/22}{}{0}}}
\@writefile{nav}{\headcommand {\beamer@framepages {22}{22}}}
\@writefile{snm}{\beamer@slide {eq:ch6doublewellsde}{23}}
\newlabel{eq:ch6doublewellsde}{{19}{23}{A practical example}{Doc-Start}{}}
\@writefile{nav}{\headcommand {\slideentry {5}{0}{2}{23/23}{}{0}}}
\@writefile{nav}{\headcommand {\beamer@framepages {23}{23}}}
\@writefile{nav}{\headcommand {\slideentry {5}{0}{3}{24/24}{}{0}}}
\@writefile{nav}{\headcommand {\beamer@framepages {24}{24}}}
\@writefile{nav}{\headcommand {\slideentry {5}{0}{4}{25/25}{}{0}}}
\@writefile{nav}{\headcommand {\beamer@framepages {25}{25}}}
\@writefile{toc}{\beamer@sectionintoc {6}{Conclusion and outlook}{26}{0}{6}}
\@writefile{nav}{\headcommand {\sectionentry {6}{Conclusion and outlook}{26}{Conclusion and outlook}{0}}}
\@writefile{nav}{\headcommand {\beamer@sectionpages {22}{25}}}
\@writefile{nav}{\headcommand {\beamer@subsectionpages {22}{25}}}
\@writefile{nav}{\headcommand {\slideentry {6}{0}{1}{26/26}{}{0}}}
\@writefile{nav}{\headcommand {\beamer@framepages {26}{26}}}
\@writefile{nav}{\headcommand {\slideentry {6}{0}{2}{27/27}{}{0}}}
\@writefile{nav}{\headcommand {\beamer@framepages {27}{27}}}
\@writefile{nav}{\headcommand {\slideentry {6}{0}{3}{28/28}{}{0}}}
\@writefile{nav}{\headcommand {\beamer@framepages {28}{28}}}
\@writefile{nav}{\headcommand {\slideentry {6}{0}{4}{29/29}{}{0}}}
\@writefile{nav}{\headcommand {\beamer@framepages {29}{29}}}
\@writefile{nav}{\headcommand {\slideentry {6}{0}{5}{30/30}{}{0}}}
\@writefile{nav}{\headcommand {\beamer@framepages {30}{30}}}
\@writefile{nav}{\headcommand {\slideentry {6}{0}{6}{31/31}{}{0}}}
\@writefile{nav}{\headcommand {\beamer@framepages {31}{31}}}
\newlabel{fig:acceleration}{{\caption@xref {fig:acceleration}{ on input line 532}}{32}{Conclusion and outlook}{Doc-Start}{}}
\@writefile{snm}{\beamer@slide {fig:acceleration}{32}}
\@writefile{nav}{\headcommand {\slideentry {6}{0}{7}{32/32}{}{0}}}
\@writefile{nav}{\headcommand {\beamer@framepages {32}{32}}}
\@writefile{nav}{\headcommand {\slideentry {6}{0}{8}{33/33}{}{0}}}
\@writefile{nav}{\headcommand {\beamer@framepages {33}{33}}}
\@writefile{nav}{\headcommand {\slideentry {6}{0}{9}{34/34}{}{0}}}
\@writefile{nav}{\headcommand {\beamer@framepages {34}{34}}}
\@writefile{nav}{\headcommand {\slideentry {6}{0}{10}{35/35}{}{0}}}
\@writefile{nav}{\headcommand {\beamer@framepages {35}{35}}}
\newlabel{fig:Strategies}{{\caption@xref {fig:Strategies}{ on input line 597}}{36}{Conclusion and outlook}{Doc-Start}{}}
\@writefile{snm}{\beamer@slide {fig:Strategies}{36}}
\@writefile{nav}{\headcommand {\slideentry {6}{0}{11}{36/36}{}{0}}}
\@writefile{nav}{\headcommand {\beamer@framepages {36}{36}}}
\@writefile{nav}{\headcommand {\slideentry {6}{0}{12}{37/37}{}{0}}}
\@writefile{nav}{\headcommand {\beamer@framepages {37}{37}}}
\newlabel{thm:linearmatchingmean}{{2}{38}{}{Doc-Start}{}}
\@writefile{snm}{\beamer@slide {thm:linearmatchingmean}{38}}
\@writefile{nav}{\headcommand {\slideentry {6}{0}{13}{38/38}{}{0}}}
\@writefile{nav}{\headcommand {\beamer@framepages {38}{38}}}
\newlabel{fig:meanreferencely1tend1gaussianinitial}{{\caption@xref {fig:meanreferencely1tend1gaussianinitial}{ on input line 635}}{39}{Conclusion and outlook}{Doc-Start}{}}
\@writefile{snm}{\beamer@slide {fig:meanreferencely1tend1gaussianinitial}{39}}
\@writefile{nav}{\headcommand {\slideentry {6}{0}{14}{39/39}{}{0}}}
\@writefile{nav}{\headcommand {\beamer@framepages {39}{39}}}
\newlabel{fig:variancereferencely1tend1gaussianinitial}{{\caption@xref {fig:variancereferencely1tend1gaussianinitial}{ on input line 645}}{40}{Conclusion and outlook}{Doc-Start}{}}
\@writefile{snm}{\beamer@slide {fig:variancereferencely1tend1gaussianinitial}{40}}
\@writefile{nav}{\headcommand {\slideentry {6}{0}{15}{40/40}{}{0}}}
\@writefile{nav}{\headcommand {\beamer@framepages {40}{40}}}
\newlabel{thm:linearmatchingmeanvariance}{{3}{41}{}{Doc-Start}{}}
\@writefile{snm}{\beamer@slide {thm:linearmatchingmeanvariance}{41}}
\@writefile{nav}{\headcommand {\slideentry {6}{0}{16}{41/41}{}{0}}}
\@writefile{nav}{\headcommand {\beamer@framepages {41}{41}}}
\newlabel{fig:variancereferencely2tend1gaussianinitial}{{\caption@xref {fig:variancereferencely2tend1gaussianinitial}{ on input line 662}}{42}{Conclusion and outlook}{Doc-Start}{}}
\@writefile{snm}{\beamer@slide {fig:variancereferencely2tend1gaussianinitial}{42}}
\@writefile{nav}{\headcommand {\slideentry {6}{0}{17}{42/42}{}{0}}}
\@writefile{nav}{\headcommand {\beamer@framepages {42}{42}}}
\@writefile{nav}{\headcommand {\slideentry {6}{0}{18}{43/43}{}{0}}}
\@writefile{nav}{\headcommand {\beamer@framepages {43}{43}}}
\newlabel{fig:meanvariancelx0ly0123guassianinitialtend1}{{\caption@xref {fig:meanvariancelx0ly0123guassianinitialtend1}{ on input line 683}}{44}{Conclusion and outlook}{Doc-Start}{}}
\@writefile{snm}{\beamer@slide {fig:meanvariancelx0ly0123guassianinitialtend1}{44}}
\@writefile{nav}{\headcommand {\slideentry {6}{0}{19}{44/44}{}{0}}}
\@writefile{nav}{\headcommand {\beamer@framepages {44}{44}}}
\newlabel{fig:meanvariancelx0123ly2gaussianinitialtend1}{{\caption@xref {fig:meanvariancelx0123ly2gaussianinitialtend1}{ on input line 693}}{45}{Conclusion and outlook}{Doc-Start}{}}
\@writefile{snm}{\beamer@slide {fig:meanvariancelx0123ly2gaussianinitialtend1}{45}}
\@writefile{nav}{\headcommand {\slideentry {6}{0}{20}{45/45}{}{0}}}
\@writefile{nav}{\headcommand {\beamer@framepages {45}{45}}}
\@writefile{nav}{\headcommand {\beamer@partpages {1}{45}}}
\@writefile{nav}{\headcommand {\beamer@subsectionpages {26}{45}}}
\@writefile{nav}{\headcommand {\beamer@sectionpages {26}{45}}}
\@writefile{nav}{\headcommand {\beamer@documentpages {45}}}
\@writefile{nav}{\headcommand {\def \inserttotalframenumber {40}}}
