\BOOKMARK [2][]{Outline0.1}{Introduction}{}% 1
\BOOKMARK [2][]{Outline0.2}{Linear SDEs: Convergence \046 Stability}{}% 2
\BOOKMARK [2][]{Outline0.3}{Influence of moment selection}{}% 3
\BOOKMARK [2][]{Outline0.4}{Effect of the extrapolation step}{}% 4
\BOOKMARK [2][]{Outline0.5}{A practical example}{}% 5
\BOOKMARK [2][]{Outline0.6}{Conclusion and outlook}{}% 6
