\BOOKMARK [1][-]{section.1}{Models used in this report}{}% 1
\BOOKMARK [1][-]{section.2}{A first experiment: Uniform initial distribution}{}% 2
\BOOKMARK [1][-]{section.3}{A Second experiment: Mean not in the origin}{}% 3
