\relax 
\providecommand\hyper@newdestlabel[2]{}
\providecommand\HyperFirstAtBeginDocument{\AtBeginDocument}
\HyperFirstAtBeginDocument{\ifx\hyper@anchor\@undefined
\global\let\oldcontentsline\contentsline
\gdef\contentsline#1#2#3#4{\oldcontentsline{#1}{#2}{#3}}
\global\let\oldnewlabel\newlabel
\gdef\newlabel#1#2{\newlabelxx{#1}#2}
\gdef\newlabelxx#1#2#3#4#5#6{\oldnewlabel{#1}{{#2}{#3}}}
\AtEndDocument{\ifx\hyper@anchor\@undefined
\let\contentsline\oldcontentsline
\let\newlabel\oldnewlabel
\fi}
\fi}
\global\let\hyper@last\relax 
\gdef\HyperFirstAtBeginDocument#1{#1}
\providecommand\HyField@AuxAddToFields[1]{}
\providecommand\HyField@AuxAddToCoFields[2]{}
\select@language{english}
\@writefile{toc}{\select@language{english}}
\@writefile{lof}{\select@language{english}}
\@writefile{lot}{\select@language{english}}
\@writefile{toc}{\contentsline {section}{\numberline {1}Models used in this report}{1}{section.1}}
\@writefile{lof}{\contentsline {figure}{\numberline {1}{\ignorespaces The simulated variance of the fast and slow variables using finite volumes for the Fokker-Planck equation, forward Euler for the closure relations and Euler-Maruyama for the SDE. They agree nicely and the errors can be attributed to discretizations in space and time.\relax }}{2}{figure.caption.1}}
\providecommand*\caption@xref[2]{\@setref\relax\@undefined{#1}}
\newlabel{fig:Agreement_FP_Closure_Microsimation_tend2}{{1}{2}{The simulated variance of the fast and slow variables using finite volumes for the Fokker-Planck equation, forward Euler for the closure relations and Euler-Maruyama for the SDE. They agree nicely and the errors can be attributed to discretizations in space and time.\relax }{figure.caption.1}{}}
\@writefile{toc}{\contentsline {section}{\numberline {2}A first experiment: Uniform initial distribution}{2}{section.2}}
\@writefile{toc}{\contentsline {section}{\numberline {3}A Second experiment: Mean not in the origin}{2}{section.3}}
\@writefile{lof}{\contentsline {figure}{\numberline {2}{\ignorespaces The covariance between the fast and slow variable for the first experiment. The three methods agree closely and the differences can be attributed to discretization errors in space and time.\relax }}{3}{figure.caption.2}}
\newlabel{fig:Agreement_FP_Closure_Microsimation_covariance_tend2}{{2}{3}{The covariance between the fast and slow variable for the first experiment. The three methods agree closely and the differences can be attributed to discretization errors in space and time.\relax }{figure.caption.2}{}}
\@writefile{lof}{\contentsline {figure}{\numberline {3}{\ignorespaces Mean of the slow and fast variable for the Fokker-Planck simualation, closure model and micro simulation for the second experiment. These three experiments produce almost exactly the same means in X and Y.\relax }}{4}{figure.caption.3}}
\newlabel{fig:Agreement_FP_Experiment2_mean}{{3}{4}{Mean of the slow and fast variable for the Fokker-Planck simualation, closure model and micro simulation for the second experiment. These three experiments produce almost exactly the same means in X and Y.\relax }{figure.caption.3}{}}
\@writefile{lof}{\contentsline {figure}{\numberline {4}{\ignorespaces The variances of the slow and fast variables computed with the three methods above. They seem to have the same behavior although the steady state values are a bit different.\relax }}{4}{figure.caption.4}}
\newlabel{fig:Agreement_FP_Experiment2_variance}{{4}{4}{The variances of the slow and fast variables computed with the three methods above. They seem to have the same behavior although the steady state values are a bit different.\relax }{figure.caption.4}{}}
\@writefile{lof}{\contentsline {figure}{\numberline {5}{\ignorespaces Covariance between the fast and slow variables for the second experiment for the three numerical methods.\relax }}{5}{figure.caption.5}}
\newlabel{fig:Agreement_FP_Experiment2_covariance}{{5}{5}{Covariance between the fast and slow variables for the second experiment for the three numerical methods.\relax }{figure.caption.5}{}}
