\relax 
\providecommand\hyper@newdestlabel[2]{}
\providecommand\HyperFirstAtBeginDocument{\AtBeginDocument}
\HyperFirstAtBeginDocument{\ifx\hyper@anchor\@undefined
\global\let\oldcontentsline\contentsline
\gdef\contentsline#1#2#3#4{\oldcontentsline{#1}{#2}{#3}}
\global\let\oldnewlabel\newlabel
\gdef\newlabel#1#2{\newlabelxx{#1}#2}
\gdef\newlabelxx#1#2#3#4#5#6{\oldnewlabel{#1}{{#2}{#3}}}
\AtEndDocument{\ifx\hyper@anchor\@undefined
\let\contentsline\oldcontentsline
\let\newlabel\oldnewlabel
\fi}
\fi}
\global\let\hyper@last\relax 
\gdef\HyperFirstAtBeginDocument#1{#1}
\providecommand\HyField@AuxAddToFields[1]{}
\providecommand\HyField@AuxAddToCoFields[2]{}
\select@language{english}
\@writefile{toc}{\select@language{english}}
\@writefile{lof}{\select@language{english}}
\@writefile{lot}{\select@language{english}}
\@writefile{toc}{\contentsline {section}{\numberline {1}Derivation of the closure relations}{1}{section.1}}
\@writefile{toc}{\contentsline {section}{\numberline {2}Analytical solution of the closure relations}{2}{section.2}}
\newlabel{eq:closureanalytic}{{3}{2}{Analytical solution of the closure relations}{equation.2.3}{}}
\@writefile{toc}{\contentsline {section}{\numberline {3}Convergence test for the forward Euler implementation}{2}{section.3}}
\@writefile{lof}{\contentsline {figure}{\numberline {1}{\ignorespaces First order convergence in time for the error of the mean of the slow and fast variables.\relax }}{3}{figure.caption.1}}
\providecommand*\caption@xref[2]{\@setref\relax\@undefined{#1}}
\newlabel{fig:convergencemeanclosuretend05}{{1}{3}{First order convergence in time for the error of the mean of the slow and fast variables.\relax }{figure.caption.1}{}}
\@writefile{lof}{\contentsline {figure}{\numberline {2}{\ignorespaces First order convergence in time for the error of the variance of the slow and fast variables.\relax }}{3}{figure.caption.2}}
\newlabel{fig:convergencevarianceclosuretend05}{{2}{3}{First order convergence in time for the error of the variance of the slow and fast variables.\relax }{figure.caption.2}{}}
