\relax 
\providecommand\hyper@newdestlabel[2]{}
\providecommand\HyperFirstAtBeginDocument{\AtBeginDocument}
\HyperFirstAtBeginDocument{\ifx\hyper@anchor\@undefined
\global\let\oldcontentsline\contentsline
\gdef\contentsline#1#2#3#4{\oldcontentsline{#1}{#2}{#3}}
\global\let\oldnewlabel\newlabel
\gdef\newlabel#1#2{\newlabelxx{#1}#2}
\gdef\newlabelxx#1#2#3#4#5#6{\oldnewlabel{#1}{{#2}{#3}}}
\AtEndDocument{\ifx\hyper@anchor\@undefined
\let\contentsline\oldcontentsline
\let\newlabel\oldnewlabel
\fi}
\fi}
\global\let\hyper@last\relax 
\gdef\HyperFirstAtBeginDocument#1{#1}
\providecommand\HyField@AuxAddToFields[1]{}
\providecommand\HyField@AuxAddToCoFields[2]{}
\select@language{english}
\@writefile{toc}{\select@language{english}}
\@writefile{lof}{\select@language{english}}
\@writefile{lot}{\select@language{english}}
\@writefile{toc}{\contentsline {section}{\numberline {1}Derivation of a finite volume scheme}{1}{section.1}}
\@writefile{toc}{\contentsline {section}{\numberline {2}Boundary conditions}{2}{section.2}}
\@writefile{toc}{\contentsline {section}{\numberline {3}Order test to verify a correct implementation}{2}{section.3}}
\@writefile{lof}{\contentsline {figure}{\numberline {1}{\ignorespaces Convergence of the error as a function of the temporal step size for a fixed end time for the Fokker-Planck equation. The figure shows first order convergence in time.\relax }}{3}{figure.caption.1}}
\providecommand*\caption@xref[2]{\@setref\relax\@undefined{#1}}
\newlabel{fig:convergencefptime}{{1}{3}{Convergence of the error as a function of the temporal step size for a fixed end time for the Fokker-Planck equation. The figure shows first order convergence in time.\relax }{figure.caption.1}{}}
\@writefile{lof}{\contentsline {figure}{\numberline {2}{\ignorespaces Convergence of the error as a function of the spatial step size for the Fokker-Planck equation. The figure indicates second order convergence in space as expected.\relax }}{4}{figure.caption.2}}
\newlabel{fig:convergencespacefp}{{2}{4}{Convergence of the error as a function of the spatial step size for the Fokker-Planck equation. The figure indicates second order convergence in space as expected.\relax }{figure.caption.2}{}}
