6.268840629234371555e-05
1.240651295005660854e-04
1.476094757029126783e-04
1.862446854231952125e-04
2.125026344066682500e-04
1.843407040402352773e-04
2.494773007604299177e-04
2.744378876148292814e-04
3.363690582237929654e-04
3.969577121625720521e-04
4.701307493249835996e-04
5.760823426984505681e-04
