\relax 
\providecommand\hyper@newdestlabel[2]{}
\providecommand*{\memsetcounter}[2]{}
\catcode `"\active 
\providecommand\HyperFirstAtBeginDocument{\AtBeginDocument}
\HyperFirstAtBeginDocument{\ifx\hyper@anchor\@undefined
\global\let\oldcontentsline\contentsline
\gdef\contentsline#1#2#3#4{\oldcontentsline{#1}{#2}{#3}}
\global\let\oldnewlabel\newlabel
\gdef\newlabel#1#2{\newlabelxx{#1}#2}
\gdef\newlabelxx#1#2#3#4#5#6{\oldnewlabel{#1}{{#2}{#3}}}
\AtEndDocument{\ifx\hyper@anchor\@undefined
\let\contentsline\oldcontentsline
\let\newlabel\oldnewlabel
\fi}
\fi}
\global\let\hyper@last\relax 
\gdef\HyperFirstAtBeginDocument#1{#1}
\providecommand\HyField@AuxAddToFields[1]{}
\providecommand\HyField@AuxAddToCoFields[2]{}
\select@language{english}
\@writefile{toc}{\select@language{english}}
\@writefile{lof}{\select@language{english}}
\@writefile{lot}{\select@language{english}}
\select@language{dutch}
\@writefile{toc}{\select@language{dutch}}
\@writefile{lof}{\select@language{dutch}}
\@writefile{lot}{\select@language{dutch}}
\select@language{english}
\@writefile{toc}{\select@language{english}}
\@writefile{lof}{\select@language{english}}
\@writefile{lot}{\select@language{english}}
\select@language{dutch}
\@writefile{toc}{\select@language{dutch}}
\@writefile{lof}{\select@language{dutch}}
\@writefile{lot}{\select@language{dutch}}
\select@language{english}
\@writefile{toc}{\select@language{english}}
\@writefile{lof}{\select@language{english}}
\@writefile{lot}{\select@language{english}}
\select@language{english}
\@writefile{toc}{\select@language{english}}
\@writefile{lof}{\select@language{english}}
\@writefile{lot}{\select@language{english}}
\select@language{dutch}
\@writefile{toc}{\select@language{dutch}}
\@writefile{lof}{\select@language{dutch}}
\@writefile{lot}{\select@language{dutch}}
\select@language{english}
\@writefile{toc}{\select@language{english}}
\@writefile{lof}{\select@language{english}}
\@writefile{lot}{\select@language{english}}
\select@language{english}
\@writefile{toc}{\select@language{english}}
\@writefile{lof}{\select@language{english}}
\@writefile{lot}{\select@language{english}}
\@writefile{lof}{\addvspace {10pt}}
\@writefile{lot}{\addvspace {10pt}}
\@writefile{toc}{\contentsline {chapter}{Preface}{i}{chapter*.1}}
\@writefile{lof}{\addvspace {10pt}}
\@writefile{lot}{\addvspace {10pt}}
\@writefile{toc}{\contentsline {chapter}{Abstract}{iv}{chapter*.2}}
\@writefile{lof}{\addvspace {10pt}}
\@writefile{lot}{\addvspace {10pt}}
\@writefile{toc}{\contentsline {chapter}{Abstract}{v}{chapter*.3}}
\@writefile{toc}{\contentsline {chapter}{List of Figures}{vi}{section*.4}}
\@writefile{lof}{\addvspace {10pt}}
\@writefile{lot}{\addvspace {10pt}}
\@writefile{toc}{\contentsline {chapter}{List of Symbols}{ix}{chapter*.5}}
\citation{ghoos2016accuracy}
\citation{samaey2011numerical}
\@writefile{lof}{\addvspace {10pt}}
\@writefile{lot}{\addvspace {10pt}}
\@writefile{toc}{\contentsline {chapter}{\chapternumberline {1}Introduction}{1}{chapter.1}}
\@writefile{toc}{\contentsline {section}{\numberline {1.1}Background}{1}{section.1.1}}
\@writefile{toc}{\contentsline {section}{\numberline {1.2}Techniques to overcome stiffness}{1}{section.1.2}}
\citation{byrne1987stiff}
\citation{burrage2004numerical}
\citation{li2008effectiveness}
\citation{abdulle2008s,abdulle2007stabilized,komori2012weak}
\citation{komori2013strong}
\citation{givon2004extracting,pavliotis2008multiscale}
\citation{legoll2010effective}
\citation{chalub2006model}
\citation{kevrekidis2003equation}
\citation{abdulle2012heterogeneous}
\citation{kevrekidis2009equation}
\citation{kevrekidis2009equation}
\@writefile{toc}{\contentsline {paragraph}{Implicit time steppers}{2}{section*.6}}
\@writefile{toc}{\contentsline {paragraph}{S-ROCK}{2}{section*.7}}
\@writefile{toc}{\contentsline {paragraph}{Approximate macroscopic models}{2}{section*.8}}
\@writefile{toc}{\contentsline {paragraph}{Equation-free techniques}{2}{section*.9}}
\citation{abdulle2012heterogeneous}
\citation{samaey2011numerical}
\citation{debrabant2017micro}
\@writefile{toc}{\contentsline {section}{\numberline {1.3}A micro-macro acceleration method}{3}{section.1.3}}
\newlabel{eq:generalsdeintro}{{1.1}{3}{A micro-macro acceleration method}{equation.1.3.1}{}}
\citation{debrabant2017micro}
\citation{debrabant2017micro}
\citation{debrabant2018study}
\newlabel{eq:restrictionoperator}{{1.3}{4}{A micro-macro acceleration method}{equation.1.3.3}{}}
\@writefile{toc}{\contentsline {section}{\numberline {1.4}Goal and contributions}{4}{section.1.4}}
\citation{legoll2010effective}
\citation{debrabant2017micro}
\citation{debrabant2017micro}
\citation{debrabant2017micro}
\citation{saito1996stability}
\@writefile{lof}{\addvspace {10pt}}
\@writefile{lot}{\addvspace {10pt}}
\@writefile{toc}{\contentsline {chapter}{\chapternumberline {2}The micro-macro acceleration method}{7}{chapter.2}}
\@writefile{toc}{\contentsline {section}{\numberline {2.1}A General Micro-Macro Acceleration Algorithm}{7}{section.2.1}}
\@writefile{lof}{\contentsline {figure}{\numberline {2.1}{\ignorespaces The four stages of the micro-macro acceleration algorithm}}{8}{figure.caption.10}}
\providecommand*\caption@xref[2]{\@setref\relax\@undefined{#1}}
\newlabel{fig:acceleration}{{\M@TitleReference {2.1}{The four stages of the micro-macro acceleration algorithm}}{8}{The four stages of the micro-macro acceleration algorithm}{figure.caption.10}{}}
\newlabel{eq:sdeeulermaruyama}{{2.1}{8}{A General Micro-Macro Acceleration Algorithm}{equation.2.1.1}{}}
\newlabel{eq:linearextrapolation}{{2.3}{8}{A General Micro-Macro Acceleration Algorithm}{equation.2.1.3}{}}
\citation{debrabant2017micro}
\@writefile{loa}{\contentsline {algorithm}{\numberline {1}{\ignorespaces The general micro-macro acceleration algorithm for stiff SDEs.\relax }}{9}{algorithm.1}}
\newlabel{algo:accelerationalgorithm}{{\M@TitleReference {1}{The general micro-macro acceleration algorithm for stiff SDEs.\relax }}{9}{The general micro-macro acceleration algorithm for stiff SDEs.\relax }{algorithm.1}{}}
\citation{debrabant2017micro}
\@writefile{toc}{\contentsline {section}{\numberline {2.2}Properties of the restriction and matching operators}{10}{section.2.2}}
\newlabel{def:momentfunctions}{{\M@TitleReference {1}{Properties of the restriction and matching operators}}{10}{}{assumption.1}{}}
\newlabel{def:restrictionmatchingpair}{{\M@TitleReference {1}{Properties of the restriction and matching operators}}{10}{}{definition.1}{}}
\newlabel{remark1}{{\M@TitleReference {1}{Properties of the restriction and matching operators}}{10}{}{remark.1}{}}
\citation{debrabant2017micro}
\citation{debrabant2017micro}
\citation{debrabant2017micro}
\citation{debrabant2017micro}
\citation{debrabant2017micro}
\@writefile{toc}{\contentsline {section}{\numberline {2.3}Convergence Theorem}{11}{section.2.3}}
\newlabel{thm:micromacroconvergence}{{\M@TitleReference {1}{Convergence Theorem}}{11}{}{theorem.1}{}}
\newlabel{eq:convergenceresult}{{2.6}{11}{}{equation.2.3.6}{}}
\citation{debrabant2017micro}
\citation{debrabant2017micro}
\@writefile{toc}{\contentsline {section}{\numberline {2.4}Matching in $f$-divergence}{12}{section.2.4}}
\newlabel{eq:fdivergencematching}{{2.7}{12}{Matching in $f$-divergence}{equation.2.4.7}{}}
\newlabel{eq:fdivergencefunctional}{{2.8}{12}{Matching in $f$-divergence}{equation.2.4.8}{}}
\newlabel{eq:fdivergencesolution}{{2.9}{12}{Matching in $f$-divergence}{equation.2.4.9}{}}
\newlabel{eq:fdivergencemultipliers}{{2.10}{12}{Matching in $f$-divergence}{equation.2.4.10}{}}
\citation{lelievre2018analysis}
\citation{debrabant2017micro}
\citation{debrabant2017micro}
\citation{debrabant2017micro}
\@writefile{toc}{\contentsline {paragraph}{Relative-entropy matching}{13}{section*.11}}
\newlabel{eq:kldfunction}{{2.11}{13}{Relative-entropy matching}{equation.2.4.11}{}}
\newlabel{eq:kldobjective}{{2.12}{13}{Relative-entropy matching}{equation.2.4.12}{}}
\newlabel{eq:kldsolution}{{2.13}{13}{Relative-entropy matching}{equation.2.4.13}{}}
\newlabel{eq:kldlagrange}{{2.14}{13}{Relative-entropy matching}{equation.2.4.14}{}}
\@writefile{toc}{\contentsline {paragraph}{Other matching strategies}{13}{section*.12}}
\newlabel{eq:l2dfunction}{{2.15}{13}{Other matching strategies}{equation.2.4.15}{}}
\newlabel{eq:l2dsolution}{{2.16}{13}{Other matching strategies}{equation.2.4.16}{}}
\newlabel{eq:l2matching}{{2.17}{13}{Other matching strategies}{equation.2.4.17}{}}
\citation{debrabant2017micro}
\citation{debrabant2017micro}
\citation{wright1999numerical}
\@writefile{lof}{\addvspace {10pt}}
\@writefile{lot}{\addvspace {10pt}}
\@writefile{toc}{\contentsline {chapter}{\chapternumberline {3}Implementation of the micro-macro acceleration algorithm}{15}{chapter.3}}
\@writefile{toc}{\contentsline {section}{\numberline {3.1}Practical Implementation Issues}{15}{section.3.1}}
\@writefile{toc}{\contentsline {subsection}{\numberline {3.1.1}Newton-Raphson for relative-entropy matching}{15}{subsection.3.1.1}}
\newlabel{eq:newtonraphson}{{3.1}{15}{Newton-Raphson for relative-entropy matching}{equation.3.1.1}{}}
\newlabel{eq:functiontosolve}{{3.2}{16}{Newton-Raphson for relative-entropy matching}{equation.3.1.2}{}}
\@writefile{toc}{\contentsline {subsection}{\numberline {3.1.2}Particle reweighting and resampling}{16}{subsection.3.1.2}}
\@writefile{toc}{\contentsline {paragraph}{Implementing matching by particle reweighting}{16}{section*.13}}
\citation{debrabant2017micro}
\citation{hol2006resampling}
\citation{debrabant2017micro}
\citation{debrabant2017micro}
\@writefile{toc}{\contentsline {paragraph}{Particle resampling}{17}{section*.14}}
\@writefile{toc}{\contentsline {subsection}{\numberline {3.1.3}Resolving matching failures by extrapolation time step adaptivity}{17}{subsection.3.1.3}}
\citation{debrabant2017micro}
\citation{DepInj}
\@writefile{toc}{\contentsline {section}{\numberline {3.2}Object-oriented structure of the code}{18}{section.3.2}}
\citation{samaey2011numerical}
\citation{debrabant2017micro}
\@writefile{toc}{\contentsline {paragraph}{Matching Strategies}{19}{section*.15}}
\@writefile{toc}{\contentsline {paragraph}{Iterative Solvers}{19}{section*.16}}
\@writefile{toc}{\contentsline {paragraph}{Microscopic Time steppers}{19}{section*.17}}
\@writefile{lof}{\contentsline {figure}{\numberline {3.1}{\ignorespaces Object-oriented implementation for the micro-macro acceleration algorithm}}{20}{figure.caption.18}}
\newlabel{fig:objectorientedstructure}{{\M@TitleReference {3.1}{Object-oriented implementation for the micro-macro acceleration algorithm}}{20}{Object-oriented implementation for the micro-macro acceleration algorithm}{figure.caption.18}{}}
\citation{debrabant2017micro}
\@writefile{toc}{\contentsline {section}{\numberline {3.3}Numerical Verification: FENE Dumbbells}{21}{section.3.3}}
\newlabel{eq:fenespringforce}{{3.7}{21}{Numerical Verification: FENE Dumbbells}{equation.3.3.7}{}}
\newlabel{eq:fenesde}{{3.8}{21}{Numerical Verification: FENE Dumbbells}{equation.3.3.8}{}}
\newlabel{eq:fenestresstensor}{{3.9}{21}{Numerical Verification: FENE Dumbbells}{equation.3.3.9}{}}
\newlabel{eq:feneinitial}{{3.10}{21}{Numerical Verification: FENE Dumbbells}{equation.3.3.10}{}}
\@writefile{toc}{\contentsline {paragraph}{Euler-Maruyama simulation}{21}{section*.19}}
\citation{debrabant2017micro}
\@writefile{lof}{\contentsline {figure}{\numberline {3.2}{\ignorespaces Exact FENE densities after 0, 1 and 1.1 seconds}}{22}{figure.caption.20}}
\newlabel{fig:fenedensities}{{\M@TitleReference {3.2}{Exact FENE densities after 0, 1 and 1.1 seconds}}{22}{Exact FENE densities after 0, 1 and 1.1 seconds}{figure.caption.20}{}}
\newlabel{eq:feneeulermaruyama}{{3.11}{22}{Euler-Maruyama simulation}{equation.3.3.11}{}}
\@writefile{toc}{\contentsline {paragraph}{Comparison of matching strategies}{22}{section*.21}}
\citation{debrabant2017micro}
\@writefile{lof}{\contentsline {figure}{\numberline {3.3}{\ignorespaces Different matching strategies for FENE with prior after 1 second and target distribution after 1.1 seconds.}}{23}{figure.caption.22}}
\newlabel{fig:fenemoments}{{\M@TitleReference {3.3}{Different matching strategies for FENE with prior after 1 second and target distribution after 1.1 seconds.}}{23}{Different matching strategies for FENE with prior after 1 second and target distribution after 1.1 seconds}{figure.caption.22}{}}
\newlabel{eq:fenemomemtfunctions}{{3.12}{23}{Comparison of matching strategies}{equation.3.3.12}{}}
\@writefile{toc}{\contentsline {paragraph}{Moment accuracy for a varying number of state variables}{23}{section*.23}}
\@writefile{lof}{\contentsline {figure}{\numberline {3.4}{\ignorespaces Relative error of higher order moments of the FENE process}}{24}{figure.caption.24}}
\newlabel{fig:fenemomentconvergence}{{\M@TitleReference {3.4}{Relative error of higher order moments of the FENE process}}{24}{Relative error of higher order moments of the FENE process}{figure.caption.24}{}}
\@writefile{lof}{\contentsline {figure}{\numberline {3.5}{\ignorespaces Relative error of the stress tensor as a function of $\Delta t$}}{24}{figure.caption.26}}
\newlabel{fig:fenetimeconvergence}{{\M@TitleReference {3.5}{Relative error of the stress tensor as a function of $\Delta t$}}{24}{Relative error of the stress tensor as a function of $\Delta t$}{figure.caption.26}{}}
\@writefile{toc}{\contentsline {paragraph}{Accuracy dependency on the extrapolation step}{24}{section*.25}}
\citation{debrabant2017micro}
\citation{debrabant2018study}
\@writefile{lof}{\addvspace {10pt}}
\@writefile{lot}{\addvspace {10pt}}
\@writefile{toc}{\contentsline {chapter}{\chapternumberline {4}Linear slow-fast SDEs: Convergence \& Stability}{25}{chapter.4}}
\newlabel{eq:slowfastlinear}{{4.1}{25}{Linear slow-fast SDEs: Convergence \& Stability}{equation.4.0.1}{}}
\citation{debrabant2018study}
\@writefile{toc}{\contentsline {section}{\numberline {4.1}A decomposition for matching with only slow state variables}{26}{section.4.1}}
\citation{debrabant2018study}
\newlabel{eq:fullmoments}{{4.2}{27}{A decomposition for matching with only slow state variables}{equation.4.1.2}{}}
\newlabel{eq:coarsemoments}{{4.3}{27}{A decomposition for matching with only slow state variables}{equation.4.1.3}{}}
\newlabel{eq:matchingdecomposition}{{4.4}{27}{A decomposition for matching with only slow state variables}{equation.4.1.4}{}}
\@writefile{toc}{\contentsline {section}{\numberline {4.2}Analytic results for matching with a Gaussian initial distribution}{28}{section.4.2}}
\@writefile{toc}{\contentsline {subsection}{\numberline {4.2.1}Minimizing relative entropy}{28}{subsection.4.2.1}}
\newlabel{lemma:entropyminimization}{{\M@TitleReference {1}{Minimizing relative entropy}}{28}{}{lemma.1}{}}
\newlabel{eq:entropy}{{4.6}{28}{Minimizing relative entropy}{equation.4.2.6}{}}
\citation{jaynes2003probability,kapur1992entropy}
\citation{debrabant2018study}
\citation{debrabant2018study}
\newlabel{eq:entropytominimize}{{4.8}{29}{Minimizing relative entropy}{equation.4.2.8}{}}
\newlabel{eq:functionentropytominimize}{{4.9}{29}{Minimizing relative entropy}{equation.4.2.9}{}}
\newlabel{rem:minimizemeanvariance}{{\M@TitleReference {3}{Minimizing relative entropy}}{29}{}{remark.3}{}}
\@writefile{toc}{\contentsline {subsection}{\numberline {4.2.2}Matching with extrapolated slow mean}{29}{subsection.4.2.2}}
\newlabel{thm:linearmatchingmean}{{\M@TitleReference {2}{Matching with extrapolated slow mean}}{29}{}{theorem.2}{}}
\citation{debrabant2018study}
\@writefile{toc}{\contentsline {subsection}{\numberline {4.2.3}Matching with extrapolated slow mean and variance}{30}{subsection.4.2.3}}
\newlabel{thm:linearmatchingmeanvariance}{{\M@TitleReference {3}{Matching with extrapolated slow mean and variance}}{30}{}{theorem.3}{}}
\newlabel{eq:meanvariancematching}{{4.10}{30}{}{equation.4.2.10}{}}
\newlabel{eq:normalfactorizationdefinition}{{4.11}{30}{Matching with extrapolated slow mean and variance}{equation.4.2.11}{}}
\newlabel{eq:tofactorizemeanvariance}{{4.12}{30}{Matching with extrapolated slow mean and variance}{equation.4.2.12}{}}
\newlabel{eq:jointfactorizationmeanvariance}{{4.13}{30}{Matching with extrapolated slow mean and variance}{equation.4.2.13}{}}
\newlabel{eq:jointfactorizationparametersmeanvariance}{{4.14}{31}{Matching with extrapolated slow mean and variance}{equation.4.2.14}{}}
\newlabel{eq:propositionsystemmeanvariance}{{4.15}{31}{Matching with extrapolated slow mean and variance}{equation.4.2.15}{}}
\@writefile{toc}{\contentsline {subsection}{\numberline {4.2.4}Numerical experiments}{31}{subsection.4.2.4}}
\@writefile{toc}{\contentsline {subsubsection}{Propagation of mean and variance with the Euler-Maruyama scheme}{31}{section*.27}}
\newlabel{eq:lineareulermaruyama}{{4.16}{31}{Propagation of mean and variance with the Euler-Maruyama scheme}{equation.4.2.16}{}}
\newlabel{eq:martingale}{{4.17}{32}{Propagation of mean and variance with the Euler-Maruyama scheme}{equation.4.2.17}{}}
\newlabel{eq:linearexpectationeulermaruyama}{{4.18}{32}{Propagation of mean and variance with the Euler-Maruyama scheme}{equation.4.2.18}{}}
\newlabel{eq:linearvarianceeulermaruyama}{{4.19}{32}{Propagation of mean and variance with the Euler-Maruyama scheme}{equation.4.2.19}{}}
\@writefile{toc}{\contentsline {subsubsection}{Experiment 1: extrapolating the slow mean}{32}{section*.28}}
\@writefile{lof}{\contentsline {figure}{\numberline {4.1}{\ignorespaces Analytical results for mean-only extrapolation on a linear SDE}}{33}{figure.caption.29}}
\newlabel{fig:meanextrapolation}{{\M@TitleReference {4.1}{Analytical results for mean-only extrapolation on a linear SDE}}{33}{Analytical results for mean-only extrapolation on a linear SDE}{figure.caption.29}{}}
\citation{debrabant2018study}
\@writefile{toc}{\contentsline {subsubsection}{Experiment 2: extrapolating slow mean and variance}{34}{section*.30}}
\@writefile{toc}{\contentsline {section}{\numberline {4.3}Convergence of the micro-macro acceleration method with slow mean extrapolation}{34}{section.4.3}}
\@writefile{toc}{\contentsline {subsection}{\numberline {4.3.1}An iterative formula for slow mean-only extrapolation}{34}{subsection.4.3.1}}
\@writefile{lof}{\contentsline {figure}{\numberline {4.2}{\ignorespaces Analytic results for mean-variance extrapolation on a linear SDE}}{35}{figure.caption.31}}
\newlabel{fig:meanvarianceextrapolation}{{\M@TitleReference {4.2}{Analytic results for mean-variance extrapolation on a linear SDE}}{35}{Analytic results for mean-variance extrapolation on a linear SDE}{figure.caption.31}{}}
\citation{hershey2007approximating}
\newlabel{eq:meanpropagation}{{4.20}{36}{An iterative formula for slow mean-only extrapolation}{equation.4.3.20}{}}
\@writefile{toc}{\contentsline {subsection}{\numberline {4.3.2}Convergence Theorem}{36}{subsection.4.3.2}}
\newlabel{thm:linearslowconvergence}{{\M@TitleReference {4}{Convergence Theorem}}{36}{}{theorem.4}{}}
\newlabel{eq:proofobjective}{{4.21}{36}{}{equation.4.3.21}{}}
\citation{debrabant2018study}
\citation{debrabant2018study}
\citation{debrabant2018study}
\newlabel{eq:iterativewrittenout}{{4.22}{37}{Convergence Theorem}{equation.4.3.22}{}}
\@writefile{toc}{\contentsline {section}{\numberline {4.4}Stability of micro-macro acceleration}{37}{section.4.4}}
\citation{debrabant2018study}
\@writefile{toc}{\contentsline {subsection}{\numberline {4.4.1}Stability of the Euler-Maruyama scheme with additive noise}{38}{subsection.4.4.1}}
\newlabel{eq:lineardecomposed}{{4.23}{38}{Stability of the Euler-Maruyama scheme with additive noise}{equation.4.4.23}{}}
\newlabel{eq:eminvariant}{{4.25}{38}{Stability of the Euler-Maruyama scheme with additive noise}{equation.4.4.25}{}}
\@writefile{toc}{\contentsline {subsection}{\numberline {4.4.2}Stability of micro-macro acceleration with mean extrapolation}{38}{subsection.4.4.2}}
\newlabel{fig:dt019}{{\M@TitleReference {\caption@xref {fig:dt019}{ on input line 1027}}{Stability of the Euler-Maruyama scheme with additive noise}}{39}{Stability of the Euler-Maruyama scheme with additive noise}{figure.caption.32}{}}
\newlabel{sub@fig:dt019}{{\M@TitleReference {}{Stability of the Euler-Maruyama scheme with additive noise}}{39}{Stability of the Euler-Maruyama scheme with additive noise}{figure.caption.32}{}}
\newlabel{fig:dt0197}{{\M@TitleReference {\caption@xref {fig:dt0197}{ on input line 1031}}{Stability of the Euler-Maruyama scheme with additive noise}}{39}{Stability of the Euler-Maruyama scheme with additive noise}{figure.caption.32}{}}
\newlabel{sub@fig:dt0197}{{\M@TitleReference {}{Stability of the Euler-Maruyama scheme with additive noise}}{39}{Stability of the Euler-Maruyama scheme with additive noise}{figure.caption.32}{}}
\newlabel{fig:dt0203}{{\M@TitleReference {\caption@xref {fig:dt0203}{ on input line 1035}}{Stability of the Euler-Maruyama scheme with additive noise}}{39}{Stability of the Euler-Maruyama scheme with additive noise}{figure.caption.32}{}}
\newlabel{sub@fig:dt0203}{{\M@TitleReference {}{Stability of the Euler-Maruyama scheme with additive noise}}{39}{Stability of the Euler-Maruyama scheme with additive noise}{figure.caption.32}{}}
\newlabel{fig:dt021}{{\M@TitleReference {\caption@xref {fig:dt021}{ on input line 1039}}{Stability of the Euler-Maruyama scheme with additive noise}}{39}{Stability of the Euler-Maruyama scheme with additive noise}{figure.caption.32}{}}
\newlabel{sub@fig:dt021}{{\M@TitleReference {}{Stability of the Euler-Maruyama scheme with additive noise}}{39}{Stability of the Euler-Maruyama scheme with additive noise}{figure.caption.32}{}}
\@writefile{lof}{\contentsline {figure}{\numberline {4.3}{\ignorespaces Stability of the explicit Euler-Maruyama scheme}}{39}{figure.caption.32}}
\newlabel{fig:emstability}{{\M@TitleReference {4.3}{Stability of the explicit Euler-Maruyama scheme}}{39}{Stability of the explicit Euler-Maruyama scheme}{figure.caption.32}{}}
\newlabel{eq:meanextrapolationstability}{{4.26}{39}{Stability of micro-macro acceleration with mean extrapolation}{equation.4.4.26}{}}
\citation{debrabant2018study}
\citation{debrabant2018study}
\citation{debrabant2018study}
\citation{petersen2008matrix}
\@writefile{toc}{\contentsline {paragraph}{Crossing the stability boundary}{40}{section*.33}}
\@writefile{toc}{\contentsline {paragraph}{Independence of $\varepsilon $}{40}{section*.35}}
\@writefile{toc}{\contentsline {subsection}{\numberline {4.4.3}Stability with extrapolated mean and variance}{40}{subsection.4.4.3}}
\newlabel{eq:meanvariancestability}{{4.28}{40}{Stability with extrapolated mean and variance}{equation.4.4.28}{}}
\citation{debrabant2018study}
\@writefile{lof}{\contentsline {figure}{\numberline {4.4}{\ignorespaces Stability of mean-only extrapolation and the average extrapolation step}}{41}{figure.caption.34}}
\newlabel{fig:meanextrapolatedstabilityadaptive}{{\M@TitleReference {4.4}{Stability of mean-only extrapolation and the average extrapolation step}}{41}{Stability of mean-only extrapolation and the average extrapolation step}{figure.caption.34}{}}
\@writefile{lof}{\contentsline {figure}{\numberline {4.5}{\ignorespaces Invariance of the stability threshold with respect to $\varepsilon $ with slow mean extrapolation}}{42}{figure.caption.36}}
\newlabel{fig:meanextrapolatedstabilityadaptiveloweps}{{\M@TitleReference {4.5}{Invariance of the stability threshold with respect to $\varepsilon $ with slow mean extrapolation}}{42}{Invariance of the stability threshold with respect to $\varepsilon $ with slow mean extrapolation}{figure.caption.36}{}}
\@writefile{toc}{\contentsline {paragraph}{Numerical Experiment}{42}{section*.37}}
\@writefile{toc}{\contentsline {paragraph}{Conclusion}{42}{section*.39}}
\@writefile{lof}{\contentsline {figure}{\numberline {4.6}{\ignorespaces Stability of the micro-macro acceleration scheme with mean-variance extrapolation}}{43}{figure.caption.38}}
\newlabel{fig:ch5meanvariancestability}{{\M@TitleReference {4.6}{Stability of the micro-macro acceleration scheme with mean-variance extrapolation}}{43}{Stability of the micro-macro acceleration scheme with mean-variance extrapolation}{figure.caption.38}{}}
\@writefile{lof}{\addvspace {10pt}}
\@writefile{lot}{\addvspace {10pt}}
\@writefile{toc}{\contentsline {chapter}{\chapternumberline {5}Effect of the choice of macroscopic state variables}{45}{chapter.5}}
\@writefile{toc}{\contentsline {section}{\numberline {5.1}The Fokker-Planck equation and closure relations}{45}{section.5.1}}
\@writefile{toc}{\contentsline {paragraph}{The Fokker-Planck equation}{46}{section*.40}}
\newlabel{eq:fp}{{5.1}{46}{The Fokker-Planck equation}{equation.5.1.1}{}}
\@writefile{toc}{\contentsline {paragraph}{Closure relations}{46}{section*.41}}
\@writefile{toc}{\contentsline {paragraph}{Comparison of both methods}{46}{section*.42}}
\citation{debrabant2018study}
\newlabel{fig:agreementfpexperiment2mean}{{\M@TitleReference {\caption@xref {fig:agreementfpexperiment2mean}{ on input line 1186}}{Comparison of both methods}}{47}{Comparison of both methods}{figure.caption.43}{}}
\newlabel{sub@fig:agreementfpexperiment2mean}{{\M@TitleReference {}{Comparison of both methods}}{47}{Comparison of both methods}{figure.caption.43}{}}
\newlabel{fig:agreementfpexperiment2variance}{{\M@TitleReference {\caption@xref {fig:agreementfpexperiment2variance}{ on input line 1190}}{Comparison of both methods}}{47}{Comparison of both methods}{figure.caption.43}{}}
\newlabel{sub@fig:agreementfpexperiment2variance}{{\M@TitleReference {}{Comparison of both methods}}{47}{Comparison of both methods}{figure.caption.43}{}}
\@writefile{lof}{\contentsline {figure}{\numberline {5.1}{\ignorespaces Agreement between several numerical techniques for linear SDEs}}{47}{figure.caption.43}}
\newlabel{fig:agreementdeterministic}{{\M@TitleReference {5.1}{Agreement between several numerical techniques for linear SDEs}}{47}{Agreement between several numerical techniques for linear SDEs}{figure.caption.43}{}}
\@writefile{toc}{\contentsline {section}{\numberline {5.2}Estimating the number of moments for linear SDEs}{47}{section.5.2}}
\@writefile{lof}{\contentsline {figure}{\numberline {5.2}{\ignorespaces Impact of the number slow moments on the slow mode of a linear SDE}}{48}{figure.caption.45}}
\newlabel{fig:impactLx}{{\M@TitleReference {5.2}{Impact of the number slow moments on the slow mode of a linear SDE}}{48}{Impact of the number slow moments on the slow mode of a linear SDE}{figure.caption.45}{}}
\@writefile{toc}{\contentsline {paragraph}{Effect of the number of slow moments}{48}{section*.44}}
\@writefile{toc}{\contentsline {paragraph}{Adding fast moments to the extrapolation operator}{48}{section*.46}}
\@writefile{toc}{\contentsline {paragraph}{A uniform initial distribution}{48}{section*.48}}
\citation{samaey2011numerical}
\@writefile{lof}{\contentsline {figure}{\numberline {5.3}{\ignorespaces Impact of the number of fast moments on the slow mode of a linear SDE}}{49}{figure.caption.47}}
\newlabel{fig:impactLy}{{\M@TitleReference {5.3}{Impact of the number of fast moments on the slow mode of a linear SDE}}{49}{Impact of the number of fast moments on the slow mode of a linear SDE}{figure.caption.47}{}}
\@writefile{lof}{\contentsline {figure}{\numberline {5.4}{\ignorespaces Impact of the number of slow moments on a linear SDE with uniform initial condition}}{49}{figure.caption.49}}
\newlabel{fig:impactLxuniform}{{\M@TitleReference {5.4}{Impact of the number of slow moments on a linear SDE with uniform initial condition}}{49}{Impact of the number of slow moments on a linear SDE with uniform initial condition}{figure.caption.49}{}}
\@writefile{toc}{\contentsline {section}{\numberline {5.3}A non-linear case: FENE-dumbbells}{49}{section.5.3}}
\citation{masmoudi2008well}
\citation{samaey2011numerical}
\citation{samaey2011numerical}
\citation{samaey2011numerical}
\citation{samaey2011numerical}
\@writefile{toc}{\contentsline {subsection}{\numberline {5.3.1}FENE macroscopic state hierarchies}{50}{subsection.5.3.1}}
\newlabel{eq:strategy3}{{5.2}{50}{FENE macroscopic state hierarchies}{equation.5.3.2}{}}
\newlabel{eq:timedependentvelocity}{{5.3}{50}{FENE macroscopic state hierarchies}{equation.5.3.3}{}}
\@writefile{toc}{\contentsline {subsection}{\numberline {5.3.2}Numerical experiments}{50}{subsection.5.3.2}}
\citation{samaey2011numerical}
\@writefile{lof}{\contentsline {figure}{\numberline {5.5}{\ignorespaces Hysteresis of the $\tau -M_1$ phase diagram for the FENE-model}}{51}{figure.caption.50}}
\newlabel{fig:fenehysteresis}{{\M@TitleReference {5.5}{Hysteresis of the $\tau -M_1$ phase diagram for the FENE-model}}{51}{Hysteresis of the $\tau -M_1$ phase diagram for the FENE-model}{figure.caption.50}{}}
\@writefile{lof}{\contentsline {figure}{\numberline {5.6}{\ignorespaces Accuracy of the first moment hierarchy for FENE-dumbbells}}{51}{figure.caption.51}}
\newlabel{fig:strategy1}{{\M@TitleReference {5.6}{Accuracy of the first moment hierarchy for FENE-dumbbells}}{51}{Accuracy of the first moment hierarchy for FENE-dumbbells}{figure.caption.51}{}}
\@writefile{lof}{\contentsline {figure}{\numberline {5.7}{\ignorespaces Accuracy of the second moment hierarchy for FENE-dumbbells}}{52}{figure.caption.52}}
\newlabel{fig:strategy2}{{\M@TitleReference {5.7}{Accuracy of the second moment hierarchy for FENE-dumbbells}}{52}{Accuracy of the second moment hierarchy for FENE-dumbbells}{figure.caption.52}{}}
\@writefile{toc}{\contentsline {subsection}{\numberline {5.3.3}Conclusion}{52}{subsection.5.3.3}}
\@writefile{lof}{\contentsline {figure}{\numberline {5.8}{\ignorespaces Accuracy of the third moment hierarchy for FENE-dumbbells}}{53}{figure.caption.53}}
\newlabel{fig:strategy3}{{\M@TitleReference {5.8}{Accuracy of the third moment hierarchy for FENE-dumbbells}}{53}{Accuracy of the third moment hierarchy for FENE-dumbbells}{figure.caption.53}{}}
\citation{li2008effectiveness}
\@writefile{lof}{\addvspace {10pt}}
\@writefile{lot}{\addvspace {10pt}}
\@writefile{toc}{\contentsline {chapter}{\chapternumberline {6}Accuracy of the extrapolation step size}{55}{chapter.6}}
\@writefile{toc}{\contentsline {section}{\numberline {6.1}A natural averaging strategy}{55}{section.6.1}}
\citation{pavliotis2008multiscale}
\newlabel{eq:ch6sdesystem}{{6.1}{56}{A natural averaging strategy}{equation.6.1.1}{}}
\newlabel{thm:ch6macromodel}{{\M@TitleReference {5}{A natural averaging strategy}}{56}{}{theorem.5}{}}
\newlabel{eq:ch6macro}{{6.2}{56}{}{equation.6.1.2}{}}
\citation{li2008effectiveness}
\@writefile{toc}{\contentsline {section}{\numberline {6.2}A linear driven process}{57}{section.6.2}}
\newlabel{eq:lineardrivensde}{{6.3}{57}{A linear driven process}{equation.6.2.3}{}}
\newlabel{eq:lineardrivensdeode}{{6.4}{57}{A linear driven process}{equation.6.2.4}{}}
\newlabel{eq:lineardrivensolution}{{6.5}{57}{A linear driven process}{equation.6.2.5}{}}
\newlabel{eq:lineardrivenmacro}{{6.6}{57}{A linear driven process}{equation.6.2.6}{}}
\citation{yeh2002using}
\@writefile{lof}{\contentsline {figure}{\numberline {6.1}{\ignorespaces Approximate macroscopic model for the periodic model}}{58}{figure.caption.54}}
\newlabel{fig:meansmicroandaveraged}{{\M@TitleReference {6.1}{Approximate macroscopic model for the periodic model}}{58}{Approximate macroscopic model for the periodic model}{figure.caption.54}{}}
\@writefile{toc}{\contentsline {section}{\numberline {6.3}Efficiency and accuracy of the micro-macro scheme}{58}{section.6.3}}
\@writefile{lof}{\contentsline {figure}{\numberline {6.2}{\ignorespaces Convergence of the approximate macroscopic periodic model}}{59}{figure.caption.55}}
\newlabel{fig:macroerroreps}{{\M@TitleReference {6.2}{Convergence of the approximate macroscopic periodic model}}{59}{Convergence of the approximate macroscopic periodic model}{figure.caption.55}{}}
\@writefile{lof}{\contentsline {figure}{\numberline {6.3}{\ignorespaces Micro-macro acceleration solutions for the periodically driven linear system}}{59}{figure.caption.56}}
\newlabel{fig:meansmicroandaveragedandmicromacro}{{\M@TitleReference {6.3}{Micro-macro acceleration solutions for the periodically driven linear system}}{59}{Micro-macro acceleration solutions for the periodically driven linear system}{figure.caption.56}{}}
\@writefile{lof}{\contentsline {figure}{\numberline {6.4}{\ignorespaces Convergence order of the micro-macro acceleration method}}{60}{figure.caption.57}}
\newlabel{fig:mmerrordtmax}{{\M@TitleReference {6.4}{Convergence order of the micro-macro acceleration method}}{60}{Convergence order of the micro-macro acceleration method}{figure.caption.57}{}}
\@writefile{lof}{\contentsline {figure}{\numberline {6.5}{\ignorespaces Crossover curves when the micro-macro acceleration scheme is more accurate than the approximate macroscopic model}}{61}{figure.caption.58}}
\newlabel{fig:crossover}{{\M@TitleReference {6.5}{Crossover curves when the micro-macro acceleration scheme is more accurate than the approximate macroscopic model}}{61}{Crossover curves when the micro-macro acceleration scheme is more accurate than the approximate macroscopic model}{figure.caption.58}{}}
\@writefile{lof}{\contentsline {figure}{\numberline {6.6}{\ignorespaces Maximal extrapolation factor of the micro-macro acceleration scheme before becoming less accurate than the approximate macroscopic model}}{61}{figure.caption.59}}
\newlabel{fig:maximalsteps}{{\M@TitleReference {6.6}{Maximal extrapolation factor of the micro-macro acceleration scheme before becoming less accurate than the approximate macroscopic model}}{61}{Maximal extrapolation factor of the micro-macro acceleration scheme before becoming less accurate than the approximate macroscopic model}{figure.caption.59}{}}
\@writefile{toc}{\contentsline {paragraph}{Conclusion}{62}{section*.60}}
\citation{bruna2014model}
\@writefile{lof}{\addvspace {10pt}}
\@writefile{lot}{\addvspace {10pt}}
\@writefile{toc}{\contentsline {chapter}{\chapternumberline {7}Applications}{63}{chapter.7}}
\@writefile{toc}{\contentsline {section}{\numberline {7.1}A bistable system}{63}{section.7.1}}
\newlabel{eq:ch6doublewellsde}{{7.1}{63}{A bistable system}{equation.7.1.1}{}}
\citation{bruna2014model}
\newlabel{eq:ch6invariantpotentialmeasure}{{7.2}{64}{A bistable system}{equation.7.1.2}{}}
\@writefile{lof}{\contentsline {figure}{\numberline {7.1}{\ignorespaces Bimodal potential and the associated invariant distribution}}{64}{figure.caption.61}}
\newlabel{fig:ch6potentialdensity}{{\M@TitleReference {7.1}{Bimodal potential and the associated invariant distribution}}{64}{Bimodal potential and the associated invariant distribution}{figure.caption.61}{}}
\@writefile{toc}{\contentsline {subsection}{\numberline {7.1.1}The modelling error in the approximate macroscopic model}{64}{subsection.7.1.1}}
\newlabel{eq:ch6macrobimodal}{{7.3}{64}{The modelling error in the approximate macroscopic model}{equation.7.1.3}{}}
\@writefile{lof}{\contentsline {figure}{\numberline {7.2}{\ignorespaces Particle moving through the double well and the influence on the slow mode}}{65}{figure.caption.62}}
\newlabel{fig:ch6particlemovement}{{\M@TitleReference {7.2}{Particle moving through the double well and the influence on the slow mode}}{65}{Particle moving through the double well and the influence on the slow mode}{figure.caption.62}{}}
\@writefile{lof}{\contentsline {figure}{\numberline {7.3}{\ignorespaces Steady-state error of the approximate macroscopic model}}{66}{figure.caption.63}}
\newlabel{fig:ch6micromacroeps01A0}{{\M@TitleReference {7.3}{Steady-state error of the approximate macroscopic model}}{66}{Steady-state error of the approximate macroscopic model}{figure.caption.63}{}}
\@writefile{toc}{\contentsline {subsection}{\numberline {7.1.2}Improvements by the micro-macro acceleration scheme}{66}{subsection.7.1.2}}
\@writefile{toc}{\contentsline {paragraph}{Conclusion}{66}{section*.66}}
\@writefile{lof}{\contentsline {figure}{\numberline {7.4}{\ignorespaces Limiting cases where the approximate macroscopic model seems accurate}}{67}{figure.caption.64}}
\newlabel{fig:ch6bettermacroapproximation}{{\M@TitleReference {7.4}{Limiting cases where the approximate macroscopic model seems accurate}}{67}{Limiting cases where the approximate macroscopic model seems accurate}{figure.caption.64}{}}
\@writefile{lof}{\contentsline {figure}{\numberline {7.5}{\ignorespaces Improvement by the micro-macro acceleration method on the bimodal model}}{67}{figure.caption.65}}
\newlabel{fig:ch6mMbetter}{{\M@TitleReference {7.5}{Improvement by the micro-macro acceleration method on the bimodal model}}{67}{Improvement by the micro-macro acceleration method on the bimodal model}{figure.caption.65}{}}
\citation{legoll2010effective}
\citation{burov2008fractional}
\citation{mezey1993shape}
\citation{legoll2010effective}
\@writefile{toc}{\contentsline {section}{\numberline {7.2}A tri-atom molecule}{68}{section.7.2}}
\newlabel{eq:triatommolecule}{{7.4}{68}{A tri-atom molecule}{equation.7.2.4}{}}
\newlabel{eq:triatompotential}{{7.5}{68}{A tri-atom molecule}{equation.7.2.5}{}}
\citation{legoll2010effective}
\citation{legoll2010effective}
\citation{legoll2010effective}
\@writefile{lof}{\contentsline {figure}{\numberline {7.6}{\ignorespaces Visualisation of the planar tri-atom molecule}}{69}{figure.caption.67}}
\newlabel{fig:triatom}{{\M@TitleReference {7.6}{Visualisation of the planar tri-atom molecule}}{69}{Visualisation of the planar tri-atom molecule}{figure.caption.67}{}}
\@writefile{toc}{\contentsline {subsection}{\numberline {7.2.1}Approximate macroscopic models for over-damped Langevin dynamics}{69}{subsection.7.2.1}}
\newlabel{eq:generallangevin}{{7.7}{69}{Approximate macroscopic models for over-damped Langevin dynamics}{equation.7.2.7}{}}
\newlabel{eq:langevineffectivedynamics}{{7.8}{69}{Approximate macroscopic models for over-damped Langevin dynamics}{equation.7.2.8}{}}
\newlabel{eq:langevinintegrals}{{7.9}{69}{Approximate macroscopic models for over-damped Langevin dynamics}{equation.7.2.9}{}}
\citation{legoll2010effective}
\citation{zagaris2012stability}
\newlabel{eq:modelx1}{{7.10}{70}{Approximate macroscopic models for over-damped Langevin dynamics}{equation.7.2.10}{}}
\@writefile{lof}{\contentsline {figure}{\numberline {7.7}{\ignorespaces Drift and diffusion term of reaction coordinate $(A-C)^2$}}{70}{figure.caption.68}}
\newlabel{fig:xi2bsigma}{{\M@TitleReference {7.7}{Drift and diffusion term of reaction coordinate $(A-C)^2$}}{70}{Drift and diffusion term of reaction coordinate $(A-C)^2$}{figure.caption.68}{}}
\@writefile{lof}{\contentsline {figure}{\numberline {7.8}{\ignorespaces Accurate approximations of the approximate macroscopic model with reaction coordinate $\xi _1=\theta $}}{71}{figure.caption.69}}
\newlabel{fig:goodaveragedtheta}{{\M@TitleReference {7.8}{Accurate approximations of the approximate macroscopic model with reaction coordinate $\xi _1=\theta $}}{71}{Accurate approximations of the approximate macroscopic model with reaction coordinate $\xi _1=\theta $}{figure.caption.69}{}}
\@writefile{lof}{\contentsline {figure}{\numberline {7.9}{\ignorespaces Steady-state error of the approximate macroscopic model with reaction coordinate $\xi _1=\theta $}}{71}{figure.caption.70}}
\newlabel{fig:badaverageddistance}{{\M@TitleReference {7.9}{Steady-state error of the approximate macroscopic model with reaction coordinate $\xi _1=\theta $}}{71}{Steady-state error of the approximate macroscopic model with reaction coordinate $\xi _1=\theta $}{figure.caption.70}{}}
\@writefile{toc}{\contentsline {subsection}{\numberline {7.2.2}Improvements by micro-macro acceleration}{71}{subsection.7.2.2}}
\@writefile{toc}{\contentsline {paragraph}{Extrapolating the reaction coordinates}{72}{section*.71}}
\@writefile{lof}{\contentsline {figure}{\numberline {7.10}{\ignorespaces Accurate approximation of the micro-macro acceleration scheme with extrapolating $\xi _1$}}{72}{figure.caption.72}}
\newlabel{fig:mmtheta}{{\M@TitleReference {7.10}{Accurate approximation of the micro-macro acceleration scheme with extrapolating $\xi _1$}}{72}{Accurate approximation of the micro-macro acceleration scheme with extrapolating $\xi _1$}{figure.caption.72}{}}
\@writefile{lof}{\contentsline {figure}{\numberline {7.11}{\ignorespaces Accurate approximation of the micro-macro acceleration scheme with extrapolating $\xi _2$}}{73}{figure.caption.73}}
\newlabel{fig:mmdistance}{{\M@TitleReference {7.11}{Accurate approximation of the micro-macro acceleration scheme with extrapolating $\xi _2$}}{73}{Accurate approximation of the micro-macro acceleration scheme with extrapolating $\xi _2$}{figure.caption.73}{}}
\@writefile{toc}{\contentsline {paragraph}{Extrapolating moments of $x_c$ and $y_c$}{73}{section*.74}}
\@writefile{lof}{\contentsline {figure}{\numberline {7.12}{\ignorespaces Accurate approximation of the micro-macro acceleration scheme with extrapolating the first two moments of $x_c$ and $y_c$}}{74}{figure.caption.75}}
\newlabel{fig:mm022}{{\M@TitleReference {7.12}{Accurate approximation of the micro-macro acceleration scheme with extrapolating the first two moments of $x_c$ and $y_c$}}{74}{Accurate approximation of the micro-macro acceleration scheme with extrapolating the first two moments of $x_c$ and $y_c$}{figure.caption.75}{}}
\@writefile{toc}{\contentsline {paragraph}{Conclusion}{74}{section*.76}}
\@writefile{lof}{\addvspace {10pt}}
\@writefile{lot}{\addvspace {10pt}}
\@writefile{toc}{\contentsline {chapter}{\chapternumberline {8}Conclusion and Outlook}{75}{chapter.8}}
\@writefile{toc}{\contentsline {section}{\numberline {8.1}Results}{75}{section.8.1}}
\citation{ebeling2009microfields}
\@writefile{toc}{\contentsline {section}{\numberline {8.2}Outlook to future work}{76}{section.8.2}}
\citation{melis2017projective}
\citation{melis2017projective}
\citation{melis2017projective}
\@writefile{lof}{\addvspace {10pt}}
\@writefile{lot}{\addvspace {10pt}}
\@writefile{toc}{\contentsline {appendix}{\chapternumberline {A}Finite volume method for the Fokker-Planck equation}{79}{appendix.A}}
\@writefile{toc}{\contentsline {section}{\numberline {A.1}Derivation of a finite volume scheme}{79}{section.A.1}}
\@writefile{lof}{\contentsline {figure}{\numberline {A.1}{\ignorespaces Finite volume grid}}{80}{figure.caption.77}}
\newlabel{fig:fvgrid}{{\M@TitleReference {A.1}{Finite volume grid}}{80}{Finite volume grid}{figure.caption.77}{}}
\newlabel{eq:discreteFP}{{A.1}{80}{Derivation of a finite volume scheme}{equation.A.1.1}{}}
\@writefile{toc}{\contentsline {section}{\numberline {A.2}Boundary conditions}{81}{section.A.2}}
\@writefile{toc}{\contentsline {section}{\numberline {A.3}Order test to verify a correct implementation}{81}{section.A.3}}
\@writefile{lof}{\contentsline {figure}{\numberline {A.2}{\ignorespaces Convergence Fokker-Planck}}{82}{figure.caption.78}}
\newlabel{fig:convergencefp}{{\M@TitleReference {A.2}{Convergence Fokker-Planck}}{82}{Convergence Fokker-Planck}{figure.caption.78}{}}
\@writefile{lof}{\addvspace {10pt}}
\@writefile{lot}{\addvspace {10pt}}
\@writefile{toc}{\contentsline {appendix}{\chapternumberline {B}Derivation of a closure model for linear SDEs}{83}{appendix.B}}
\@writefile{toc}{\contentsline {section}{\numberline {B.1}Derivation of the closure relations}{83}{section.B.1}}
\@writefile{toc}{\contentsline {section}{\numberline {B.2}Analytical solution of the closure relations}{84}{section.B.2}}
\newlabel{eq:closureanalytic}{{B.3}{84}{Analytical solution of the closure relations}{equation.B.2.3}{}}
\@writefile{lof}{\contentsline {figure}{\numberline {B.1}{\ignorespaces Linear closure convergence order}}{85}{figure.caption.79}}
\newlabel{fig:convergenceclosuretend05}{{\M@TitleReference {B.1}{Linear closure convergence order}}{85}{Linear closure convergence order}{figure.caption.79}{}}
\@writefile{toc}{\contentsline {section}{\numberline {B.3}Convergence test for the forward Euler implementation}{85}{section.B.3}}
\@writefile{lof}{\addvspace {10pt}}
\@writefile{lot}{\addvspace {10pt}}
\@writefile{toc}{\contentsline {appendix}{\chapternumberline {C}Poster}{87}{appendix.C}}
\@writefile{lof}{\contentsline {figure}{\numberline {C.1}{\ignorespaces Poster}}{88}{figure.caption.80}}
\newlabel{fig:poster}{{\M@TitleReference {C.1}{Poster}}{88}{Poster}{figure.caption.80}{}}
\bibdata{biblio}
\bibcite{abdulle2007stabilized}{1}
\bibcite{abdulle2008s}{2}
\bibcite{abdulle2012heterogeneous}{3}
\bibcite{bruna2014model}{4}
\bibcite{burov2008fractional}{5}
\bibcite{burrage2004numerical}{6}
\bibcite{byrne1987stiff}{7}
\bibcite{chalub2006model}{8}
\bibcite{debrabant2017micro}{9}
\bibcite{debrabant2018study}{10}
\bibcite{ebeling2009microfields}{11}
\@writefile{toc}{\contentsline {chapter}{Bibliography}{89}{section*.82}}
\bibcite{ghoos2016accuracy}{12}
\bibcite{givon2004extracting}{13}
\bibcite{hershey2007approximating}{14}
\bibcite{hol2006resampling}{15}
\bibcite{jaynes2003probability}{16}
\bibcite{kapur1992entropy}{17}
\bibcite{kevrekidis2003equation}{18}
\bibcite{kevrekidis2009equation}{19}
\bibcite{komori2012weak}{20}
\bibcite{komori2013strong}{21}
\bibcite{legoll2010effective}{22}
\bibcite{lelievre2018analysis}{23}
\bibcite{li2008effectiveness}{24}
\bibcite{masmoudi2008well}{25}
\bibcite{melis2017projective}{26}
\bibcite{mezey1993shape}{27}
\bibcite{DepInj}{28}
\bibcite{pavliotis2008multiscale}{29}
\bibcite{petersen2008matrix}{30}
\bibcite{saito1996stability}{31}
\bibcite{samaey2011numerical}{32}
\bibcite{wright1999numerical}{33}
\bibcite{yeh2002using}{34}
\bibcite{zagaris2012stability}{35}
\bibstyle{plain}
\select@language{dutch}
\@writefile{toc}{\select@language{dutch}}
\@writefile{lof}{\select@language{dutch}}
\@writefile{lot}{\select@language{dutch}}
\select@language{english}
\@writefile{toc}{\select@language{english}}
\@writefile{lof}{\select@language{english}}
\@writefile{lot}{\select@language{english}}
\select@language{dutch}
\@writefile{toc}{\select@language{dutch}}
\@writefile{lof}{\select@language{dutch}}
\@writefile{lot}{\select@language{dutch}}
\select@language{english}
\@writefile{toc}{\select@language{english}}
\@writefile{lof}{\select@language{english}}
\@writefile{lot}{\select@language{english}}
\select@language{dutch}
\@writefile{toc}{\select@language{dutch}}
\@writefile{lof}{\select@language{dutch}}
\@writefile{lot}{\select@language{dutch}}
\select@language{english}
\@writefile{toc}{\select@language{english}}
\@writefile{lof}{\select@language{english}}
\@writefile{lot}{\select@language{english}}
\select@language{dutch}
\@writefile{toc}{\select@language{dutch}}
\@writefile{lof}{\select@language{dutch}}
\@writefile{lot}{\select@language{dutch}}
\select@language{english}
\@writefile{toc}{\select@language{english}}
\@writefile{lof}{\select@language{english}}
\@writefile{lot}{\select@language{english}}
\select@language{dutch}
\@writefile{toc}{\select@language{dutch}}
\@writefile{lof}{\select@language{dutch}}
\@writefile{lot}{\select@language{dutch}}
\select@language{english}
\@writefile{toc}{\select@language{english}}
\@writefile{lof}{\select@language{english}}
\@writefile{lot}{\select@language{english}}
\memsetcounter{lastsheet}{104}
\memsetcounter{lastpage}{92}
