\relax 
\providecommand\hyper@newdestlabel[2]{}
\providecommand\HyperFirstAtBeginDocument{\AtBeginDocument}
\HyperFirstAtBeginDocument{\ifx\hyper@anchor\@undefined
\global\let\oldcontentsline\contentsline
\gdef\contentsline#1#2#3#4{\oldcontentsline{#1}{#2}{#3}}
\global\let\oldnewlabel\newlabel
\gdef\newlabel#1#2{\newlabelxx{#1}#2}
\gdef\newlabelxx#1#2#3#4#5#6{\oldnewlabel{#1}{{#2}{#3}}}
\AtEndDocument{\ifx\hyper@anchor\@undefined
\let\contentsline\oldcontentsline
\let\newlabel\oldnewlabel
\fi}
\fi}
\global\let\hyper@last\relax 
\gdef\HyperFirstAtBeginDocument#1{#1}
\providecommand\HyField@AuxAddToFields[1]{}
\providecommand\HyField@AuxAddToCoFields[2]{}
\select@language{english}
\@writefile{toc}{\select@language{english}}
\@writefile{lof}{\select@language{english}}
\@writefile{lot}{\select@language{english}}
\@writefile{toc}{\contentsline {chapter}{\numberline {1}Stability of micro-macro acceleration}{1}{chapter.1}}
\@writefile{lof}{\addvspace {10\p@ }}
\@writefile{lot}{\addvspace {10\p@ }}
\@writefile{toc}{\contentsline {section}{\numberline {1.1}A linear test equation}{1}{section.1.1}}
\@writefile{toc}{\contentsline {section}{\numberline {1.2}Stability in stochastic sense}{2}{section.1.2}}
\@writefile{toc}{\contentsline {paragraph}{Multiplicative noise}{2}{section*.1}}
\@writefile{toc}{\contentsline {paragraph}{Additive Noise}{2}{section*.2}}
\newlabel{eq:emtestequation}{{1.7}{2}{Additive Noise}{equation.1.2.7}{}}
\newlabel{eq:eminvariant}{{1.9}{3}{Additive Noise}{equation.1.2.9}{}}
\@writefile{toc}{\contentsline {section}{\numberline {1.3}Micro-macro stability with mean extrapolation}{3}{section.1.3}}
\providecommand*\caption@xref[2]{\@setref\relax\@undefined{#1}}
\newlabel{fig:dt019}{{\caption@xref {fig:dt019}{ on input line 106}}{4}{Additive Noise}{figure.caption.3}{}}
\newlabel{sub@fig:dt019}{{}{4}{Additive Noise}{figure.caption.3}{}}
\newlabel{fig:dt0197}{{\caption@xref {fig:dt0197}{ on input line 110}}{4}{Additive Noise}{figure.caption.3}{}}
\newlabel{sub@fig:dt0197}{{}{4}{Additive Noise}{figure.caption.3}{}}
\newlabel{fig:dt0203}{{\caption@xref {fig:dt0203}{ on input line 114}}{4}{Additive Noise}{figure.caption.3}{}}
\newlabel{sub@fig:dt0203}{{}{4}{Additive Noise}{figure.caption.3}{}}
\newlabel{fig:dt021}{{\caption@xref {fig:dt021}{ on input line 118}}{4}{Additive Noise}{figure.caption.3}{}}
\newlabel{sub@fig:dt021}{{}{4}{Additive Noise}{figure.caption.3}{}}
\@writefile{lof}{\contentsline {figure}{\numberline {1.1}{\ignorespaces Invariant distributions of the Euler-Maruyama scheme \ref  {eq:eminvariant} for linear SDE \ref  {eq:linearteststde} for different step sizes $\delta t$ with end time $T=30$. The stability of the method clearly breaks if $\delta t > 0.2$.\relax }}{4}{figure.caption.3}}
\newlabel{fig:emstability}{{1.1}{4}{Invariant distributions of the Euler-Maruyama scheme \ref {eq:eminvariant} for linear SDE \ref {eq:linearteststde} for different step sizes $\delta t$ with end time $T=30$. The stability of the method clearly breaks if $\delta t > 0.2$.\relax }{figure.caption.3}{}}
\newlabel{eq:meanextrapolationstability}{{1.16}{4}{Micro-macro stability with mean extrapolation}{equation.1.3.16}{}}
\newlabel{eq:linearteststde}{{1.17}{5}{Micro-macro stability with mean extrapolation}{equation.1.3.17}{}}
\@writefile{toc}{\contentsline {subsection}{\numberline {1.3.1}Numerical experiments}{5}{subsection.1.3.1}}
\@writefile{toc}{\contentsline {section}{\numberline {1.4}Stability with extrapolated mean and variance}{5}{section.1.4}}
\@writefile{lof}{\contentsline {figure}{\numberline {1.2}{\ignorespaces Invariant distributions of the micro-macro scheme with coarse mean-only extrapolation of the linear SDE with $\epsilon = 0.1$, computed at $T = 110$ seconds.\relax }}{6}{figure.caption.4}}
\newlabel{fig:meanextrapolatedstability}{{1.2}{6}{Invariant distributions of the micro-macro scheme with coarse mean-only extrapolation of the linear SDE with $\epsilon = 0.1$, computed at $T = 110$ seconds.\relax }{figure.caption.4}{}}
\@writefile{toc}{\contentsline {subsection}{\numberline {1.4.1}Kronecker product and Kronecker sum}{6}{subsection.1.4.1}}
\@writefile{lof}{\contentsline {figure}{\numberline {1.3}{\ignorespaces Invariant distributions of the acceleration scheme with adaptive time stepping at end time $T=300$ for several values $\Delta t_{\text  {max}}$. For $\Delta t_{\text  {max}} \geq 2$ the adaptivity sets in.\relax }}{7}{figure.caption.5}}
\newlabel{fig:meanextrapolatedstabilityadaptive}{{1.3}{7}{Invariant distributions of the acceleration scheme with adaptive time stepping at end time $T=300$ for several values $\Delta t_{\text {max}}$. For $\Delta t_{\text {max}} \geq 2$ the adaptivity sets in.\relax }{figure.caption.5}{}}
\newlabel{eq:kroneckerproductvectorization}{{1.18}{7}{Kronecker product and Kronecker sum}{equation.1.4.18}{}}
\@writefile{toc}{\contentsline {subsection}{\numberline {1.4.2}Derivation of the stability bound}{7}{subsection.1.4.2}}
\@writefile{lof}{\contentsline {figure}{\numberline {1.4}{\ignorespaces Histograms of the acceleration scheme on the linear test system with a scale separation of $\epsilon =0.01$ after $T=300$ seconds for several values of $\Delta t_{\text  {max}}$.\relax }}{8}{figure.caption.6}}
\newlabel{fig:meanextrapolatedstabilityadaptiveloweps}{{1.4}{8}{Histograms of the acceleration scheme on the linear test system with a scale separation of $\epsilon =0.01$ after $T=300$ seconds for several values of $\Delta t_{\text {max}}$.\relax }{figure.caption.6}{}}
\newlabel{eq:stabmeanvarderivation}{{1.20}{8}{Derivation of the stability bound}{equation.1.4.20}{}}
\@writefile{toc}{\contentsline {subsection}{\numberline {1.4.3}Numerical experiment}{9}{subsection.1.4.3}}
