\relax 
\providecommand\hyper@newdestlabel[2]{}
\providecommand\HyperFirstAtBeginDocument{\AtBeginDocument}
\HyperFirstAtBeginDocument{\ifx\hyper@anchor\@undefined
\global\let\oldcontentsline\contentsline
\gdef\contentsline#1#2#3#4{\oldcontentsline{#1}{#2}{#3}}
\global\let\oldnewlabel\newlabel
\gdef\newlabel#1#2{\newlabelxx{#1}#2}
\gdef\newlabelxx#1#2#3#4#5#6{\oldnewlabel{#1}{{#2}{#3}}}
\AtEndDocument{\ifx\hyper@anchor\@undefined
\let\contentsline\oldcontentsline
\let\newlabel\oldnewlabel
\fi}
\fi}
\global\let\hyper@last\relax 
\gdef\HyperFirstAtBeginDocument#1{#1}
\providecommand\HyField@AuxAddToFields[1]{}
\providecommand\HyField@AuxAddToCoFields[2]{}
\select@language{english}
\@writefile{toc}{\select@language{english}}
\@writefile{lof}{\select@language{english}}
\@writefile{lot}{\select@language{english}}
\citation{debrabant2015micro}
\@writefile{toc}{\contentsline {chapter}{\numberline {1}Matching Strategies}{2}{chapter.1}}
\@writefile{lof}{\addvspace {10\p@ }}
\@writefile{lot}{\addvspace {10\p@ }}
\@writefile{toc}{\contentsline {section}{\numberline {1.1}Mathematical Preliminaries}{2}{section.1.1}}
\citation{atkinson2005theoretical}
\newlabel{eq:extendedrestrictionoperator}{{1.2}{3}{Mathematical Preliminaries}{equation.1.1.2}{}}
\@writefile{toc}{\contentsline {section}{\numberline {1.2}Matching in $L_2$ norm (L2N)}{3}{section.1.2}}
\newlabel{eq:l2nobjective}{{1.3}{3}{Matching in $L_2$ norm (L2N)}{equation.1.2.3}{}}
\newlabel{eq:l2nchangedobjective}{{1.4}{3}{Matching in $L_2$ norm (L2N)}{equation.1.2.4}{}}
\@writefile{toc}{\contentsline {subsection}{\numberline {1.2.1}Derivation of a formula for L2N matching}{3}{subsection.1.2.1}}
\newlabel{eq:gramschmidt}{{1.5}{3}{Derivation of a formula for L2N matching}{equation.1.2.5}{}}
\newlabel{eq:changedl2nobjectivesolution}{{1.6}{3}{Derivation of a formula for L2N matching}{equation.1.2.6}{}}
\newlabel{eq:phidecomposition}{{1.7}{4}{Derivation of a formula for L2N matching}{equation.1.2.7}{}}
\newlabel{eq:l2nformula}{{1.8}{4}{Derivation of a formula for L2N matching}{equation.1.2.8}{}}
\newlabel{eq:l2nlagrangemultipliers}{{1.9}{4}{Derivation of a formula for L2N matching}{equation.1.2.9}{}}
\citation{debrabant2015micro}
\citation{debrabant2015micro}
\citation{debrabant2015micro}
\@writefile{toc}{\contentsline {subsection}{\numberline {1.2.2}Non-negativity, continuity and consistency of L2N matching}{5}{subsection.1.2.2}}
\citation{debrabant2015micro}
\@writefile{toc}{\contentsline {section}{\numberline {1.3}Matching with f-divergence}{6}{section.1.3}}
\newlabel{eq:fdivergenceobjective}{{1.10}{6}{Matching with f-divergence}{equation.1.3.10}{}}
\newlabel{eq:fdivergencefunctional}{{1.11}{6}{Matching with f-divergence}{equation.1.3.11}{}}
\newlabel{eq:fdivergencesolution}{{1.12}{6}{Matching with f-divergence}{equation.1.3.12}{}}
\citation{samaey2011numerical}
\citation{debrabant2015micro}
\newlabel{eq:fdivergencelagrange}{{1.13}{7}{Matching with f-divergence}{equation.1.3.13}{}}
\@writefile{toc}{\contentsline {subsection}{\numberline {1.3.1}Kullback-Leibler divergence}{7}{subsection.1.3.1}}
\newlabel{eq:kldfunction}{{1.14}{7}{Kullback-Leibler divergence}{equation.1.3.14}{}}
\newlabel{eq:kldobjective}{{1.15}{7}{Kullback-Leibler divergence}{equation.1.3.15}{}}
\newlabel{eq:kldsolution}{{1.16}{7}{Kullback-Leibler divergence}{equation.1.3.16}{}}
\newlabel{eq:kldlagrange}{{1.17}{7}{Kullback-Leibler divergence}{equation.1.3.17}{}}
\citation{debrabant2015micro}
\@writefile{toc}{\contentsline {subsection}{\numberline {1.3.2}$L_2$ divergence}{8}{subsection.1.3.2}}
\newlabel{eq:l2dfunction}{{1.18}{8}{$L_2$ divergence}{equation.1.3.18}{}}
\newlabel{eq:l2ddivergence}{{1.19}{8}{$L_2$ divergence}{equation.1.3.19}{}}
\newlabel{eq:l2dsolution}{{1.20}{8}{$L_2$ divergence}{equation.1.3.20}{}}
\newlabel{eq:l2dlagrange}{{1.21}{8}{$L_2$ divergence}{equation.1.3.21}{}}
\@writefile{toc}{\contentsline {section}{\numberline {1.4}Numerical Illustration: FENE Dumbbels}{8}{section.1.4}}
\newlabel{eq:fenespringforce}{{1.22}{8}{Numerical Illustration: FENE Dumbbels}{equation.1.4.22}{}}
\citation{debrabant2015micro}
\newlabel{eq:fenesde}{{1.23}{9}{Numerical Illustration: FENE Dumbbels}{equation.1.4.23}{}}
\newlabel{eq:fenestresstensor}{{1.24}{9}{Numerical Illustration: FENE Dumbbels}{equation.1.4.24}{}}
\newlabel{eq:feneinitial}{{1.25}{9}{Numerical Illustration: FENE Dumbbels}{equation.1.4.25}{}}
\@writefile{toc}{\contentsline {paragraph}{Euler-Maruyama Simulation}{9}{section*.2}}
\newlabel{eq:feneeulermaruyama}{{1.26}{9}{Euler-Maruyama Simulation}{equation.1.4.26}{}}
\@writefile{lof}{\contentsline {figure}{\numberline {1.1}{\ignorespaces Probability densities for the FENE model \ref  {eq:fenesde} with initial condition \ref  {eq:feneinitial} after 0, 1 and 1.1 seconds. The plot was obtained my a kernel density estimation with $10^5$ particles and a bandwidth of $0.2$.\relax }}{10}{figure.caption.4}}
\providecommand*\caption@xref[2]{\@setref\relax\@undefined{#1}}
\newlabel{fig:fenedensities}{{1.1}{10}{Probability densities for the FENE model \ref {eq:fenesde} with initial condition \ref {eq:feneinitial} after 0, 1 and 1.1 seconds. The plot was obtained my a kernel density estimation with $10^5$ particles and a bandwidth of $0.2$.\relax }{figure.caption.4}{}}
\@writefile{toc}{\contentsline {paragraph}{Comparison of matching strategies}{10}{section*.3}}
\newlabel{eq:fenemomemtfunctions}{{1.27}{10}{Comparison of matching strategies}{equation.1.4.27}{}}
\newlabel{fig1:a}{{1.2a}{11}{L2N\relax }{figure.caption.5}{}}
\newlabel{sub@fig1:a}{{a}{11}{L2N\relax }{figure.caption.5}{}}
\newlabel{fig1:b}{{1.2b}{11}{KLD\relax }{figure.caption.5}{}}
\newlabel{sub@fig1:b}{{b}{11}{KLD\relax }{figure.caption.5}{}}
\newlabel{fig:l2d}{{1.2c}{11}{L2D\relax }{figure.caption.5}{}}
\newlabel{sub@fig:l2d}{{c}{11}{L2D\relax }{figure.caption.5}{}}
\@writefile{lof}{\contentsline {figure}{\numberline {1.2}{\ignorespaces Matching results for the three different strategies and a varying number of moments.\relax }}{11}{figure.caption.5}}
\newlabel{fig:fenemoments}{{1.2}{11}{Matching results for the three different strategies and a varying number of moments.\relax }{figure.caption.5}{}}
\newlabel{fig:l2nmomentconvergence}{{1.3a}{12}{L2N matching.\relax }{figure.caption.8}{}}
\newlabel{sub@fig:l2nmomentconvergence}{{a}{12}{L2N matching.\relax }{figure.caption.8}{}}
\newlabel{fig:fdivergencemomentconvergence}{{1.3b}{12}{F-divergence matching.\relax }{figure.caption.8}{}}
\newlabel{sub@fig:fdivergencemomentconvergence}{{b}{12}{F-divergence matching.\relax }{figure.caption.8}{}}
\@writefile{lof}{\contentsline {figure}{\numberline {1.3}{\ignorespaces Relative error of even normalized moments for the different matching strategies as a function of the number of extrapolated moments $L$.\relax }}{12}{figure.caption.8}}
\newlabel{fig:fenemomentconvergence}{{1.3}{12}{Relative error of even normalized moments for the different matching strategies as a function of the number of extrapolated moments $L$.\relax }{figure.caption.8}{}}
\@writefile{toc}{\contentsline {paragraph}{Matching accuracy for a varying number of moments}{12}{section*.6}}
\@writefile{toc}{\contentsline {paragraph}{Moment accuracy for a varying number of moments}{12}{section*.7}}
\@writefile{toc}{\contentsline {paragraph}{Accuracy dependency on the extrapolation step}{12}{section*.9}}
\bibdata{december}
\newlabel{fig:l2nconvergence}{{1.4a}{13}{L2N\relax }{figure.caption.10}{}}
\newlabel{sub@fig:l2nconvergence}{{a}{13}{L2N\relax }{figure.caption.10}{}}
\newlabel{fig:fenefdivergenceconvergence}{{1.4b}{13}{KLD and L2D\relax }{figure.caption.10}{}}
\newlabel{sub@fig:fenefdivergenceconvergence}{{b}{13}{KLD and L2D\relax }{figure.caption.10}{}}
\@writefile{lof}{\contentsline {figure}{\numberline {1.4}{\ignorespaces Relative error of the stress tensor as a function of the extrapolation time step $\Delta t$ for the three matching strategies and varying number of moment functions.\relax }}{13}{figure.caption.10}}
\newlabel{fig:fenetimeconvergence}{{1.4}{13}{Relative error of the stress tensor as a function of the extrapolation time step $\Delta t$ for the three matching strategies and varying number of moment functions.\relax }{figure.caption.10}{}}
\bibcite{atkinson2005theoretical}{1}
\bibcite{debrabant2015micro}{2}
\bibcite{samaey2011numerical}{3}
\bibstyle{plain}
