\relax 
\providecommand\hyper@newdestlabel[2]{}
\providecommand\HyperFirstAtBeginDocument{\AtBeginDocument}
\HyperFirstAtBeginDocument{\ifx\hyper@anchor\@undefined
\global\let\oldcontentsline\contentsline
\gdef\contentsline#1#2#3#4{\oldcontentsline{#1}{#2}{#3}}
\global\let\oldnewlabel\newlabel
\gdef\newlabel#1#2{\newlabelxx{#1}#2}
\gdef\newlabelxx#1#2#3#4#5#6{\oldnewlabel{#1}{{#2}{#3}}}
\AtEndDocument{\ifx\hyper@anchor\@undefined
\let\contentsline\oldcontentsline
\let\newlabel\oldnewlabel
\fi}
\fi}
\global\let\hyper@last\relax 
\gdef\HyperFirstAtBeginDocument#1{#1}
\providecommand\HyField@AuxAddToFields[1]{}
\providecommand\HyField@AuxAddToCoFields[2]{}
\select@language{english}
\@writefile{toc}{\select@language{english}}
\@writefile{lof}{\select@language{english}}
\@writefile{lot}{\select@language{english}}
\@writefile{toc}{\contentsline {chapter}{\numberline {1}Implementation of the acceleration algorithm}{2}{chapter.1}}
\@writefile{lof}{\addvspace {10\p@ }}
\@writefile{lot}{\addvspace {10\p@ }}
\@writefile{toc}{\contentsline {section}{\numberline {1.1}Practical Implementation Issues}{2}{section.1.1}}
\@writefile{toc}{\contentsline {subsection}{\numberline {1.1.1}Newton-Raphson iterations}{2}{subsection.1.1.1}}
\newlabel{eq:newtonraphson}{{1.1}{2}{Newton-Raphson iterations}{equation.1.1.1}{}}
\@writefile{toc}{\contentsline {paragraph}{KLD Matching}{3}{section*.2}}
\newlabel{eq:functiontosolve}{{1.2}{3}{KLD Matching}{equation.1.1.2}{}}
\@writefile{toc}{\contentsline {paragraph}{L2D Matching}{3}{section*.3}}
\newlabel{eq:l2defficientnewton}{{1.8}{3}{L2D Matching}{equation.1.1.8}{}}
\citation{debrabant2015micro}
\@writefile{toc}{\contentsline {subsection}{\numberline {1.1.2}Towards a practical acceleration algorithm}{4}{subsection.1.1.2}}
\@writefile{toc}{\contentsline {paragraph}{Adaptivity}{4}{section*.4}}
\@writefile{toc}{\contentsline {paragraph}{Particle reweighing}{4}{section*.5}}
\citation{debrabant2015micro}
\citation{debrabant2015micro}
\citation{debrabant2015micro}
\newlabel{eq:l2nreweighing}{{1.12}{5}{Particle reweighing}{equation.1.1.12}{}}
\@writefile{toc}{\contentsline {paragraph}{Particle resampling}{5}{section*.6}}
\citation{DepInj}
\@writefile{toc}{\contentsline {section}{\numberline {1.2}Object-oriented structure of the code}{6}{section.1.2}}
\@writefile{toc}{\contentsline {paragraph}{Matching Strategies}{6}{section*.7}}
\bibdata{december}
\@writefile{toc}{\contentsline {paragraph}{Iterative Solvers}{7}{section*.8}}
\@writefile{toc}{\contentsline {paragraph}{Microscopic Timesteppers}{7}{section*.9}}
\@writefile{lof}{\contentsline {figure}{\numberline {1.1}{\ignorespaces Class diagram of all relevant classes and subclasses for an efficient and reusable implementation of the micro-macro acceleration algorithm.\relax }}{8}{figure.caption.10}}
\bibcite{debrabant2015micro}{1}
\bibcite{DepInj}{2}
\bibstyle{plain}
