\relax 
\providecommand\hyper@newdestlabel[2]{}
\providecommand\HyperFirstAtBeginDocument{\AtBeginDocument}
\HyperFirstAtBeginDocument{\ifx\hyper@anchor\@undefined
\global\let\oldcontentsline\contentsline
\gdef\contentsline#1#2#3#4{\oldcontentsline{#1}{#2}{#3}}
\global\let\oldnewlabel\newlabel
\gdef\newlabel#1#2{\newlabelxx{#1}#2}
\gdef\newlabelxx#1#2#3#4#5#6{\oldnewlabel{#1}{{#2}{#3}}}
\AtEndDocument{\ifx\hyper@anchor\@undefined
\let\contentsline\oldcontentsline
\let\newlabel\oldnewlabel
\fi}
\fi}
\global\let\hyper@last\relax 
\gdef\HyperFirstAtBeginDocument#1{#1}
\providecommand\HyField@AuxAddToFields[1]{}
\providecommand\HyField@AuxAddToCoFields[2]{}
\abx@aux@sortscheme{nty}
\abx@aux@refcontext{nty/global/}
\@writefile{toc}{\boolfalse {citerequest}\boolfalse {citetracker}\boolfalse {pagetracker}\boolfalse {backtracker}\relax }
\@writefile{lof}{\boolfalse {citerequest}\boolfalse {citetracker}\boolfalse {pagetracker}\boolfalse {backtracker}\relax }
\@writefile{lot}{\boolfalse {citerequest}\boolfalse {citetracker}\boolfalse {pagetracker}\boolfalse {backtracker}\relax }
\select@language{english}
\@writefile{toc}{\defcounter {refsection}{0}\relax }\@writefile{toc}{\select@language{english}}
\@writefile{lof}{\defcounter {refsection}{0}\relax }\@writefile{lof}{\select@language{english}}
\@writefile{lot}{\defcounter {refsection}{0}\relax }\@writefile{lot}{\select@language{english}}
\@writefile{nav}{\headcommand {\slideentry {0}{0}{1}{1/1}{}{0}}}
\@writefile{nav}{\headcommand {\beamer@framepages {1}{1}}}
\@writefile{nav}{\headcommand {\slideentry {0}{0}{2}{2/2}{}{0}}}
\@writefile{nav}{\headcommand {\beamer@framepages {2}{2}}}
\@writefile{nav}{\headcommand {\slideentry {0}{0}{3}{3/3}{}{0}}}
\@writefile{nav}{\headcommand {\beamer@framepages {3}{3}}}
\@writefile{nav}{\headcommand {\slideentry {0}{0}{4}{4/4}{}{0}}}
\@writefile{nav}{\headcommand {\beamer@framepages {4}{4}}}
\@writefile{nav}{\headcommand {\slideentry {0}{0}{5}{5/5}{}{0}}}
\@writefile{nav}{\headcommand {\beamer@framepages {5}{5}}}
\providecommand*\caption@xref[2]{\@setref\relax\@undefined{#1}}
\newlabel{fig:acceleration}{{\caption@xref {fig:acceleration}{ on input line 165}}{6}{}{Doc-Start}{}}
\@writefile{snm}{\beamer@slide {fig:acceleration}{6}}
\@writefile{nav}{\headcommand {\slideentry {0}{0}{6}{6/6}{}{0}}}
\@writefile{nav}{\headcommand {\beamer@framepages {6}{6}}}
\@writefile{nav}{\headcommand {\slideentry {0}{0}{7}{7/7}{}{0}}}
\@writefile{nav}{\headcommand {\beamer@framepages {7}{7}}}
\@writefile{nav}{\headcommand {\slideentry {0}{0}{8}{8/8}{}{0}}}
\@writefile{nav}{\headcommand {\beamer@framepages {8}{8}}}
\@writefile{toc}{\beamer@sectionintoc {1}{A new convergence result}{9}{0}{1}}
\@writefile{nav}{\headcommand {\sectionentry {1}{A new convergence result}{9}{A new convergence result}{0}}}
\@writefile{nav}{\headcommand {\beamer@sectionpages {1}{8}}}
\@writefile{nav}{\headcommand {\beamer@subsectionpages {1}{8}}}
\@writefile{nav}{\headcommand {\slideentry {1}{0}{1}{9/9}{}{0}}}
\@writefile{nav}{\headcommand {\beamer@framepages {9}{9}}}
\newlabel{thm:linearslowconvergence}{{1}{10}{}{Doc-Start}{}}
\@writefile{snm}{\beamer@slide {thm:linearslowconvergence}{10}}
\@writefile{nav}{\headcommand {\slideentry {1}{0}{2}{10/10}{}{0}}}
\@writefile{nav}{\headcommand {\beamer@framepages {10}{10}}}
\@writefile{toc}{\beamer@sectionintoc {2}{Influence of moment selection}{11}{0}{2}}
\@writefile{nav}{\headcommand {\sectionentry {2}{Influence of moment selection}{11}{Influence of moment selection}{0}}}
\@writefile{nav}{\headcommand {\beamer@sectionpages {9}{10}}}
\@writefile{nav}{\headcommand {\beamer@subsectionpages {9}{10}}}
\@writefile{nav}{\headcommand {\slideentry {2}{0}{1}{11/11}{}{0}}}
\@writefile{nav}{\headcommand {\beamer@framepages {11}{11}}}
\@writefile{nav}{\headcommand {\slideentry {2}{0}{2}{12/12}{}{0}}}
\@writefile{nav}{\headcommand {\beamer@framepages {12}{12}}}
\@writefile{nav}{\headcommand {\slideentry {2}{0}{3}{13/13}{}{0}}}
\@writefile{nav}{\headcommand {\beamer@framepages {13}{13}}}
\@writefile{nav}{\headcommand {\slideentry {2}{0}{4}{14/14}{}{0}}}
\@writefile{nav}{\headcommand {\beamer@framepages {14}{14}}}
\@writefile{nav}{\headcommand {\slideentry {2}{0}{5}{15/15}{}{0}}}
\@writefile{nav}{\headcommand {\beamer@framepages {15}{15}}}
\newlabel{fig:strategy1factor5}{{\caption@xref {fig:strategy1factor5}{ on input line 291}}{16}{Influence of moment selection}{Doc-Start}{}}
\@writefile{snm}{\beamer@slide {fig:strategy1factor5}{16}}
\@writefile{nav}{\headcommand {\slideentry {2}{0}{6}{16/16}{}{0}}}
\@writefile{nav}{\headcommand {\beamer@framepages {16}{16}}}
\newlabel{fig:strategy2factor5}{{\caption@xref {fig:strategy2factor5}{ on input line 302}}{17}{Influence of moment selection}{Doc-Start}{}}
\@writefile{snm}{\beamer@slide {fig:strategy2factor5}{17}}
\@writefile{nav}{\headcommand {\slideentry {2}{0}{7}{17/17}{}{0}}}
\@writefile{nav}{\headcommand {\beamer@framepages {17}{17}}}
\newlabel{fig:strategy3factor5}{{\caption@xref {fig:strategy3factor5}{ on input line 313}}{18}{Influence of moment selection}{Doc-Start}{}}
\@writefile{snm}{\beamer@slide {fig:strategy3factor5}{18}}
\@writefile{nav}{\headcommand {\slideentry {2}{0}{8}{18/18}{}{0}}}
\@writefile{nav}{\headcommand {\beamer@framepages {18}{18}}}
\@writefile{toc}{\beamer@sectionintoc {3}{Effect of the extrapolation step}{19}{0}{3}}
\@writefile{nav}{\headcommand {\sectionentry {3}{Effect of the extrapolation step}{19}{Effect of the extrapolation step}{0}}}
\@writefile{nav}{\headcommand {\beamer@sectionpages {11}{18}}}
\@writefile{nav}{\headcommand {\beamer@subsectionpages {11}{18}}}
\@writefile{nav}{\headcommand {\slideentry {3}{0}{1}{19/19}{}{0}}}
\@writefile{nav}{\headcommand {\beamer@framepages {19}{19}}}
\@writefile{snm}{\beamer@slide {eq:lineardrivensde}{20}}
\newlabel{eq:lineardrivensde}{{17}{20}{Effect of the extrapolation step}{Doc-Start}{}}
\@writefile{nav}{\headcommand {\slideentry {3}{0}{2}{20/20}{}{0}}}
\@writefile{nav}{\headcommand {\beamer@framepages {20}{20}}}
\@writefile{nav}{\headcommand {\slideentry {3}{0}{3}{21/21}{}{0}}}
\@writefile{nav}{\headcommand {\beamer@framepages {21}{21}}}
\@writefile{nav}{\headcommand {\slideentry {3}{0}{4}{22/22}{}{0}}}
\@writefile{nav}{\headcommand {\beamer@framepages {22}{22}}}
\@writefile{nav}{\headcommand {\slideentry {3}{0}{5}{23/23}{}{0}}}
\@writefile{nav}{\headcommand {\beamer@framepages {23}{23}}}
\@writefile{toc}{\beamer@sectionintoc {4}{Conclusion and outlook}{24}{0}{4}}
\@writefile{nav}{\headcommand {\sectionentry {4}{Conclusion and outlook}{24}{Conclusion and outlook}{0}}}
\@writefile{nav}{\headcommand {\beamer@sectionpages {19}{23}}}
\@writefile{nav}{\headcommand {\beamer@subsectionpages {19}{23}}}
\@writefile{nav}{\headcommand {\slideentry {4}{0}{1}{24/24}{}{0}}}
\@writefile{nav}{\headcommand {\beamer@framepages {24}{24}}}
\@writefile{nav}{\headcommand {\slideentry {4}{0}{2}{25/25}{}{0}}}
\@writefile{nav}{\headcommand {\beamer@framepages {25}{25}}}
\@writefile{nav}{\headcommand {\slideentry {4}{0}{3}{26/26}{}{0}}}
\@writefile{nav}{\headcommand {\beamer@framepages {26}{26}}}
\@writefile{nav}{\headcommand {\slideentry {4}{0}{4}{27/27}{}{0}}}
\@writefile{nav}{\headcommand {\beamer@framepages {27}{27}}}
\global\@namedef{mainendframenumber}{23}
\@writefile{nav}{\headcommand {\partentry {Appendix}{1}}}
\@writefile{nav}{\headcommand {\beamer@partpages {1}{27}}}
\@writefile{nav}{\headcommand {\beamer@sectionpages {24}{27}}}
\@writefile{nav}{\headcommand {\beamer@subsectionpages {24}{27}}}
\@writefile{nav}{\headcommand {\beamer@appendixpages {28}}}
\@writefile{nav}{\headcommand {\slideentry {4}{0}{5}{28/28}{}{1}}}
\@writefile{nav}{\headcommand {\beamer@framepages {28}{28}}}
\@writefile{nav}{\headcommand {\slideentry {4}{0}{6}{29/29}{}{1}}}
\@writefile{nav}{\headcommand {\beamer@framepages {29}{29}}}
\@writefile{nav}{\headcommand {\slideentry {4}{0}{7}{30/30}{}{1}}}
\@writefile{nav}{\headcommand {\beamer@framepages {30}{30}}}
\newlabel{fig:Strategies}{{\caption@xref {fig:Strategies}{ on input line 523}}{31}{Conclusion and outlook}{Doc-Start}{}}
\@writefile{snm}{\beamer@slide {fig:Strategies}{31}}
\@writefile{nav}{\headcommand {\slideentry {4}{0}{8}{31/31}{}{1}}}
\@writefile{nav}{\headcommand {\beamer@framepages {31}{31}}}
\@writefile{nav}{\headcommand {\slideentry {4}{0}{9}{32/32}{}{1}}}
\@writefile{nav}{\headcommand {\beamer@framepages {32}{32}}}
\newlabel{thm:linearmatchingmean}{{2}{33}{}{Doc-Start}{}}
\@writefile{snm}{\beamer@slide {thm:linearmatchingmean}{33}}
\@writefile{nav}{\headcommand {\slideentry {4}{0}{10}{33/33}{}{1}}}
\@writefile{nav}{\headcommand {\beamer@framepages {33}{33}}}
\newlabel{thm:linearmatchingmeanvariance}{{3}{34}{}{Doc-Start}{}}
\@writefile{snm}{\beamer@slide {thm:linearmatchingmeanvariance}{34}}
\@writefile{nav}{\headcommand {\slideentry {4}{0}{11}{34/34}{}{1}}}
\@writefile{nav}{\headcommand {\beamer@framepages {34}{34}}}
\@writefile{nav}{\headcommand {\slideentry {4}{0}{12}{35/35}{}{1}}}
\@writefile{nav}{\headcommand {\beamer@framepages {35}{35}}}
\@writefile{nav}{\headcommand {\slideentry {4}{0}{13}{36/36}{}{1}}}
\@writefile{nav}{\headcommand {\beamer@framepages {36}{36}}}
\@writefile{nav}{\headcommand {\slideentry {4}{0}{14}{37/37}{}{1}}}
\@writefile{nav}{\headcommand {\beamer@framepages {37}{37}}}
\@writefile{nav}{\headcommand {\slideentry {4}{0}{15}{38/38}{}{1}}}
\@writefile{nav}{\headcommand {\beamer@framepages {38}{38}}}
\@writefile{nav}{\headcommand {\slideentry {4}{0}{16}{39/39}{}{1}}}
\@writefile{nav}{\headcommand {\beamer@framepages {39}{39}}}
\@writefile{snm}{\beamer@slide {eq:ch6doublewellsde}{40}}
\newlabel{eq:ch6doublewellsde}{{13}{40}{Conclusion and outlook}{Doc-Start}{}}
\@writefile{nav}{\headcommand {\slideentry {4}{0}{17}{40/40}{}{1}}}
\@writefile{nav}{\headcommand {\beamer@framepages {40}{40}}}
\@writefile{nav}{\headcommand {\slideentry {4}{0}{18}{41/41}{}{1}}}
\@writefile{nav}{\headcommand {\beamer@framepages {41}{41}}}
\@writefile{nav}{\headcommand {\slideentry {4}{0}{19}{42/42}{}{1}}}
\@writefile{nav}{\headcommand {\beamer@framepages {42}{42}}}
\@writefile{snm}{\beamer@slide {eq:triatompotential}{43}}
\newlabel{eq:triatompotential}{{16}{43}{Conclusion and outlook}{Doc-Start}{}}
\@writefile{nav}{\headcommand {\slideentry {4}{0}{20}{43/43}{}{1}}}
\@writefile{nav}{\headcommand {\beamer@framepages {43}{43}}}
\@writefile{nav}{\headcommand {\slideentry {4}{0}{21}{44/44}{}{1}}}
\@writefile{nav}{\headcommand {\beamer@framepages {44}{44}}}
\@writefile{nav}{\headcommand {\slideentry {4}{0}{22}{45/45}{}{1}}}
\@writefile{nav}{\headcommand {\beamer@framepages {45}{45}}}
\@writefile{nav}{\headcommand {\slideentry {4}{0}{23}{46/46}{}{1}}}
\@writefile{nav}{\headcommand {\beamer@framepages {46}{46}}}
\@writefile{nav}{\headcommand {\slideentry {4}{0}{24}{47/47}{}{1}}}
\@writefile{nav}{\headcommand {\beamer@framepages {47}{47}}}
\@writefile{nav}{\headcommand {\beamer@partpages {28}{47}}}
\@writefile{nav}{\headcommand {\beamer@subsectionpages {28}{47}}}
\@writefile{nav}{\headcommand {\beamer@sectionpages {28}{47}}}
\@writefile{nav}{\headcommand {\beamer@documentpages {47}}}
\@writefile{nav}{\headcommand {\def \inserttotalframenumber {20}}}
\global\@namedef{appendixtotalframenumber}{20}
\global\@namedef{inserttotalframenumber}{23}
\@writefile{nav}{\headcommand {\def \inserttotalframenumber {23}}}
\@writefile{nav}{\headcommand {\def \appendixtotalframenumber {20}}}
