\relax 
\providecommand\hyper@newdestlabel[2]{}
\providecommand\HyperFirstAtBeginDocument{\AtBeginDocument}
\HyperFirstAtBeginDocument{\ifx\hyper@anchor\@undefined
\global\let\oldcontentsline\contentsline
\gdef\contentsline#1#2#3#4{\oldcontentsline{#1}{#2}{#3}}
\global\let\oldnewlabel\newlabel
\gdef\newlabel#1#2{\newlabelxx{#1}#2}
\gdef\newlabelxx#1#2#3#4#5#6{\oldnewlabel{#1}{{#2}{#3}}}
\AtEndDocument{\ifx\hyper@anchor\@undefined
\let\contentsline\oldcontentsline
\let\newlabel\oldnewlabel
\fi}
\fi}
\global\let\hyper@last\relax 
\gdef\HyperFirstAtBeginDocument#1{#1}
\providecommand\HyField@AuxAddToFields[1]{}
\providecommand\HyField@AuxAddToCoFields[2]{}
\abx@aux@sortscheme{nty}
\abx@aux@refcontext{nty/global/}
\@writefile{toc}{\boolfalse {citerequest}\boolfalse {citetracker}\boolfalse {pagetracker}\boolfalse {backtracker}\relax }
\@writefile{lof}{\boolfalse {citerequest}\boolfalse {citetracker}\boolfalse {pagetracker}\boolfalse {backtracker}\relax }
\@writefile{lot}{\boolfalse {citerequest}\boolfalse {citetracker}\boolfalse {pagetracker}\boolfalse {backtracker}\relax }
\select@language{english}
\@writefile{toc}{\defcounter {refsection}{0}\relax }\@writefile{toc}{\select@language{english}}
\@writefile{lof}{\defcounter {refsection}{0}\relax }\@writefile{lof}{\select@language{english}}
\@writefile{lot}{\defcounter {refsection}{0}\relax }\@writefile{lot}{\select@language{english}}
\@writefile{nav}{\headcommand {\slideentry {0}{0}{1}{1/1}{}{0}}}
\@writefile{nav}{\headcommand {\beamer@framepages {1}{1}}}
\@writefile{nav}{\headcommand {\slideentry {0}{0}{2}{2/2}{}{0}}}
\@writefile{nav}{\headcommand {\beamer@framepages {2}{2}}}
\@writefile{nav}{\headcommand {\slideentry {0}{0}{3}{3/3}{}{0}}}
\@writefile{nav}{\headcommand {\beamer@framepages {3}{3}}}
\@writefile{nav}{\headcommand {\slideentry {0}{0}{4}{4/4}{}{0}}}
\@writefile{nav}{\headcommand {\beamer@framepages {4}{4}}}
\@writefile{nav}{\headcommand {\slideentry {0}{0}{5}{5/5}{}{0}}}
\@writefile{nav}{\headcommand {\beamer@framepages {5}{5}}}
\providecommand*\caption@xref[2]{\@setref\relax\@undefined{#1}}
\newlabel{fig:acceleration}{{\caption@xref {fig:acceleration}{ on input line 177}}{6}{}{Doc-Start}{}}
\@writefile{snm}{\beamer@slide {fig:acceleration}{6}}
\@writefile{nav}{\headcommand {\slideentry {0}{0}{6}{6/6}{}{0}}}
\@writefile{nav}{\headcommand {\beamer@framepages {6}{6}}}
\@writefile{nav}{\headcommand {\slideentry {0}{0}{7}{7/7}{}{0}}}
\@writefile{nav}{\headcommand {\beamer@framepages {7}{7}}}
\@writefile{nav}{\headcommand {\slideentry {0}{0}{8}{8/8}{}{0}}}
\@writefile{nav}{\headcommand {\beamer@framepages {8}{8}}}
\@writefile{toc}{\beamer@sectionintoc {1}{A periodically driven linear system}{9}{0}{1}}
\@writefile{nav}{\headcommand {\sectionentry {1}{A periodically driven linear system}{9}{A periodically driven linear system}{0}}}
\@writefile{nav}{\headcommand {\beamer@sectionpages {1}{8}}}
\@writefile{nav}{\headcommand {\beamer@subsectionpages {1}{8}}}
\@writefile{nav}{\headcommand {\slideentry {1}{0}{1}{9/9}{}{0}}}
\@writefile{nav}{\headcommand {\beamer@framepages {9}{9}}}
\@writefile{snm}{\beamer@slide {eq:lineardrivensde}{10}}
\newlabel{eq:lineardrivensde}{{9}{10}{A periodically driven linear system}{Doc-Start}{}}
\@writefile{nav}{\headcommand {\slideentry {1}{0}{2}{10/10}{}{0}}}
\@writefile{nav}{\headcommand {\beamer@framepages {10}{10}}}
\@writefile{snm}{\beamer@slide {eq:ch6sdesystem}{11}}
\newlabel{eq:ch6sdesystem}{{1}{11}{}{Doc-Start}{}}
\@writefile{snm}{\beamer@slide {eq:ch6macro}{11}}
\newlabel{eq:ch6macro}{{1}{11}{}{Doc-Start}{}}
\@writefile{nav}{\headcommand {\slideentry {1}{0}{3}{11/11}{}{0}}}
\@writefile{nav}{\headcommand {\beamer@framepages {11}{11}}}
\@writefile{nav}{\headcommand {\slideentry {1}{0}{4}{12/12}{}{0}}}
\@writefile{nav}{\headcommand {\beamer@framepages {12}{12}}}
\@writefile{nav}{\headcommand {\slideentry {1}{0}{5}{13/13}{}{0}}}
\@writefile{nav}{\headcommand {\beamer@framepages {13}{13}}}
\@writefile{toc}{\beamer@sectionintoc {2}{Bimodal problem}{14}{0}{2}}
\@writefile{nav}{\headcommand {\sectionentry {2}{Bimodal problem}{14}{Bimodal problem}{0}}}
\@writefile{nav}{\headcommand {\beamer@sectionpages {9}{13}}}
\@writefile{nav}{\headcommand {\beamer@subsectionpages {9}{13}}}
\@writefile{nav}{\headcommand {\slideentry {2}{0}{1}{14/14}{}{0}}}
\@writefile{nav}{\headcommand {\beamer@framepages {14}{14}}}
\@writefile{snm}{\beamer@slide {eq:ch6doublewellsde}{15}}
\newlabel{eq:ch6doublewellsde}{{13}{15}{Bimodal problem}{Doc-Start}{}}
\@writefile{nav}{\headcommand {\slideentry {2}{0}{2}{15/15}{}{0}}}
\@writefile{nav}{\headcommand {\beamer@framepages {15}{15}}}
\@writefile{nav}{\headcommand {\slideentry {2}{0}{3}{16/16}{}{0}}}
\@writefile{nav}{\headcommand {\beamer@framepages {16}{16}}}
\@writefile{nav}{\headcommand {\slideentry {2}{0}{4}{17/17}{}{0}}}
\@writefile{nav}{\headcommand {\beamer@framepages {17}{17}}}
\@writefile{toc}{\beamer@sectionintoc {3}{The tri-atom molecule}{18}{0}{3}}
\@writefile{nav}{\headcommand {\sectionentry {3}{The tri-atom molecule}{18}{The tri-atom molecule}{0}}}
\@writefile{nav}{\headcommand {\beamer@sectionpages {14}{17}}}
\@writefile{nav}{\headcommand {\beamer@subsectionpages {14}{17}}}
\@writefile{nav}{\headcommand {\slideentry {3}{0}{1}{18/18}{}{0}}}
\@writefile{nav}{\headcommand {\beamer@framepages {18}{18}}}
\@writefile{snm}{\beamer@slide {eq:triatompotential}{19}}
\newlabel{eq:triatompotential}{{16}{19}{The tri-atom molecule}{Doc-Start}{}}
\@writefile{nav}{\headcommand {\slideentry {3}{0}{2}{19/19}{}{0}}}
\@writefile{nav}{\headcommand {\beamer@framepages {19}{19}}}
\@writefile{nav}{\headcommand {\slideentry {3}{0}{3}{20/20}{}{0}}}
\@writefile{nav}{\headcommand {\beamer@framepages {20}{20}}}
\@writefile{nav}{\headcommand {\slideentry {3}{0}{4}{21/21}{}{0}}}
\@writefile{nav}{\headcommand {\beamer@framepages {21}{21}}}
\@writefile{nav}{\headcommand {\slideentry {3}{0}{5}{22/22}{}{0}}}
\@writefile{nav}{\headcommand {\beamer@framepages {22}{22}}}
\@writefile{toc}{\beamer@sectionintoc {4}{Conclusion}{23}{0}{4}}
\@writefile{nav}{\headcommand {\sectionentry {4}{Conclusion}{23}{Conclusion}{0}}}
\@writefile{nav}{\headcommand {\beamer@sectionpages {18}{22}}}
\@writefile{nav}{\headcommand {\beamer@subsectionpages {18}{22}}}
\@writefile{nav}{\headcommand {\slideentry {4}{0}{1}{23/23}{}{0}}}
\@writefile{nav}{\headcommand {\beamer@framepages {23}{23}}}
\@writefile{nav}{\headcommand {\slideentry {4}{0}{2}{24/24}{}{0}}}
\@writefile{nav}{\headcommand {\beamer@framepages {24}{24}}}
\@writefile{nav}{\headcommand {\slideentry {4}{0}{3}{25/25}{}{0}}}
\@writefile{nav}{\headcommand {\beamer@framepages {25}{25}}}
\global\@namedef{mainendframenumber}{21}
\@writefile{nav}{\headcommand {\beamer@partpages {26}{25}}}
\@writefile{nav}{\headcommand {\beamer@subsectionpages {26}{25}}}
\@writefile{nav}{\headcommand {\beamer@sectionpages {26}{25}}}
\@writefile{nav}{\headcommand {\beamer@documentpages {25}}}
\@writefile{nav}{\headcommand {\def \inserttotalframenumber {0}}}
\global\@namedef{appendixtotalframenumber}{0}
\global\@namedef{inserttotalframenumber}{21}
\@writefile{nav}{\headcommand {\def \inserttotalframenumber {21}}}
\@writefile{nav}{\headcommand {\def \appendixtotalframenumber {0}}}
