\boolfalse {citerequest}\boolfalse {citetracker}\boolfalse {pagetracker}\boolfalse {backtracker}\relax 
\defcounter {refsection}{0}\relax 
\select@language {english}
\beamer@sectionintoc {1}{A periodically driven linear system}{9}{0}{1}
\beamer@sectionintoc {2}{Bimodal problem}{14}{0}{2}
\beamer@sectionintoc {3}{The tri-atom molecule}{18}{0}{3}
\beamer@sectionintoc {4}{Conclusion}{23}{0}{4}
