\relax 
\providecommand\hyper@newdestlabel[2]{}
\providecommand\HyperFirstAtBeginDocument{\AtBeginDocument}
\HyperFirstAtBeginDocument{\ifx\hyper@anchor\@undefined
\global\let\oldcontentsline\contentsline
\gdef\contentsline#1#2#3#4{\oldcontentsline{#1}{#2}{#3}}
\global\let\oldnewlabel\newlabel
\gdef\newlabel#1#2{\newlabelxx{#1}#2}
\gdef\newlabelxx#1#2#3#4#5#6{\oldnewlabel{#1}{{#2}{#3}}}
\AtEndDocument{\ifx\hyper@anchor\@undefined
\let\contentsline\oldcontentsline
\let\newlabel\oldnewlabel
\fi}
\fi}
\global\let\hyper@last\relax 
\gdef\HyperFirstAtBeginDocument#1{#1}
\providecommand\HyField@AuxAddToFields[1]{}
\providecommand\HyField@AuxAddToCoFields[2]{}
\select@language{english}
\@writefile{toc}{\select@language{english}}
\@writefile{lof}{\select@language{english}}
\@writefile{lot}{\select@language{english}}
\@writefile{toc}{\contentsline {subsection}{\numberline {0.0.1}An iterative formula for slow mean-only extrapolation}{1}{subsection.0.0.1}}
\newlabel{eq:meanpropagation}{{1}{1}{An iterative formula for slow mean-only extrapolation}{equation.0.0.1}{}}
\@writefile{toc}{\contentsline {subsection}{\numberline {0.0.2}Convergence Theorem}{1}{subsection.0.0.2}}
\newlabel{thm:linearslowconvergence}{{0.0.2}{1}{}{subsection.0.0.2}{}}
\newlabel{eq:proofobjective}{{2}{1}{}{equation.0.0.2}{}}
\newlabel{eq:iterativewrittenout}{{3}{2}{Convergence Theorem}{equation.0.0.3}{}}
