\relax 
\providecommand\hyper@newdestlabel[2]{}
\providecommand\HyperFirstAtBeginDocument{\AtBeginDocument}
\HyperFirstAtBeginDocument{\ifx\hyper@anchor\@undefined
\global\let\oldcontentsline\contentsline
\gdef\contentsline#1#2#3#4{\oldcontentsline{#1}{#2}{#3}}
\global\let\oldnewlabel\newlabel
\gdef\newlabel#1#2{\newlabelxx{#1}#2}
\gdef\newlabelxx#1#2#3#4#5#6{\oldnewlabel{#1}{{#2}{#3}}}
\AtEndDocument{\ifx\hyper@anchor\@undefined
\let\contentsline\oldcontentsline
\let\newlabel\oldnewlabel
\fi}
\fi}
\global\let\hyper@last\relax 
\gdef\HyperFirstAtBeginDocument#1{#1}
\providecommand\HyField@AuxAddToFields[1]{}
\providecommand\HyField@AuxAddToCoFields[2]{}
\select@language{english}
\@writefile{toc}{\select@language{english}}
\@writefile{lof}{\select@language{english}}
\@writefile{lot}{\select@language{english}}
\@writefile{toc}{\contentsline {chapter}{\numberline {1}Matching for a linear test SDE}{2}{chapter.1}}
\@writefile{lof}{\addvspace {10\p@ }}
\@writefile{lot}{\addvspace {10\p@ }}
\newlabel{eq:lineartest}{{1.1}{2}{Matching for a linear test SDE}{equation.1.0.1}{}}
\newlabel{eq:slowfastlinear}{{1.2}{2}{Matching for a linear test SDE}{equation.1.0.2}{}}
\@writefile{toc}{\contentsline {section}{\numberline {1.1}Matching with only coarse moments}{2}{section.1.1}}
\newlabel{eq:fullmoments}{{1.3}{3}{Matching with only coarse moments}{equation.1.1.3}{}}
\newlabel{eq:coarsemoments}{{1.4}{3}{Matching with only coarse moments}{equation.1.1.4}{}}
\newlabel{eq:matchingdecomposition}{{1.5}{4}{Matching with only coarse moments}{equation.1.1.5}{}}
\@writefile{toc}{\contentsline {section}{\numberline {1.2}Analytic results for matching with a Gaussian initial distribution}{4}{section.1.2}}
\@writefile{toc}{\contentsline {subsection}{\numberline {1.2.1}Minimizing relative entropy}{4}{subsection.1.2.1}}
\newlabel{lemma:entropyminimization}{{1.2.1}{4}{}{subsection.1.2.1}{}}
\newlabel{eq:entropytominimize}{{1.9}{5}{Minimizing relative entropy}{equation.1.2.9}{}}
\newlabel{eq:functionentropytominimize}{{1.10}{5}{Minimizing relative entropy}{equation.1.2.10}{}}
\newlabel{remark:meanvariancekldminimizer}{{1.2.1}{5}{}{equation.1.2.10}{}}
\@writefile{toc}{\contentsline {subsection}{\numberline {1.2.2}Matching with extrapolated coarse mean}{5}{subsection.1.2.2}}
\newlabel{thm:linearmatchingmean}{{1.2.2}{5}{}{subsection.1.2.2}{}}
\newlabel{eq:normalfactorizationdefinition}{{1.11}{6}{Matching with extrapolated coarse mean}{equation.1.2.11}{}}
\newlabel{eq:linearmeandecomposition}{{1.12}{6}{Matching with extrapolated coarse mean}{equation.1.2.12}{}}
\@writefile{toc}{\contentsline {subsection}{\numberline {1.2.3}Matching with extrapolated coarse mean and variance}{6}{subsection.1.2.3}}
\newlabel{thm:linearmatchingmeanvariance}{{1.2.3}{6}{}{subsection.1.2.3}{}}
\newlabel{eq:tofactorize}{{1.13}{7}{Matching with extrapolated coarse mean and variance}{equation.1.2.13}{}}
\newlabel{eq:jointfactorization}{{1.14}{7}{Matching with extrapolated coarse mean and variance}{equation.1.2.14}{}}
\newlabel{eq:jointfactorizationparameters}{{1.15}{7}{Matching with extrapolated coarse mean and variance}{equation.1.2.15}{}}
\newlabel{eq:propositionsystem}{{1.16}{7}{Matching with extrapolated coarse mean and variance}{equation.1.2.16}{}}
\@writefile{toc}{\contentsline {subsection}{\numberline {1.2.4}Numerical experiments}{7}{subsection.1.2.4}}
\@writefile{toc}{\contentsline {subsubsection}{Propagation of mean and variance with the Euler-Maruyama scheme}{8}{section*.2}}
\newlabel{eq:lineareulermaruyama}{{1.17}{8}{Propagation of mean and variance with the Euler-Maruyama scheme}{equation.1.2.17}{}}
\newlabel{eq:linearexpectationeulermaruyama}{{1.18}{8}{Propagation of mean and variance with the Euler-Maruyama scheme}{equation.1.2.18}{}}
\newlabel{eq:linearvarianceeulermaruyama}{{1.19}{8}{Propagation of mean and variance with the Euler-Maruyama scheme}{equation.1.2.19}{}}
\@writefile{toc}{\contentsline {subsubsection}{Experiment 1: extrapolating the coarse mean}{8}{section*.3}}
\providecommand*\caption@xref[2]{\@setref\relax\@undefined{#1}}
\newlabel{fig:meanreferencely1tend1gaussianinitialn5}{{1.1a}{9}{The analytical results of matching compared to the micro-macro acceleration algorithm for a linear test SDE with only the coarse mean extrapolated and a Gaussian initial condition.\relax }{figure.caption.4}{}}
\newlabel{sub@fig:meanreferencely1tend1gaussianinitialn5}{{a}{9}{The analytical results of matching compared to the micro-macro acceleration algorithm for a linear test SDE with only the coarse mean extrapolated and a Gaussian initial condition.\relax }{figure.caption.4}{}}
\newlabel{fig:variancereferencely1tend1gaussianinitial}{{1.1b}{9}{The analytical results of matching compared to the micro-macro acceleration algorithm for a linear test SDE with only the coarse mean extrapolated and a Gaussian initial condition.\relax }{figure.caption.4}{}}
\newlabel{sub@fig:variancereferencely1tend1gaussianinitial}{{b}{9}{The analytical results of matching compared to the micro-macro acceleration algorithm for a linear test SDE with only the coarse mean extrapolated and a Gaussian initial condition.\relax }{figure.caption.4}{}}
\@writefile{toc}{\contentsline {subsubsection}{Experiment 2: extrapolating coarse mean and variance}{9}{section*.6}}
\newlabel{fig:covariancereferencely1tend1gaussianinitialn5}{{1.2a}{10}{Comparison between the covariance of the acceleration algorithm and the analytical expressions for $N=10^5$ particles.\relax }{figure.caption.5}{}}
\newlabel{sub@fig:covariancereferencely1tend1gaussianinitialn5}{{a}{10}{Comparison between the covariance of the acceleration algorithm and the analytical expressions for $N=10^5$ particles.\relax }{figure.caption.5}{}}
\newlabel{fig:covariancereferencely1tend1gaussianinitialn6}{{1.2b}{10}{Comparison between the covariance of the acceleration algorithm and the analytical expressions for $N=10^6$ particles. Both agree much more than in Figure \ref {fig:covariancereferencely1tend1gaussianinitialn5} due to better approximation in probability space.\relax }{figure.caption.5}{}}
\newlabel{sub@fig:covariancereferencely1tend1gaussianinitialn6}{{b}{10}{Comparison between the covariance of the acceleration algorithm and the analytical expressions for $N=10^6$ particles. Both agree much more than in Figure \ref {fig:covariancereferencely1tend1gaussianinitialn5} due to better approximation in probability space.\relax }{figure.caption.5}{}}
\@writefile{lof}{\contentsline {figure}{\numberline {1.3}{\ignorespaces The analytical results of matching compared to the micro-macro acceleration algorithm for a linear test SDE with coarse mean and variance extrapolated and a Gaussian initial condition.\relax }}{10}{figure.caption.7}}
\newlabel{fig:meanreferencely2tend1gaussianinitial}{{1.3}{10}{The analytical results of matching compared to the micro-macro acceleration algorithm for a linear test SDE with coarse mean and variance extrapolated and a Gaussian initial condition.\relax }{figure.caption.7}{}}
\@writefile{lof}{\contentsline {figure}{\numberline {1.4}{\ignorespaces Comparison between the variance of the numerical acceleration algorithm and the analytical results for the slow and fast variables. The slow variance lies now more closely to the exact variance in blue.\relax }}{11}{figure.caption.8}}
\newlabel{fig:variancereferencely2tend1gaussianinitialn5}{{1.4}{11}{Comparison between the variance of the numerical acceleration algorithm and the analytical results for the slow and fast variables. The slow variance lies now more closely to the exact variance in blue.\relax }{figure.caption.8}{}}
\@writefile{toc}{\contentsline {section}{\numberline {1.3}Efficiency of acceleration for linear SDE's}{12}{section.1.3}}
\@writefile{toc}{\contentsline {subsection}{\numberline {1.3.1}Fokker-Planck, Closure relations and Euler-Maruyama}{12}{subsection.1.3.1}}
\@writefile{toc}{\contentsline {subsection}{\numberline {1.3.2}Optimal number of moments for linear SDE's}{12}{subsection.1.3.2}}
\newlabel{fig:agreementfpexperiment2mean}{{\caption@xref {fig:agreementfpexperiment2mean}{ on input line 334}}{13}{Fokker-Planck, Closure relations and Euler-Maruyama}{figure.caption.9}{}}
\newlabel{sub@fig:agreementfpexperiment2mean}{{}{13}{Fokker-Planck, Closure relations and Euler-Maruyama}{figure.caption.9}{}}
\newlabel{fig:agreementfpexperiment2variance}{{\caption@xref {fig:agreementfpexperiment2variance}{ on input line 338}}{13}{Fokker-Planck, Closure relations and Euler-Maruyama}{figure.caption.9}{}}
\newlabel{sub@fig:agreementfpexperiment2variance}{{}{13}{Fokker-Planck, Closure relations and Euler-Maruyama}{figure.caption.9}{}}
\@writefile{lof}{\contentsline {figure}{\numberline {1.5}{\ignorespaces Simulated mean and variance of the fast and slow variables using the deterministic Fokker-Planck equations, the closure relations and a standard microscopic Euler-Maruyama method.\relax }}{13}{figure.caption.9}}
\newlabel{fig:agreementdeterministic}{{1.5}{13}{Simulated mean and variance of the fast and slow variables using the deterministic Fokker-Planck equations, the closure relations and a standard microscopic Euler-Maruyama method.\relax }{figure.caption.9}{}}
\newlabel{fig:variancelx0ly0123gaussianinitial}{{1.6a}{13}{\relax }{figure.caption.10}{}}
\newlabel{sub@fig:variancelx0ly0123gaussianinitial}{{a}{13}{\relax }{figure.caption.10}{}}
\newlabel{fig:variancelx0123ly2gaussianinitialtend1}{{1.6b}{13}{\relax }{figure.caption.10}{}}
\newlabel{sub@fig:variancelx0123ly2gaussianinitialtend1}{{b}{13}{\relax }{figure.caption.10}{}}
