%!PS-Adobe-3.0 EPSF-3.0
%%Title: /Users/hannesvdc/thesis-wit/Source/Python/Samples/bimodal/plots/histogrameps01A0.eps
%%Creator: matplotlib version 2.0.2, http://matplotlib.org/
%%CreationDate: Mon Apr  2 14:39:49 2018
%%Orientation: portrait
%%BoundingBox: -52 163 664 628
%%EndComments
%%BeginProlog
/mpldict 8 dict def
mpldict begin
/m { moveto } bind def
/l { lineto } bind def
/r { rlineto } bind def
/c { curveto } bind def
/cl { closepath } bind def
/box {
m
1 index 0 r
0 exch r
neg 0 r
cl
} bind def
/clipbox {
box
clip
newpath
} bind def
%!PS-Adobe-3.0 Resource-Font
%%Title: DejaVu Sans
%%Copyright: Copyright (c) 2003 by Bitstream, Inc. All Rights Reserved. Copyright (c) 2006 by Tavmjong Bah. All Rights Reserved. DejaVu changes are in public domain 
%%Creator: Converted from TrueType to type 3 by PPR
25 dict begin
/_d{bind def}bind def
/_m{moveto}_d
/_l{lineto}_d
/_cl{closepath eofill}_d
/_c{curveto}_d
/_sc{7 -1 roll{setcachedevice}{pop pop pop pop pop pop}ifelse}_d
/_e{exec}_d
/FontName /DejaVuSans def
/PaintType 0 def
/FontMatrix[.001 0 0 .001 0 0]def
/FontBBox[-1021 -463 1793 1232]def
/FontType 3 def
/Encoding [ /space /period /zero /one /two /three /four /five /six /seven /F /H /S /a /c /d /e /g /i /l /m /o /p /r /s /t /w /y /minus ] def
/FontInfo 10 dict dup begin
/FamilyName (DejaVu Sans) def
/FullName (DejaVu Sans) def
/Notice (Copyright (c) 2003 by Bitstream, Inc. All Rights Reserved. Copyright (c) 2006 by Tavmjong Bah. All Rights Reserved. DejaVu changes are in public domain ) def
/Weight (Book) def
/Version (Version 2.35) def
/ItalicAngle 0.0 def
/isFixedPitch false def
/UnderlinePosition -130 def
/UnderlineThickness 90 def
end readonly def
/CharStrings 29 dict dup begin
/space{318 0 0 0 0 0 _sc
}_d
/period{318 0 107 0 210 124 _sc
107 124 _m
210 124 _l
210 0 _l
107 0 _l
107 124 _l
_cl}_d
/zero{636 0 66 -13 570 742 _sc
318 664 _m
267 664 229 639 203 589 _c
177 539 165 464 165 364 _c
165 264 177 189 203 139 _c
229 89 267 64 318 64 _c
369 64 407 89 433 139 _c
458 189 471 264 471 364 _c
471 464 458 539 433 589 _c
407 639 369 664 318 664 _c
318 742 _m
399 742 461 709 505 645 _c
548 580 570 486 570 364 _c
570 241 548 147 505 83 _c
461 19 399 -13 318 -13 _c
236 -13 173 19 130 83 _c
87 147 66 241 66 364 _c
66 486 87 580 130 645 _c
173 709 236 742 318 742 _c
_cl}_d
/one{636 0 110 0 544 729 _sc
124 83 _m
285 83 _l
285 639 _l
110 604 _l
110 694 _l
284 729 _l
383 729 _l
383 83 _l
544 83 _l
544 0 _l
124 0 _l
124 83 _l
_cl}_d
/two{{636 0 73 0 536 742 _sc
192 83 _m
536 83 _l
536 0 _l
73 0 _l
73 83 _l
110 121 161 173 226 239 _c
290 304 331 346 348 365 _c
380 400 402 430 414 455 _c
426 479 433 504 433 528 _c
433 566 419 598 392 622 _c
365 646 330 659 286 659 _c
255 659 222 653 188 643 _c
154 632 117 616 78 594 _c
78 694 _l
118 710 155 722 189 730 _c
223 738 255 742 284 742 _c
}_e{359 742 419 723 464 685 _c
509 647 532 597 532 534 _c
532 504 526 475 515 449 _c
504 422 484 390 454 354 _c
446 344 420 317 376 272 _c
332 227 271 164 192 83 _c
_cl}_e}_d
/three{{636 0 76 -13 556 742 _sc
406 393 _m
453 383 490 362 516 330 _c
542 298 556 258 556 212 _c
556 140 531 84 482 45 _c
432 6 362 -13 271 -13 _c
240 -13 208 -10 176 -4 _c
144 1 110 10 76 22 _c
76 117 _l
103 101 133 89 166 81 _c
198 73 232 69 268 69 _c
330 69 377 81 409 105 _c
441 129 458 165 458 212 _c
458 254 443 288 413 312 _c
383 336 341 349 287 349 _c
}_e{202 349 _l
202 430 _l
291 430 _l
339 430 376 439 402 459 _c
428 478 441 506 441 543 _c
441 580 427 609 401 629 _c
374 649 336 659 287 659 _c
260 659 231 656 200 650 _c
169 644 135 635 98 623 _c
98 711 _l
135 721 170 729 203 734 _c
235 739 266 742 296 742 _c
370 742 429 725 473 691 _c
517 657 539 611 539 553 _c
539 513 527 479 504 451 _c
481 423 448 403 406 393 _c
_cl}_e}_d
/four{636 0 49 0 580 729 _sc
378 643 _m
129 254 _l
378 254 _l
378 643 _l
352 729 _m
476 729 _l
476 254 _l
580 254 _l
580 172 _l
476 172 _l
476 0 _l
378 0 _l
378 172 _l
49 172 _l
49 267 _l
352 729 _l
_cl}_d
/five{{636 0 77 -13 549 729 _sc
108 729 _m
495 729 _l
495 646 _l
198 646 _l
198 467 _l
212 472 227 476 241 478 _c
255 480 270 482 284 482 _c
365 482 429 459 477 415 _c
525 370 549 310 549 234 _c
549 155 524 94 475 51 _c
426 8 357 -13 269 -13 _c
238 -13 207 -10 175 -6 _c
143 -1 111 6 77 17 _c
77 116 _l
106 100 136 88 168 80 _c
199 72 232 69 267 69 _c
}_e{323 69 368 83 401 113 _c
433 143 450 183 450 234 _c
450 284 433 324 401 354 _c
368 384 323 399 267 399 _c
241 399 214 396 188 390 _c
162 384 135 375 108 363 _c
108 729 _l
_cl}_e}_d
/six{{636 0 70 -13 573 742 _sc
330 404 _m
286 404 251 388 225 358 _c
199 328 186 286 186 234 _c
186 181 199 139 225 109 _c
251 79 286 64 330 64 _c
374 64 409 79 435 109 _c
461 139 474 181 474 234 _c
474 286 461 328 435 358 _c
409 388 374 404 330 404 _c
526 713 _m
526 623 _l
501 635 476 644 451 650 _c
425 656 400 659 376 659 _c
310 659 260 637 226 593 _c
}_e{192 549 172 482 168 394 _c
187 422 211 444 240 459 _c
269 474 301 482 336 482 _c
409 482 467 459 509 415 _c
551 371 573 310 573 234 _c
573 159 550 99 506 54 _c
462 9 403 -13 330 -13 _c
246 -13 181 19 137 83 _c
92 147 70 241 70 364 _c
70 479 97 571 152 639 _c
206 707 280 742 372 742 _c
396 742 421 739 447 735 _c
472 730 498 723 526 713 _c
_cl}_e}_d
/seven{636 0 82 0 551 729 _sc
82 729 _m
551 729 _l
551 687 _l
286 0 _l
183 0 _l
432 646 _l
82 646 _l
82 729 _l
_cl}_d
/F{575 0 98 0 517 729 _sc
98 729 _m
517 729 _l
517 646 _l
197 646 _l
197 431 _l
486 431 _l
486 348 _l
197 348 _l
197 0 _l
98 0 _l
98 729 _l
_cl}_d
/H{752 0 98 0 654 729 _sc
98 729 _m
197 729 _l
197 430 _l
555 430 _l
555 729 _l
654 729 _l
654 0 _l
555 0 _l
555 347 _l
197 347 _l
197 0 _l
98 0 _l
98 729 _l
_cl}_d
/S{{635 0 66 -13 579 742 _sc
535 705 _m
535 609 _l
497 627 462 640 429 649 _c
395 657 363 662 333 662 _c
279 662 237 651 208 631 _c
179 610 165 580 165 542 _c
165 510 174 485 194 469 _c
213 452 250 439 304 429 _c
364 417 _l
437 403 491 378 526 343 _c
561 307 579 260 579 201 _c
579 130 555 77 508 41 _c
460 5 391 -13 300 -13 _c
265 -13 228 -9 189 -2 _c
}_e{150 5 110 16 69 32 _c
69 134 _l
109 111 148 94 186 83 _c
224 71 262 66 300 66 _c
356 66 399 77 430 99 _c
460 121 476 152 476 194 _c
476 230 465 258 443 278 _c
421 298 385 313 335 323 _c
275 335 _l
201 349 148 372 115 404 _c
82 435 66 478 66 534 _c
66 598 88 649 134 686 _c
179 723 242 742 322 742 _c
356 742 390 739 426 733 _c
461 727 497 717 535 705 _c
}_e{_cl}_e}_d
/a{{613 0 60 -13 522 560 _sc
343 275 _m
270 275 220 266 192 250 _c
164 233 150 205 150 165 _c
150 133 160 107 181 89 _c
202 70 231 61 267 61 _c
317 61 357 78 387 114 _c
417 149 432 196 432 255 _c
432 275 _l
343 275 _l
522 312 _m
522 0 _l
432 0 _l
432 83 _l
411 49 385 25 355 10 _c
325 -5 287 -13 243 -13 _c
187 -13 142 2 109 33 _c
76 64 60 106 60 159 _c
}_e{60 220 80 266 122 298 _c
163 329 224 345 306 345 _c
432 345 _l
432 354 _l
432 395 418 427 391 450 _c
364 472 326 484 277 484 _c
245 484 215 480 185 472 _c
155 464 127 453 100 439 _c
100 522 _l
132 534 164 544 195 550 _c
226 556 256 560 286 560 _c
365 560 424 539 463 498 _c
502 457 522 395 522 312 _c
_cl}_e}_d
/c{{550 0 55 -13 488 560 _sc
488 526 _m
488 442 _l
462 456 437 466 411 473 _c
385 480 360 484 334 484 _c
276 484 230 465 198 428 _c
166 391 150 339 150 273 _c
150 206 166 154 198 117 _c
230 80 276 62 334 62 _c
360 62 385 65 411 72 _c
437 79 462 90 488 104 _c
488 21 _l
462 9 436 0 410 -5 _c
383 -10 354 -13 324 -13 _c
242 -13 176 12 128 64 _c
}_e{79 115 55 185 55 273 _c
55 362 79 432 128 483 _c
177 534 244 560 330 560 _c
358 560 385 557 411 551 _c
437 545 463 537 488 526 _c
_cl}_e}_d
/d{{635 0 55 -13 544 760 _sc
454 464 _m
454 760 _l
544 760 _l
544 0 _l
454 0 _l
454 82 _l
435 49 411 25 382 10 _c
353 -5 319 -13 279 -13 _c
213 -13 159 13 117 65 _c
75 117 55 187 55 273 _c
55 359 75 428 117 481 _c
159 533 213 560 279 560 _c
319 560 353 552 382 536 _c
411 520 435 496 454 464 _c
148 273 _m
148 207 161 155 188 117 _c
215 79 253 61 301 61 _c
}_e{348 61 385 79 413 117 _c
440 155 454 207 454 273 _c
454 339 440 390 413 428 _c
385 466 348 485 301 485 _c
253 485 215 466 188 428 _c
161 390 148 339 148 273 _c
_cl}_e}_d
/e{{615 0 55 -13 562 560 _sc
562 296 _m
562 252 _l
149 252 _l
153 190 171 142 205 110 _c
238 78 284 62 344 62 _c
378 62 412 66 444 74 _c
476 82 509 95 541 113 _c
541 28 _l
509 14 476 3 442 -3 _c
408 -9 373 -13 339 -13 _c
251 -13 182 12 131 62 _c
80 112 55 181 55 268 _c
55 357 79 428 127 481 _c
175 533 241 560 323 560 _c
397 560 455 536 498 489 _c
}_e{540 441 562 377 562 296 _c
472 322 _m
471 371 457 410 431 440 _c
404 469 368 484 324 484 _c
274 484 234 469 204 441 _c
174 413 156 373 152 322 _c
472 322 _l
_cl}_e}_d
/g{{635 0 55 -207 544 560 _sc
454 280 _m
454 344 440 395 414 431 _c
387 467 349 485 301 485 _c
253 485 215 467 188 431 _c
161 395 148 344 148 280 _c
148 215 161 165 188 129 _c
215 93 253 75 301 75 _c
349 75 387 93 414 129 _c
440 165 454 215 454 280 _c
544 68 _m
544 -24 523 -93 482 -139 _c
440 -184 377 -207 292 -207 _c
260 -207 231 -204 203 -200 _c
175 -195 147 -188 121 -178 _c
}_e{121 -91 _l
147 -105 173 -115 199 -122 _c
225 -129 251 -133 278 -133 _c
336 -133 380 -117 410 -87 _c
439 -56 454 -10 454 52 _c
454 96 _l
435 64 411 40 382 24 _c
353 8 319 0 279 0 _c
211 0 157 25 116 76 _c
75 127 55 195 55 280 _c
55 364 75 432 116 483 _c
157 534 211 560 279 560 _c
319 560 353 552 382 536 _c
411 520 435 496 454 464 _c
454 547 _l
544 547 _l
}_e{544 68 _l
_cl}_e}_d
/i{278 0 94 0 184 760 _sc
94 547 _m
184 547 _l
184 0 _l
94 0 _l
94 547 _l
94 760 _m
184 760 _l
184 646 _l
94 646 _l
94 760 _l
_cl}_d
/l{278 0 94 0 184 760 _sc
94 760 _m
184 760 _l
184 0 _l
94 0 _l
94 760 _l
_cl}_d
/m{{974 0 91 0 889 560 _sc
520 442 _m
542 482 569 511 600 531 _c
631 550 668 560 711 560 _c
767 560 811 540 842 500 _c
873 460 889 403 889 330 _c
889 0 _l
799 0 _l
799 327 _l
799 379 789 418 771 444 _c
752 469 724 482 686 482 _c
639 482 602 466 575 435 _c
548 404 535 362 535 309 _c
535 0 _l
445 0 _l
445 327 _l
445 379 435 418 417 444 _c
398 469 369 482 331 482 _c
}_e{285 482 248 466 221 435 _c
194 404 181 362 181 309 _c
181 0 _l
91 0 _l
91 547 _l
181 547 _l
181 462 _l
201 495 226 520 255 536 _c
283 552 317 560 357 560 _c
397 560 430 550 458 530 _c
486 510 506 480 520 442 _c
_cl}_e}_d
/o{612 0 55 -13 557 560 _sc
306 484 _m
258 484 220 465 192 427 _c
164 389 150 338 150 273 _c
150 207 163 156 191 118 _c
219 80 257 62 306 62 _c
354 62 392 80 420 118 _c
448 156 462 207 462 273 _c
462 337 448 389 420 427 _c
392 465 354 484 306 484 _c
306 560 _m
384 560 445 534 490 484 _c
534 433 557 363 557 273 _c
557 183 534 113 490 63 _c
445 12 384 -13 306 -13 _c
227 -13 165 12 121 63 _c
77 113 55 183 55 273 _c
55 363 77 433 121 484 _c
165 534 227 560 306 560 _c
_cl}_d
/p{{635 0 91 -207 580 560 _sc
181 82 _m
181 -207 _l
91 -207 _l
91 547 _l
181 547 _l
181 464 _l
199 496 223 520 252 536 _c
281 552 316 560 356 560 _c
422 560 476 533 518 481 _c
559 428 580 359 580 273 _c
580 187 559 117 518 65 _c
476 13 422 -13 356 -13 _c
316 -13 281 -5 252 10 _c
223 25 199 49 181 82 _c
487 273 _m
487 339 473 390 446 428 _c
418 466 381 485 334 485 _c
}_e{286 485 249 466 222 428 _c
194 390 181 339 181 273 _c
181 207 194 155 222 117 _c
249 79 286 61 334 61 _c
381 61 418 79 446 117 _c
473 155 487 207 487 273 _c
_cl}_e}_d
/r{411 0 91 0 411 560 _sc
411 463 _m
401 469 390 473 378 476 _c
366 478 353 480 339 480 _c
288 480 249 463 222 430 _c
194 397 181 350 181 288 _c
181 0 _l
91 0 _l
91 547 _l
181 547 _l
181 462 _l
199 495 224 520 254 536 _c
284 552 321 560 365 560 _c
371 560 378 559 386 559 _c
393 558 401 557 411 555 _c
411 463 _l
_cl}_d
/s{{521 0 54 -13 472 560 _sc
443 531 _m
443 446 _l
417 458 391 468 364 475 _c
336 481 308 485 279 485 _c
234 485 200 478 178 464 _c
156 450 145 430 145 403 _c
145 382 153 366 169 354 _c
185 342 217 330 265 320 _c
296 313 _l
360 299 405 279 432 255 _c
458 230 472 195 472 151 _c
472 100 452 60 412 31 _c
372 1 316 -13 246 -13 _c
216 -13 186 -10 154 -5 _c
}_e{122 0 89 8 54 20 _c
54 113 _l
87 95 120 82 152 74 _c
184 65 216 61 248 61 _c
290 61 323 68 346 82 _c
368 96 380 117 380 144 _c
380 168 371 187 355 200 _c
339 213 303 226 247 238 _c
216 245 _l
160 257 119 275 95 299 _c
70 323 58 356 58 399 _c
58 450 76 490 112 518 _c
148 546 200 560 268 560 _c
301 560 332 557 362 552 _c
391 547 418 540 443 531 _c
}_e{_cl}_e}_d
/t{392 0 27 0 368 702 _sc
183 702 _m
183 547 _l
368 547 _l
368 477 _l
183 477 _l
183 180 _l
183 135 189 106 201 94 _c
213 81 238 75 276 75 _c
368 75 _l
368 0 _l
276 0 _l
206 0 158 13 132 39 _c
106 65 93 112 93 180 _c
93 477 _l
27 477 _l
27 547 _l
93 547 _l
93 702 _l
183 702 _l
_cl}_d
/w{818 0 42 0 776 547 _sc
42 547 _m
132 547 _l
244 120 _l
356 547 _l
462 547 _l
574 120 _l
686 547 _l
776 547 _l
633 0 _l
527 0 _l
409 448 _l
291 0 _l
185 0 _l
42 547 _l
_cl}_d
/y{592 0 30 -207 562 547 _sc
322 -50 _m
296 -114 271 -157 247 -177 _c
223 -197 191 -207 151 -207 _c
79 -207 _l
79 -132 _l
132 -132 _l
156 -132 175 -126 189 -114 _c
203 -102 218 -75 235 -31 _c
251 9 _l
30 547 _l
125 547 _l
296 119 _l
467 547 _l
562 547 _l
322 -50 _l
_cl}_d
/minus{838 0 106 272 732 355 _sc
106 355 _m
732 355 _l
732 272 _l
106 272 _l
106 355 _l
_cl}_d
end readonly def

/BuildGlyph
 {exch begin
 CharStrings exch
 2 copy known not{pop /.notdef}if
 true 3 1 roll get exec
 end}_d

/BuildChar {
 1 index /Encoding get exch get
 1 index /BuildGlyph get exec
}_d

FontName currentdict end definefont pop
end
%%EndProlog
mpldict begin
-52.56 163.8 translate
717.12 464.4 0 0 clipbox
gsave
0 0 m
717.12 0 l
717.12 464.4 l
0 464.4 l
cl
1.000 setgray
fill
grestore
gsave
33.775 261.72 m
705.06 261.72 l
705.06 438.24 l
33.775 438.24 l
cl
1.000 setgray
fill
grestore
1.000 setlinewidth
0 setlinejoin
0 setlinecap
[] 0 setdash
0.122 0.467 0.706 setrgbcolor
gsave
671.3 176.5 33.78 261.7 clipbox
64.287955 261.72 m
64.287955 263.989602 l
70.390545 263.989602 l
70.390545 262.476534 l
76.493136 262.476534 l
76.493136 264.746136 l
88.698318 264.746136 l
88.698318 265.50267 l
94.800909 265.50267 l
94.800909 270.041873 l
100.9035 270.041873 l
100.9035 278.363746 l
107.006091 278.363746 l
107.006091 281.389882 l
113.108682 281.389882 l
113.108682 285.929085 l
119.211273 285.929085 l
119.211273 298.790162 l
125.313864 298.790162 l
125.313864 292.73789 l
131.416455 292.73789 l
131.416455 307.112035 l
137.519045 307.112035 l
137.519045 309.381637 l
143.621636 309.381637 l
143.621636 319.973111 l
149.724227 319.973111 l
149.724227 323.755781 l
155.826818 323.755781 l
155.826818 316.946976 l
161.929409 316.946976 l
161.929409 321.486179 l
168.032 321.486179 l
168.032 320.729645 l
174.134591 320.729645 l
174.134591 342.669129 l
180.237182 342.669129 l
180.237182 350.991002 l
186.339773 350.991002 l
186.339773 347.208332 l
198.544955 347.208332 l
198.544955 351.747536 l
204.647545 351.747536 l
204.647545 357.043273 l
210.750136 357.043273 l
210.750136 342.669129 l
216.852727 342.669129 l
216.852727 356.286739 l
222.955318 356.286739 l
222.955318 347.208332 l
229.057909 347.208332 l
229.057909 357.043273 l
235.1605 357.043273 l
235.1605 363.095544 l
241.263091 363.095544 l
241.263091 360.069409 l
247.365682 360.069409 l
247.365682 365.365146 l
253.468273 365.365146 l
253.468273 349.477934 l
259.570864 349.477934 l
259.570864 365.365146 l
265.673455 365.365146 l
265.673455 369.147816 l
271.776045 369.147816 l
271.776045 359.312875 l
277.878636 359.312875 l
277.878636 364.608612 l
283.981227 364.608612 l
283.981227 366.878214 l
290.083818 366.878214 l
290.083818 369.90435 l
296.186409 369.90435 l
296.186409 360.069409 l
302.289 360.069409 l
302.289 351.747536 l
308.391591 351.747536 l
308.391591 372.173951 l
314.494182 372.173951 l
314.494182 387.30463 l
320.596773 387.30463 l
320.596773 379.73929 l
326.699364 379.73929 l
326.699364 356.286739 l
332.801955 356.286739 l
332.801955 366.12168 l
338.904545 366.12168 l
338.904545 365.365146 l
345.007136 365.365146 l
345.007136 375.956621 l
351.109727 375.956621 l
351.109727 379.73929 l
357.212318 379.73929 l
357.212318 366.12168 l
363.314909 366.12168 l
363.314909 360.069409 l
369.4175 360.069409 l
369.4175 366.12168 l
375.520091 366.12168 l
375.520091 367.634748 l
381.622682 367.634748 l
381.622682 378.982757 l
387.725273 378.982757 l
387.725273 360.825943 l
393.827864 360.825943 l
393.827864 375.956621 l
399.930455 375.956621 l
399.930455 369.90435 l
406.033045 369.90435 l
406.033045 371.417417 l
412.135636 371.417417 l
412.135636 375.956621 l
418.238227 375.956621 l
418.238227 350.234468 l
424.340818 350.234468 l
424.340818 385.791562 l
430.443409 385.791562 l
430.443409 354.017137 l
436.546 354.017137 l
436.546 350.991002 l
442.648591 350.991002 l
442.648591 369.90435 l
448.751182 369.90435 l
448.751182 388.061164 l
454.853773 388.061164 l
454.853773 375.956621 l
460.956364 375.956621 l
460.956364 363.852078 l
467.058955 363.852078 l
467.058955 358.556341 l
473.161545 358.556341 l
473.161545 350.991002 l
479.264136 350.991002 l
479.264136 353.260604 l
485.366727 353.260604 l
485.366727 351.747536 l
491.469318 351.747536 l
491.469318 356.286739 l
497.571909 356.286739 l
497.571909 350.234468 l
503.6745 350.234468 l
503.6745 355.530205 l
509.777091 355.530205 l
509.777091 345.695264 l
515.879682 345.695264 l
515.879682 360.825943 l
521.982273 360.825943 l
521.982273 369.147816 l
528.084864 369.147816 l
528.084864 351.747536 l
534.187455 351.747536 l
534.187455 354.017137 l
540.290045 354.017137 l
540.290045 343.425663 l
546.392636 343.425663 l
546.392636 341.912595 l
552.495227 341.912595 l
552.495227 354.017137 l
558.597818 354.017137 l
558.597818 347.208332 l
564.700409 347.208332 l
564.700409 348.7214 l
570.803 348.7214 l
570.803 339.642993 l
576.905591 339.642993 l
576.905591 319.973111 l
583.008182 319.973111 l
583.008182 331.32112 l
589.110773 331.32112 l
589.110773 320.729645 l
595.213364 320.729645 l
595.213364 330.564586 l
601.315955 330.564586 l
601.315955 311.651238 l
607.418545 311.651238 l
607.418545 307.112035 l
613.521136 307.112035 l
613.521136 303.329365 l
619.623727 303.329365 l
619.623727 295.007492 l
625.726318 295.007492 l
625.726318 283.659483 l
631.828909 283.659483 l
631.828909 282.146416 l
637.9315 282.146416 l
637.9315 277.607212 l
644.034091 277.607212 l
644.034091 271.554941 l
650.136682 271.554941 l
650.136682 267.772271 l
656.239273 267.772271 l
656.239273 263.989602 l
662.341864 263.989602 l
662.341864 266.259203 l
668.444455 266.259203 l
668.444455 263.989602 l
674.547045 263.989602 l
674.547045 261.72 l
674.547045 261.72 l
stroke
grestore
1.000 0.498 0.055 setrgbcolor
gsave
671.3 176.5 33.78 261.7 clipbox
373.024349 261.72 m
373.024349 465.4 l
373.024351 465.4 m
373.024351 261.72 l
373.024351 261.72 l
373.024351 261.72 l
373.024351 261.72 l
373.024351 465.4 l
373.024351 465.4 m
373.024351 261.72 l
373.024351 261.72 l
373.024351 261.72 l
373.024351 261.72 l
373.024351 465.4 l
373.024351 465.4 m
373.024351 261.72 l
373.024351 261.72 l
stroke
grestore
0.800 setlinewidth
1 setlinejoin
[] 0 setdash
0.000 setgray
gsave
/o {
gsave
newpath
translate
0.8 setlinewidth
1 setlinejoin
0 setlinecap
0 0 m
0 -3.5 l

gsave
0.000 setgray
fill
grestore
stroke
grestore
} bind def
59.1687 261.72 o
grestore
/DejaVuSans findfont
10.000 scalefont
setfont
gsave
47.028051 247.126250 translate
0.000000 rotate
0.000000 0.000000 m /minus glyphshow
8.378906 0.000000 m /zero glyphshow
14.741211 0.000000 m /period glyphshow
17.919922 0.000000 m /six glyphshow
grestore
gsave
/o {
gsave
newpath
translate
0.8 setlinewidth
1 setlinejoin
0 setlinecap
0 0 m
0 -3.5 l

gsave
0.000 setgray
fill
grestore
stroke
grestore
} bind def
163.787 261.72 o
grestore
gsave
151.646609 247.126250 translate
0.000000 rotate
0.000000 0.000000 m /minus glyphshow
8.378906 0.000000 m /zero glyphshow
14.741211 0.000000 m /period glyphshow
17.919922 0.000000 m /four glyphshow
grestore
gsave
/o {
gsave
newpath
translate
0.8 setlinewidth
1 setlinejoin
0 setlinecap
0 0 m
0 -3.5 l

gsave
0.000 setgray
fill
grestore
stroke
grestore
} bind def
268.406 261.72 o
grestore
gsave
256.265167 247.126250 translate
0.000000 rotate
0.000000 0.000000 m /minus glyphshow
8.378906 0.000000 m /zero glyphshow
14.741211 0.000000 m /period glyphshow
17.919922 0.000000 m /two glyphshow
grestore
gsave
/o {
gsave
newpath
translate
0.8 setlinewidth
1 setlinejoin
0 setlinecap
0 0 m
0 -3.5 l

gsave
0.000 setgray
fill
grestore
stroke
grestore
} bind def
373.024 261.72 o
grestore
gsave
365.071226 247.126250 translate
0.000000 rotate
0.000000 0.000000 m /zero glyphshow
6.362305 0.000000 m /period glyphshow
9.541016 0.000000 m /zero glyphshow
grestore
gsave
/o {
gsave
newpath
translate
0.8 setlinewidth
1 setlinejoin
0 setlinecap
0 0 m
0 -3.5 l

gsave
0.000 setgray
fill
grestore
stroke
grestore
} bind def
477.643 261.72 o
grestore
gsave
469.689784 247.126250 translate
0.000000 rotate
0.000000 0.000000 m /zero glyphshow
6.362305 0.000000 m /period glyphshow
9.541016 0.000000 m /two glyphshow
grestore
gsave
/o {
gsave
newpath
translate
0.8 setlinewidth
1 setlinejoin
0 setlinecap
0 0 m
0 -3.5 l

gsave
0.000 setgray
fill
grestore
stroke
grestore
} bind def
582.261 261.72 o
grestore
gsave
574.308343 247.126250 translate
0.000000 rotate
0.000000 0.000000 m /zero glyphshow
6.362305 0.000000 m /period glyphshow
9.541016 0.000000 m /four glyphshow
grestore
gsave
/o {
gsave
newpath
translate
0.8 setlinewidth
1 setlinejoin
0 setlinecap
0 0 m
0 -3.5 l

gsave
0.000 setgray
fill
grestore
stroke
grestore
} bind def
686.88 261.72 o
grestore
gsave
678.926901 247.126250 translate
0.000000 rotate
0.000000 0.000000 m /zero glyphshow
6.362305 0.000000 m /period glyphshow
9.541016 0.000000 m /six glyphshow
grestore
gsave
/o {
gsave
newpath
translate
0.8 setlinewidth
1 setlinejoin
0 setlinecap
0 0 m
-3.5 0 l

gsave
0.000 setgray
fill
grestore
stroke
grestore
} bind def
33.775 261.72 o
grestore
gsave
4.509375 257.923125 translate
0.000000 rotate
0.000000 0.000000 m /zero glyphshow
6.362305 0.000000 m /period glyphshow
9.541016 0.000000 m /zero glyphshow
15.903320 0.000000 m /zero glyphshow
grestore
gsave
/o {
gsave
newpath
translate
0.8 setlinewidth
1 setlinejoin
0 setlinecap
0 0 m
-3.5 0 l

gsave
0.000 setgray
fill
grestore
stroke
grestore
} bind def
33.775 283.785 o
grestore
gsave
4.509375 279.988125 translate
0.000000 rotate
0.000000 0.000000 m /zero glyphshow
6.362305 0.000000 m /period glyphshow
9.541016 0.000000 m /two glyphshow
15.903320 0.000000 m /five glyphshow
grestore
gsave
/o {
gsave
newpath
translate
0.8 setlinewidth
1 setlinejoin
0 setlinecap
0 0 m
-3.5 0 l

gsave
0.000 setgray
fill
grestore
stroke
grestore
} bind def
33.775 305.85 o
grestore
gsave
4.509375 302.053125 translate
0.000000 rotate
0.000000 0.000000 m /zero glyphshow
6.362305 0.000000 m /period glyphshow
9.541016 0.000000 m /five glyphshow
15.903320 0.000000 m /zero glyphshow
grestore
gsave
/o {
gsave
newpath
translate
0.8 setlinewidth
1 setlinejoin
0 setlinecap
0 0 m
-3.5 0 l

gsave
0.000 setgray
fill
grestore
stroke
grestore
} bind def
33.775 327.915 o
grestore
gsave
4.509375 324.118125 translate
0.000000 rotate
0.000000 0.000000 m /zero glyphshow
6.362305 0.000000 m /period glyphshow
9.541016 0.000000 m /seven glyphshow
15.903320 0.000000 m /five glyphshow
grestore
gsave
/o {
gsave
newpath
translate
0.8 setlinewidth
1 setlinejoin
0 setlinecap
0 0 m
-3.5 0 l

gsave
0.000 setgray
fill
grestore
stroke
grestore
} bind def
33.775 349.98 o
grestore
gsave
4.509375 346.183125 translate
0.000000 rotate
0.000000 0.000000 m /one glyphshow
6.362305 0.000000 m /period glyphshow
9.541016 0.000000 m /zero glyphshow
15.903320 0.000000 m /zero glyphshow
grestore
gsave
/o {
gsave
newpath
translate
0.8 setlinewidth
1 setlinejoin
0 setlinecap
0 0 m
-3.5 0 l

gsave
0.000 setgray
fill
grestore
stroke
grestore
} bind def
33.775 372.045 o
grestore
gsave
4.509375 368.248125 translate
0.000000 rotate
0.000000 0.000000 m /one glyphshow
6.362305 0.000000 m /period glyphshow
9.541016 0.000000 m /two glyphshow
15.903320 0.000000 m /five glyphshow
grestore
gsave
/o {
gsave
newpath
translate
0.8 setlinewidth
1 setlinejoin
0 setlinecap
0 0 m
-3.5 0 l

gsave
0.000 setgray
fill
grestore
stroke
grestore
} bind def
33.775 394.11 o
grestore
gsave
4.509375 390.313125 translate
0.000000 rotate
0.000000 0.000000 m /one glyphshow
6.362305 0.000000 m /period glyphshow
9.541016 0.000000 m /five glyphshow
15.903320 0.000000 m /zero glyphshow
grestore
gsave
/o {
gsave
newpath
translate
0.8 setlinewidth
1 setlinejoin
0 setlinecap
0 0 m
-3.5 0 l

gsave
0.000 setgray
fill
grestore
stroke
grestore
} bind def
33.775 416.175 o
grestore
gsave
4.509375 412.378125 translate
0.000000 rotate
0.000000 0.000000 m /one glyphshow
6.362305 0.000000 m /period glyphshow
9.541016 0.000000 m /seven glyphshow
15.903320 0.000000 m /five glyphshow
grestore
gsave
/o {
gsave
newpath
translate
0.8 setlinewidth
1 setlinejoin
0 setlinecap
0 0 m
-3.5 0 l

gsave
0.000 setgray
fill
grestore
stroke
grestore
} bind def
33.775 438.24 o
grestore
gsave
4.509375 434.443125 translate
0.000000 rotate
0.000000 0.000000 m /two glyphshow
6.362305 0.000000 m /period glyphshow
9.541016 0.000000 m /zero glyphshow
15.903320 0.000000 m /zero glyphshow
grestore
0 setlinejoin
2 setlinecap
[] 0 setdash
gsave
33.775 261.72 m
33.775 438.24 l
stroke
grestore
gsave
705.06 261.72 m
705.06 438.24 l
stroke
grestore
gsave
33.775 261.72 m
705.06 261.72 l
stroke
grestore
gsave
33.775 438.24 m
705.06 438.24 l
stroke
grestore
/DejaVuSans findfont
12.000 scalefont
setfont
gsave
322.323750 444.240000 translate
0.000000 rotate
0.000000 0.000000 m /S glyphshow
7.617188 0.000000 m /l glyphshow
10.951172 0.000000 m /o glyphshow
18.292969 0.000000 m /w glyphshow
28.107422 0.000000 m /space glyphshow
31.921875 0.000000 m /H glyphshow
40.945312 0.000000 m /i glyphshow
44.279297 0.000000 m /s glyphshow
50.531250 0.000000 m /t glyphshow
55.236328 0.000000 m /o glyphshow
62.578125 0.000000 m /g glyphshow
70.195312 0.000000 m /r glyphshow
75.128906 0.000000 m /a glyphshow
82.482422 0.000000 m /m glyphshow
grestore
1.000 setlinewidth
0 setlinecap
0.800 setgray
gsave
568.638125 400.89625 m
698.06 400.89625 l
699.393333 400.89625 700.06 401.562917 700.06 402.89625 c
700.06 431.24 l
700.06 432.573333 699.393333 433.24 698.06 433.24 c
568.638125 433.24 l
567.304792 433.24 566.638125 432.573333 566.638125 431.24 c
566.638125 402.89625 l
566.638125 401.562917 567.304792 400.89625 568.638125 400.89625 c
cl
gsave
1.000 setgray
fill
grestore
stroke
grestore
0.122 0.467 0.706 setrgbcolor
gsave
570.638125 421.64625 m
590.638125 421.64625 l
590.638125 428.64625 l
570.638125 428.64625 l
cl
stroke
grestore
0.000 setgray
/DejaVuSans findfont
10.000 scalefont
setfont
gsave
598.638125 421.646250 translate
0.000000 rotate
0.000000 0.000000 m /m glyphshow
9.741211 0.000000 m /i glyphshow
12.519531 0.000000 m /c glyphshow
18.017578 0.000000 m /r glyphshow
22.128906 0.000000 m /o glyphshow
28.247070 0.000000 m /s glyphshow
33.457031 0.000000 m /c glyphshow
38.955078 0.000000 m /o glyphshow
45.073242 0.000000 m /p glyphshow
51.420898 0.000000 m /i glyphshow
54.199219 0.000000 m /c glyphshow
59.697266 0.000000 m /space glyphshow
62.875977 0.000000 m /m glyphshow
72.617188 0.000000 m /o glyphshow
78.735352 0.000000 m /d glyphshow
85.083008 0.000000 m /e glyphshow
91.235352 0.000000 m /l glyphshow
grestore
1.000 0.498 0.055 setrgbcolor
gsave
570.638125 406.974375 m
590.638125 406.974375 l
590.638125 413.974375 l
570.638125 413.974375 l
cl
stroke
grestore
0.000 setgray
gsave
598.638125 406.974375 translate
0.000000 rotate
0.000000 0.000000 m /m glyphshow
9.741211 0.000000 m /a glyphshow
15.869141 0.000000 m /c glyphshow
21.367188 0.000000 m /r glyphshow
25.478516 0.000000 m /o glyphshow
31.596680 0.000000 m /s glyphshow
36.806641 0.000000 m /c glyphshow
42.304688 0.000000 m /o glyphshow
48.422852 0.000000 m /p glyphshow
54.770508 0.000000 m /i glyphshow
57.548828 0.000000 m /c glyphshow
63.046875 0.000000 m /space glyphshow
66.225586 0.000000 m /m glyphshow
75.966797 0.000000 m /o glyphshow
82.084961 0.000000 m /d glyphshow
88.432617 0.000000 m /e glyphshow
94.584961 0.000000 m /l glyphshow
grestore
gsave
33.775 41.96 m
705.06 41.96 l
705.06 218.48 l
33.775 218.48 l
cl
1.000 setgray
fill
grestore
0.122 0.467 0.706 setrgbcolor
gsave
671.3 176.5 33.78 41.96 clipbox
64.287955 41.96 m
64.287955 42.854225 l
70.390545 42.854225 l
70.390545 41.96 l
76.493136 41.96 l
76.493136 43.74845 l
82.595727 43.74845 l
82.595727 42.854225 l
88.698318 42.854225 l
88.698318 47.32535 l
100.9035 47.32535 l
100.9035 49.113799 l
107.006091 49.113799 l
107.006091 53.584924 l
113.108682 53.584924 l
113.108682 64.315623 l
119.211273 64.315623 l
119.211273 61.632948 l
125.313864 61.632948 l
125.313864 75.940547 l
131.416455 75.940547 l
131.416455 72.363647 l
137.519045 72.363647 l
137.519045 93.825046 l
143.621636 93.825046 l
143.621636 98.29617 l
149.724227 98.29617 l
149.724227 97.401945 l
155.826818 97.401945 l
155.826818 94.719271 l
161.929409 94.719271 l
161.929409 120.651793 l
168.032 120.651793 l
168.032 146.584316 l
174.134591 146.584316 l
174.134591 152.843891 l
180.237182 152.843891 l
180.237182 153.738116 l
186.339773 153.738116 l
186.339773 178.776413 l
192.442364 178.776413 l
192.442364 189.507112 l
198.544955 189.507112 l
198.544955 163.57459 l
204.647545 163.57459 l
204.647545 178.776413 l
210.750136 178.776413 l
210.750136 187.718663 l
216.852727 187.718663 l
216.852727 194.872462 l
222.955318 194.872462 l
222.955318 210.074286 l
229.057909 210.074286 l
229.057909 198.449362 l
241.263091 198.449362 l
241.263091 182.353313 l
247.365682 182.353313 l
247.365682 187.718663 l
253.468273 187.718663 l
253.468273 197.555137 l
259.570864 197.555137 l
259.570864 202.026261 l
265.673455 202.026261 l
265.673455 185.035988 l
271.776045 185.035988 l
271.776045 194.872462 l
277.878636 194.872462 l
277.878636 151.055441 l
283.981227 151.055441 l
283.981227 159.99769 l
290.083818 159.99769 l
290.083818 163.57459 l
296.186409 163.57459 l
296.186409 153.738116 l
302.289 153.738116 l
302.289 168.939939 l
308.391591 168.939939 l
308.391591 151.949666 l
314.494182 151.949666 l
314.494182 139.430517 l
320.596773 139.430517 l
320.596773 145.690091 l
326.699364 145.690091 l
326.699364 143.901641 l
332.801955 143.901641 l
332.801955 133.170942 l
338.904545 133.170942 l
338.904545 134.065167 l
345.007136 134.065167 l
345.007136 134.959392 l
351.109727 134.959392 l
351.109727 128.699818 l
357.212318 128.699818 l
357.212318 143.901641 l
363.314909 143.901641 l
363.314909 147.478541 l
369.4175 147.478541 l
369.4175 145.690091 l
375.520091 145.690091 l
375.520091 159.99769 l
381.622682 159.99769 l
381.622682 151.949666 l
387.725273 151.949666 l
387.725273 133.170942 l
393.827864 133.170942 l
393.827864 144.795866 l
399.930455 144.795866 l
399.930455 143.901641 l
406.033045 143.901641 l
406.033045 130.488267 l
412.135636 130.488267 l
412.135636 140.324742 l
418.238227 140.324742 l
418.238227 148.372766 l
424.340818 148.372766 l
424.340818 183.247538 l
430.443409 183.247538 l
430.443409 176.093739 l
436.546 176.093739 l
436.546 189.507112 l
442.648591 189.507112 l
442.648591 159.99769 l
448.751182 159.99769 l
448.751182 184.141763 l
454.853773 184.141763 l
454.853773 183.247538 l
467.058955 183.247538 l
467.058955 185.035988 l
473.161545 185.035988 l
473.161545 182.353313 l
479.264136 182.353313 l
479.264136 200.237812 l
485.366727 200.237812 l
485.366727 172.516839 l
491.469318 172.516839 l
491.469318 206.497386 l
497.571909 206.497386 l
497.571909 200.237812 l
503.6745 200.237812 l
503.6745 176.093739 l
509.777091 176.093739 l
509.777091 179.670638 l
515.879682 179.670638 l
515.879682 193.084012 l
521.982273 193.084012 l
521.982273 186.824438 l
528.084864 186.824438 l
528.084864 163.57459 l
534.187455 163.57459 l
534.187455 173.411064 l
540.290045 173.411064 l
540.290045 162.680365 l
546.392636 162.680365 l
546.392636 137.642067 l
552.495227 137.642067 l
552.495227 149.266991 l
558.597818 149.266991 l
558.597818 122.440243 l
564.700409 122.440243 l
564.700409 115.286444 l
570.803 115.286444 l
570.803 100.978845 l
576.905591 100.978845 l
576.905591 90.248146 l
583.008182 90.248146 l
583.008182 86.671246 l
589.110773 86.671246 l
589.110773 77.728997 l
595.213364 77.728997 l
595.213364 80.411672 l
601.315955 80.411672 l
601.315955 64.315623 l
607.418545 64.315623 l
607.418545 63.421398 l
613.521136 63.421398 l
613.521136 52.690699 l
619.623727 52.690699 l
619.623727 50.902249 l
625.726318 50.902249 l
625.726318 45.5369 l
631.828909 45.5369 l
631.828909 48.219574 l
637.9315 48.219574 l
637.9315 44.642675 l
644.034091 44.642675 l
644.034091 45.5369 l
650.136682 45.5369 l
650.136682 43.74845 l
656.239273 43.74845 l
656.239273 41.96 l
668.444455 41.96 l
668.444455 42.854225 l
674.547045 42.854225 l
674.547045 41.96 l
674.547045 41.96 l
stroke
grestore
0.800 setlinewidth
1 setlinejoin
[] 0 setdash
0.000 setgray
gsave
/o {
gsave
newpath
translate
0.8 setlinewidth
1 setlinejoin
0 setlinecap
0 0 m
0 -3.5 l

gsave
0.000 setgray
fill
grestore
stroke
grestore
} bind def
87.0731 41.96 o
grestore
gsave
79.705865 27.366250 translate
0.000000 rotate
0.000000 0.000000 m /minus glyphshow
8.378906 0.000000 m /two glyphshow
grestore
gsave
/o {
gsave
newpath
translate
0.8 setlinewidth
1 setlinejoin
0 setlinecap
0 0 m
0 -3.5 l

gsave
0.000 setgray
fill
grestore
stroke
grestore
} bind def
224.834 41.96 o
grestore
gsave
217.467033 27.366250 translate
0.000000 rotate
0.000000 0.000000 m /minus glyphshow
8.378906 0.000000 m /one glyphshow
grestore
gsave
/o {
gsave
newpath
translate
0.8 setlinewidth
1 setlinejoin
0 setlinecap
0 0 m
0 -3.5 l

gsave
0.000 setgray
fill
grestore
stroke
grestore
} bind def
362.595 41.96 o
grestore
gsave
359.415700 27.366250 translate
0.000000 rotate
0.000000 0.000000 m /zero glyphshow
grestore
gsave
/o {
gsave
newpath
translate
0.8 setlinewidth
1 setlinejoin
0 setlinecap
0 0 m
0 -3.5 l

gsave
0.000 setgray
fill
grestore
stroke
grestore
} bind def
500.357 41.96 o
grestore
gsave
497.176868 27.366250 translate
0.000000 rotate
0.000000 0.000000 m /one glyphshow
grestore
gsave
/o {
gsave
newpath
translate
0.8 setlinewidth
1 setlinejoin
0 setlinecap
0 0 m
0 -3.5 l

gsave
0.000 setgray
fill
grestore
stroke
grestore
} bind def
638.118 41.96 o
grestore
gsave
634.938036 27.366250 translate
0.000000 rotate
0.000000 0.000000 m /two glyphshow
grestore
gsave
366.456563 13.694375 translate
0.000000 rotate
0.000000 0.000000 m /y glyphshow
grestore
gsave
/o {
gsave
newpath
translate
0.8 setlinewidth
1 setlinejoin
0 setlinecap
0 0 m
-3.5 0 l

gsave
0.000 setgray
fill
grestore
stroke
grestore
} bind def
33.775 41.96 o
grestore
gsave
10.868750 38.163125 translate
0.000000 rotate
0.000000 0.000000 m /zero glyphshow
6.362305 0.000000 m /period glyphshow
9.541016 0.000000 m /zero glyphshow
grestore
gsave
/o {
gsave
newpath
translate
0.8 setlinewidth
1 setlinejoin
0 setlinecap
0 0 m
-3.5 0 l

gsave
0.000 setgray
fill
grestore
stroke
grestore
} bind def
33.775 81.5727 o
grestore
gsave
10.868750 77.775804 translate
0.000000 rotate
0.000000 0.000000 m /zero glyphshow
6.362305 0.000000 m /period glyphshow
9.541016 0.000000 m /one glyphshow
grestore
gsave
/o {
gsave
newpath
translate
0.8 setlinewidth
1 setlinejoin
0 setlinecap
0 0 m
-3.5 0 l

gsave
0.000 setgray
fill
grestore
stroke
grestore
} bind def
33.775 121.185 o
grestore
gsave
10.868750 117.388483 translate
0.000000 rotate
0.000000 0.000000 m /zero glyphshow
6.362305 0.000000 m /period glyphshow
9.541016 0.000000 m /two glyphshow
grestore
gsave
/o {
gsave
newpath
translate
0.8 setlinewidth
1 setlinejoin
0 setlinecap
0 0 m
-3.5 0 l

gsave
0.000 setgray
fill
grestore
stroke
grestore
} bind def
33.775 160.798 o
grestore
gsave
10.868750 157.001162 translate
0.000000 rotate
0.000000 0.000000 m /zero glyphshow
6.362305 0.000000 m /period glyphshow
9.541016 0.000000 m /three glyphshow
grestore
gsave
/o {
gsave
newpath
translate
0.8 setlinewidth
1 setlinejoin
0 setlinecap
0 0 m
-3.5 0 l

gsave
0.000 setgray
fill
grestore
stroke
grestore
} bind def
33.775 200.411 o
grestore
gsave
10.868750 196.613840 translate
0.000000 rotate
0.000000 0.000000 m /zero glyphshow
6.362305 0.000000 m /period glyphshow
9.541016 0.000000 m /four glyphshow
grestore
0 setlinejoin
2 setlinecap
[] 0 setdash
gsave
33.775 41.96 m
33.775 218.48 l
stroke
grestore
gsave
705.06 41.96 m
705.06 218.48 l
stroke
grestore
gsave
33.775 41.96 m
705.06 41.96 l
stroke
grestore
gsave
33.775 218.48 m
705.06 218.48 l
stroke
grestore
/DejaVuSans findfont
12.000 scalefont
setfont
gsave
323.776875 224.480000 translate
0.000000 rotate
0.000000 0.000000 m /F glyphshow
6.886719 0.000000 m /a glyphshow
14.240234 0.000000 m /s glyphshow
20.492188 0.000000 m /t glyphshow
25.197266 0.000000 m /space glyphshow
29.011719 0.000000 m /H glyphshow
38.035156 0.000000 m /i glyphshow
41.369141 0.000000 m /s glyphshow
47.621094 0.000000 m /t glyphshow
52.326172 0.000000 m /o glyphshow
59.667969 0.000000 m /g glyphshow
67.285156 0.000000 m /r glyphshow
72.218750 0.000000 m /a glyphshow
79.572266 0.000000 m /m glyphshow
grestore
1.000 setlinewidth
0 setlinecap
0.800 setgray
gsave
571.981875 195.808125 m
698.06 195.808125 l
699.393333 195.808125 700.06 196.474792 700.06 197.808125 c
700.06 211.48 l
700.06 212.813333 699.393333 213.48 698.06 213.48 c
571.981875 213.48 l
570.648542 213.48 569.981875 212.813333 569.981875 211.48 c
569.981875 197.808125 l
569.981875 196.474792 570.648542 195.808125 571.981875 195.808125 c
cl
gsave
1.000 setgray
fill
grestore
stroke
grestore
0.122 0.467 0.706 setrgbcolor
gsave
573.981875 201.88625 m
593.981875 201.88625 l
593.981875 208.88625 l
573.981875 208.88625 l
cl
stroke
grestore
0.000 setgray
/DejaVuSans findfont
10.000 scalefont
setfont
gsave
601.981875 201.886250 translate
0.000000 rotate
0.000000 0.000000 m /m glyphshow
9.741211 0.000000 m /i glyphshow
12.519531 0.000000 m /c glyphshow
18.017578 0.000000 m /r glyphshow
22.128906 0.000000 m /o glyphshow
28.247070 0.000000 m /s glyphshow
33.457031 0.000000 m /c glyphshow
38.955078 0.000000 m /o glyphshow
45.073242 0.000000 m /p glyphshow
51.420898 0.000000 m /i glyphshow
54.199219 0.000000 m /c glyphshow
59.697266 0.000000 m /space glyphshow
62.875977 0.000000 m /m glyphshow
72.617188 0.000000 m /o glyphshow
78.735352 0.000000 m /d glyphshow
85.083008 0.000000 m /e glyphshow
91.235352 0.000000 m /l glyphshow
grestore

end
showpage
