%!PS-Adobe-3.0 EPSF-3.0
%%Title: /Users/hannesvdc/thesis-wit/Source/Python/Samples/bimodal/plots/meaneps01A0.eps
%%Creator: matplotlib version 2.0.2, http://matplotlib.org/
%%CreationDate: Mon Apr  2 14:36:28 2018
%%Orientation: portrait
%%BoundingBox: -7 177 619 614
%%EndComments
%%BeginProlog
/mpldict 8 dict def
mpldict begin
/m { moveto } bind def
/l { lineto } bind def
/r { rlineto } bind def
/c { curveto } bind def
/cl { closepath } bind def
/box {
m
1 index 0 r
0 exch r
neg 0 r
cl
} bind def
/clipbox {
box
clip
newpath
} bind def
%!PS-Adobe-3.0 Resource-Font
%%Title: DejaVu Sans
%%Copyright: Copyright (c) 2003 by Bitstream, Inc. All Rights Reserved. Copyright (c) 2006 by Tavmjong Bah. All Rights Reserved. DejaVu changes are in public domain 
%%Creator: Converted from TrueType to type 3 by PPR
25 dict begin
/_d{bind def}bind def
/_m{moveto}_d
/_l{lineto}_d
/_cl{closepath eofill}_d
/_c{curveto}_d
/_sc{7 -1 roll{setcachedevice}{pop pop pop pop pop pop}ifelse}_d
/_e{exec}_d
/FontName /DejaVuSans def
/PaintType 0 def
/FontMatrix[.001 0 0 .001 0 0]def
/FontBBox[-1021 -463 1793 1232]def
/FontType 3 def
/Encoding [ /space /period /zero /one /two /three /four /five /six /seven /eight /F /M /S /T /bracketleft /bracketright /a /c /d /e /i /l /m /n /o /p /r /s /t /w /minus ] def
/FontInfo 10 dict dup begin
/FamilyName (DejaVu Sans) def
/FullName (DejaVu Sans) def
/Notice (Copyright (c) 2003 by Bitstream, Inc. All Rights Reserved. Copyright (c) 2006 by Tavmjong Bah. All Rights Reserved. DejaVu changes are in public domain ) def
/Weight (Book) def
/Version (Version 2.35) def
/ItalicAngle 0.0 def
/isFixedPitch false def
/UnderlinePosition -130 def
/UnderlineThickness 90 def
end readonly def
/CharStrings 32 dict dup begin
/space{318 0 0 0 0 0 _sc
}_d
/period{318 0 107 0 210 124 _sc
107 124 _m
210 124 _l
210 0 _l
107 0 _l
107 124 _l
_cl}_d
/zero{636 0 66 -13 570 742 _sc
318 664 _m
267 664 229 639 203 589 _c
177 539 165 464 165 364 _c
165 264 177 189 203 139 _c
229 89 267 64 318 64 _c
369 64 407 89 433 139 _c
458 189 471 264 471 364 _c
471 464 458 539 433 589 _c
407 639 369 664 318 664 _c
318 742 _m
399 742 461 709 505 645 _c
548 580 570 486 570 364 _c
570 241 548 147 505 83 _c
461 19 399 -13 318 -13 _c
236 -13 173 19 130 83 _c
87 147 66 241 66 364 _c
66 486 87 580 130 645 _c
173 709 236 742 318 742 _c
_cl}_d
/one{636 0 110 0 544 729 _sc
124 83 _m
285 83 _l
285 639 _l
110 604 _l
110 694 _l
284 729 _l
383 729 _l
383 83 _l
544 83 _l
544 0 _l
124 0 _l
124 83 _l
_cl}_d
/two{{636 0 73 0 536 742 _sc
192 83 _m
536 83 _l
536 0 _l
73 0 _l
73 83 _l
110 121 161 173 226 239 _c
290 304 331 346 348 365 _c
380 400 402 430 414 455 _c
426 479 433 504 433 528 _c
433 566 419 598 392 622 _c
365 646 330 659 286 659 _c
255 659 222 653 188 643 _c
154 632 117 616 78 594 _c
78 694 _l
118 710 155 722 189 730 _c
223 738 255 742 284 742 _c
}_e{359 742 419 723 464 685 _c
509 647 532 597 532 534 _c
532 504 526 475 515 449 _c
504 422 484 390 454 354 _c
446 344 420 317 376 272 _c
332 227 271 164 192 83 _c
_cl}_e}_d
/three{{636 0 76 -13 556 742 _sc
406 393 _m
453 383 490 362 516 330 _c
542 298 556 258 556 212 _c
556 140 531 84 482 45 _c
432 6 362 -13 271 -13 _c
240 -13 208 -10 176 -4 _c
144 1 110 10 76 22 _c
76 117 _l
103 101 133 89 166 81 _c
198 73 232 69 268 69 _c
330 69 377 81 409 105 _c
441 129 458 165 458 212 _c
458 254 443 288 413 312 _c
383 336 341 349 287 349 _c
}_e{202 349 _l
202 430 _l
291 430 _l
339 430 376 439 402 459 _c
428 478 441 506 441 543 _c
441 580 427 609 401 629 _c
374 649 336 659 287 659 _c
260 659 231 656 200 650 _c
169 644 135 635 98 623 _c
98 711 _l
135 721 170 729 203 734 _c
235 739 266 742 296 742 _c
370 742 429 725 473 691 _c
517 657 539 611 539 553 _c
539 513 527 479 504 451 _c
481 423 448 403 406 393 _c
_cl}_e}_d
/four{636 0 49 0 580 729 _sc
378 643 _m
129 254 _l
378 254 _l
378 643 _l
352 729 _m
476 729 _l
476 254 _l
580 254 _l
580 172 _l
476 172 _l
476 0 _l
378 0 _l
378 172 _l
49 172 _l
49 267 _l
352 729 _l
_cl}_d
/five{{636 0 77 -13 549 729 _sc
108 729 _m
495 729 _l
495 646 _l
198 646 _l
198 467 _l
212 472 227 476 241 478 _c
255 480 270 482 284 482 _c
365 482 429 459 477 415 _c
525 370 549 310 549 234 _c
549 155 524 94 475 51 _c
426 8 357 -13 269 -13 _c
238 -13 207 -10 175 -6 _c
143 -1 111 6 77 17 _c
77 116 _l
106 100 136 88 168 80 _c
199 72 232 69 267 69 _c
}_e{323 69 368 83 401 113 _c
433 143 450 183 450 234 _c
450 284 433 324 401 354 _c
368 384 323 399 267 399 _c
241 399 214 396 188 390 _c
162 384 135 375 108 363 _c
108 729 _l
_cl}_e}_d
/six{{636 0 70 -13 573 742 _sc
330 404 _m
286 404 251 388 225 358 _c
199 328 186 286 186 234 _c
186 181 199 139 225 109 _c
251 79 286 64 330 64 _c
374 64 409 79 435 109 _c
461 139 474 181 474 234 _c
474 286 461 328 435 358 _c
409 388 374 404 330 404 _c
526 713 _m
526 623 _l
501 635 476 644 451 650 _c
425 656 400 659 376 659 _c
310 659 260 637 226 593 _c
}_e{192 549 172 482 168 394 _c
187 422 211 444 240 459 _c
269 474 301 482 336 482 _c
409 482 467 459 509 415 _c
551 371 573 310 573 234 _c
573 159 550 99 506 54 _c
462 9 403 -13 330 -13 _c
246 -13 181 19 137 83 _c
92 147 70 241 70 364 _c
70 479 97 571 152 639 _c
206 707 280 742 372 742 _c
396 742 421 739 447 735 _c
472 730 498 723 526 713 _c
_cl}_e}_d
/seven{636 0 82 0 551 729 _sc
82 729 _m
551 729 _l
551 687 _l
286 0 _l
183 0 _l
432 646 _l
82 646 _l
82 729 _l
_cl}_d
/eight{{636 0 68 -13 568 742 _sc
318 346 _m
271 346 234 333 207 308 _c
180 283 167 249 167 205 _c
167 161 180 126 207 101 _c
234 76 271 64 318 64 _c
364 64 401 76 428 102 _c
455 127 469 161 469 205 _c
469 249 455 283 429 308 _c
402 333 365 346 318 346 _c
219 388 _m
177 398 144 418 120 447 _c
96 476 85 511 85 553 _c
85 611 105 657 147 691 _c
188 725 245 742 318 742 _c
}_e{390 742 447 725 489 691 _c
530 657 551 611 551 553 _c
551 511 539 476 515 447 _c
491 418 459 398 417 388 _c
464 377 501 355 528 323 _c
554 291 568 251 568 205 _c
568 134 546 80 503 43 _c
459 5 398 -13 318 -13 _c
237 -13 175 5 132 43 _c
89 80 68 134 68 205 _c
68 251 81 291 108 323 _c
134 355 171 377 219 388 _c
183 544 _m
183 506 194 476 218 455 _c
}_e{242 434 275 424 318 424 _c
360 424 393 434 417 455 _c
441 476 453 506 453 544 _c
453 582 441 611 417 632 _c
393 653 360 664 318 664 _c
275 664 242 653 218 632 _c
194 611 183 582 183 544 _c
_cl}_e}_d
/F{575 0 98 0 517 729 _sc
98 729 _m
517 729 _l
517 646 _l
197 646 _l
197 431 _l
486 431 _l
486 348 _l
197 348 _l
197 0 _l
98 0 _l
98 729 _l
_cl}_d
/M{863 0 98 0 765 729 _sc
98 729 _m
245 729 _l
431 233 _l
618 729 _l
765 729 _l
765 0 _l
669 0 _l
669 640 _l
481 140 _l
382 140 _l
194 640 _l
194 0 _l
98 0 _l
98 729 _l
_cl}_d
/S{{635 0 66 -13 579 742 _sc
535 705 _m
535 609 _l
497 627 462 640 429 649 _c
395 657 363 662 333 662 _c
279 662 237 651 208 631 _c
179 610 165 580 165 542 _c
165 510 174 485 194 469 _c
213 452 250 439 304 429 _c
364 417 _l
437 403 491 378 526 343 _c
561 307 579 260 579 201 _c
579 130 555 77 508 41 _c
460 5 391 -13 300 -13 _c
265 -13 228 -9 189 -2 _c
}_e{150 5 110 16 69 32 _c
69 134 _l
109 111 148 94 186 83 _c
224 71 262 66 300 66 _c
356 66 399 77 430 99 _c
460 121 476 152 476 194 _c
476 230 465 258 443 278 _c
421 298 385 313 335 323 _c
275 335 _l
201 349 148 372 115 404 _c
82 435 66 478 66 534 _c
66 598 88 649 134 686 _c
179 723 242 742 322 742 _c
356 742 390 739 426 733 _c
461 727 497 717 535 705 _c
}_e{_cl}_e}_d
/T{611 0 -2 0 614 729 _sc
-2 729 _m
614 729 _l
614 646 _l
355 646 _l
355 0 _l
256 0 _l
256 646 _l
-2 646 _l
-2 729 _l
_cl}_d
/bracketleft{390 0 86 -131 293 760 _sc
86 760 _m
293 760 _l
293 690 _l
176 690 _l
176 -61 _l
293 -61 _l
293 -131 _l
86 -131 _l
86 760 _l
_cl}_d
/bracketright{390 0 97 -131 304 760 _sc
304 760 _m
304 -131 _l
97 -131 _l
97 -61 _l
214 -61 _l
214 690 _l
97 690 _l
97 760 _l
304 760 _l
_cl}_d
/a{{613 0 60 -13 522 560 _sc
343 275 _m
270 275 220 266 192 250 _c
164 233 150 205 150 165 _c
150 133 160 107 181 89 _c
202 70 231 61 267 61 _c
317 61 357 78 387 114 _c
417 149 432 196 432 255 _c
432 275 _l
343 275 _l
522 312 _m
522 0 _l
432 0 _l
432 83 _l
411 49 385 25 355 10 _c
325 -5 287 -13 243 -13 _c
187 -13 142 2 109 33 _c
76 64 60 106 60 159 _c
}_e{60 220 80 266 122 298 _c
163 329 224 345 306 345 _c
432 345 _l
432 354 _l
432 395 418 427 391 450 _c
364 472 326 484 277 484 _c
245 484 215 480 185 472 _c
155 464 127 453 100 439 _c
100 522 _l
132 534 164 544 195 550 _c
226 556 256 560 286 560 _c
365 560 424 539 463 498 _c
502 457 522 395 522 312 _c
_cl}_e}_d
/c{{550 0 55 -13 488 560 _sc
488 526 _m
488 442 _l
462 456 437 466 411 473 _c
385 480 360 484 334 484 _c
276 484 230 465 198 428 _c
166 391 150 339 150 273 _c
150 206 166 154 198 117 _c
230 80 276 62 334 62 _c
360 62 385 65 411 72 _c
437 79 462 90 488 104 _c
488 21 _l
462 9 436 0 410 -5 _c
383 -10 354 -13 324 -13 _c
242 -13 176 12 128 64 _c
}_e{79 115 55 185 55 273 _c
55 362 79 432 128 483 _c
177 534 244 560 330 560 _c
358 560 385 557 411 551 _c
437 545 463 537 488 526 _c
_cl}_e}_d
/d{{635 0 55 -13 544 760 _sc
454 464 _m
454 760 _l
544 760 _l
544 0 _l
454 0 _l
454 82 _l
435 49 411 25 382 10 _c
353 -5 319 -13 279 -13 _c
213 -13 159 13 117 65 _c
75 117 55 187 55 273 _c
55 359 75 428 117 481 _c
159 533 213 560 279 560 _c
319 560 353 552 382 536 _c
411 520 435 496 454 464 _c
148 273 _m
148 207 161 155 188 117 _c
215 79 253 61 301 61 _c
}_e{348 61 385 79 413 117 _c
440 155 454 207 454 273 _c
454 339 440 390 413 428 _c
385 466 348 485 301 485 _c
253 485 215 466 188 428 _c
161 390 148 339 148 273 _c
_cl}_e}_d
/e{{615 0 55 -13 562 560 _sc
562 296 _m
562 252 _l
149 252 _l
153 190 171 142 205 110 _c
238 78 284 62 344 62 _c
378 62 412 66 444 74 _c
476 82 509 95 541 113 _c
541 28 _l
509 14 476 3 442 -3 _c
408 -9 373 -13 339 -13 _c
251 -13 182 12 131 62 _c
80 112 55 181 55 268 _c
55 357 79 428 127 481 _c
175 533 241 560 323 560 _c
397 560 455 536 498 489 _c
}_e{540 441 562 377 562 296 _c
472 322 _m
471 371 457 410 431 440 _c
404 469 368 484 324 484 _c
274 484 234 469 204 441 _c
174 413 156 373 152 322 _c
472 322 _l
_cl}_e}_d
/i{278 0 94 0 184 760 _sc
94 547 _m
184 547 _l
184 0 _l
94 0 _l
94 547 _l
94 760 _m
184 760 _l
184 646 _l
94 646 _l
94 760 _l
_cl}_d
/l{278 0 94 0 184 760 _sc
94 760 _m
184 760 _l
184 0 _l
94 0 _l
94 760 _l
_cl}_d
/m{{974 0 91 0 889 560 _sc
520 442 _m
542 482 569 511 600 531 _c
631 550 668 560 711 560 _c
767 560 811 540 842 500 _c
873 460 889 403 889 330 _c
889 0 _l
799 0 _l
799 327 _l
799 379 789 418 771 444 _c
752 469 724 482 686 482 _c
639 482 602 466 575 435 _c
548 404 535 362 535 309 _c
535 0 _l
445 0 _l
445 327 _l
445 379 435 418 417 444 _c
398 469 369 482 331 482 _c
}_e{285 482 248 466 221 435 _c
194 404 181 362 181 309 _c
181 0 _l
91 0 _l
91 547 _l
181 547 _l
181 462 _l
201 495 226 520 255 536 _c
283 552 317 560 357 560 _c
397 560 430 550 458 530 _c
486 510 506 480 520 442 _c
_cl}_e}_d
/n{634 0 91 0 549 560 _sc
549 330 _m
549 0 _l
459 0 _l
459 327 _l
459 379 448 417 428 443 _c
408 469 378 482 338 482 _c
289 482 251 466 223 435 _c
195 404 181 362 181 309 _c
181 0 _l
91 0 _l
91 547 _l
181 547 _l
181 462 _l
202 494 227 519 257 535 _c
286 551 320 560 358 560 _c
420 560 468 540 500 501 _c
532 462 549 405 549 330 _c
_cl}_d
/o{612 0 55 -13 557 560 _sc
306 484 _m
258 484 220 465 192 427 _c
164 389 150 338 150 273 _c
150 207 163 156 191 118 _c
219 80 257 62 306 62 _c
354 62 392 80 420 118 _c
448 156 462 207 462 273 _c
462 337 448 389 420 427 _c
392 465 354 484 306 484 _c
306 560 _m
384 560 445 534 490 484 _c
534 433 557 363 557 273 _c
557 183 534 113 490 63 _c
445 12 384 -13 306 -13 _c
227 -13 165 12 121 63 _c
77 113 55 183 55 273 _c
55 363 77 433 121 484 _c
165 534 227 560 306 560 _c
_cl}_d
/p{{635 0 91 -207 580 560 _sc
181 82 _m
181 -207 _l
91 -207 _l
91 547 _l
181 547 _l
181 464 _l
199 496 223 520 252 536 _c
281 552 316 560 356 560 _c
422 560 476 533 518 481 _c
559 428 580 359 580 273 _c
580 187 559 117 518 65 _c
476 13 422 -13 356 -13 _c
316 -13 281 -5 252 10 _c
223 25 199 49 181 82 _c
487 273 _m
487 339 473 390 446 428 _c
418 466 381 485 334 485 _c
}_e{286 485 249 466 222 428 _c
194 390 181 339 181 273 _c
181 207 194 155 222 117 _c
249 79 286 61 334 61 _c
381 61 418 79 446 117 _c
473 155 487 207 487 273 _c
_cl}_e}_d
/r{411 0 91 0 411 560 _sc
411 463 _m
401 469 390 473 378 476 _c
366 478 353 480 339 480 _c
288 480 249 463 222 430 _c
194 397 181 350 181 288 _c
181 0 _l
91 0 _l
91 547 _l
181 547 _l
181 462 _l
199 495 224 520 254 536 _c
284 552 321 560 365 560 _c
371 560 378 559 386 559 _c
393 558 401 557 411 555 _c
411 463 _l
_cl}_d
/s{{521 0 54 -13 472 560 _sc
443 531 _m
443 446 _l
417 458 391 468 364 475 _c
336 481 308 485 279 485 _c
234 485 200 478 178 464 _c
156 450 145 430 145 403 _c
145 382 153 366 169 354 _c
185 342 217 330 265 320 _c
296 313 _l
360 299 405 279 432 255 _c
458 230 472 195 472 151 _c
472 100 452 60 412 31 _c
372 1 316 -13 246 -13 _c
216 -13 186 -10 154 -5 _c
}_e{122 0 89 8 54 20 _c
54 113 _l
87 95 120 82 152 74 _c
184 65 216 61 248 61 _c
290 61 323 68 346 82 _c
368 96 380 117 380 144 _c
380 168 371 187 355 200 _c
339 213 303 226 247 238 _c
216 245 _l
160 257 119 275 95 299 _c
70 323 58 356 58 399 _c
58 450 76 490 112 518 _c
148 546 200 560 268 560 _c
301 560 332 557 362 552 _c
391 547 418 540 443 531 _c
}_e{_cl}_e}_d
/t{392 0 27 0 368 702 _sc
183 702 _m
183 547 _l
368 547 _l
368 477 _l
183 477 _l
183 180 _l
183 135 189 106 201 94 _c
213 81 238 75 276 75 _c
368 75 _l
368 0 _l
276 0 _l
206 0 158 13 132 39 _c
106 65 93 112 93 180 _c
93 477 _l
27 477 _l
27 547 _l
93 547 _l
93 702 _l
183 702 _l
_cl}_d
/w{818 0 42 0 776 547 _sc
42 547 _m
132 547 _l
244 120 _l
356 547 _l
462 547 _l
574 120 _l
686 547 _l
776 547 _l
633 0 _l
527 0 _l
409 448 _l
291 0 _l
185 0 _l
42 547 _l
_cl}_d
/minus{838 0 106 272 732 355 _sc
106 355 _m
732 355 _l
732 272 _l
106 272 _l
106 355 _l
_cl}_d
end readonly def

/BuildGlyph
 {exch begin
 CharStrings exch
 2 copy known not{pop /.notdef}if
 true 3 1 roll get exec
 end}_d

/BuildChar {
 1 index /Encoding get exch get
 1 index /BuildGlyph get exec
}_d

FontName currentdict end definefont pop
end
%%EndProlog
mpldict begin
-7.56 177.48 translate
627.12 437.04 0 0 clipbox
gsave
0 0 m
627.12 0 l
627.12 437.04 l
0 437.04 l
cl
1.000 setgray
fill
grestore
gsave
42.1 248.04 m
615.06 248.04 l
615.06 410.88 l
42.1 410.88 l
cl
1.000 setgray
fill
grestore
0.800 setlinewidth
1 setlinejoin
0 setlinecap
[] 0 setdash
0.000 setgray
gsave
/o {
gsave
newpath
translate
0.8 setlinewidth
1 setlinejoin
0 setlinecap
0 0 m
0 -3.5 l

gsave
0.000 setgray
fill
grestore
stroke
grestore
} bind def
68.1436 248.04 o
grestore
/DejaVuSans findfont
10.000 scalefont
setfont
gsave
60.190511 233.446250 translate
0.000000 rotate
0.000000 0.000000 m /zero glyphshow
6.362305 0.000000 m /period glyphshow
9.541016 0.000000 m /zero glyphshow
grestore
gsave
/o {
gsave
newpath
translate
0.8 setlinewidth
1 setlinejoin
0 setlinecap
0 0 m
0 -3.5 l

gsave
0.000 setgray
fill
grestore
stroke
grestore
} bind def
154.956 248.04 o
grestore
gsave
147.002633 233.446250 translate
0.000000 rotate
0.000000 0.000000 m /zero glyphshow
6.362305 0.000000 m /period glyphshow
9.541016 0.000000 m /five glyphshow
grestore
gsave
/o {
gsave
newpath
translate
0.8 setlinewidth
1 setlinejoin
0 setlinecap
0 0 m
0 -3.5 l

gsave
0.000 setgray
fill
grestore
stroke
grestore
} bind def
241.768 248.04 o
grestore
gsave
233.814754 233.446250 translate
0.000000 rotate
0.000000 0.000000 m /one glyphshow
6.362305 0.000000 m /period glyphshow
9.541016 0.000000 m /zero glyphshow
grestore
gsave
/o {
gsave
newpath
translate
0.8 setlinewidth
1 setlinejoin
0 setlinecap
0 0 m
0 -3.5 l

gsave
0.000 setgray
fill
grestore
stroke
grestore
} bind def
328.58 248.04 o
grestore
gsave
320.626875 233.446250 translate
0.000000 rotate
0.000000 0.000000 m /one glyphshow
6.362305 0.000000 m /period glyphshow
9.541016 0.000000 m /five glyphshow
grestore
gsave
/o {
gsave
newpath
translate
0.8 setlinewidth
1 setlinejoin
0 setlinecap
0 0 m
0 -3.5 l

gsave
0.000 setgray
fill
grestore
stroke
grestore
} bind def
415.392 248.04 o
grestore
gsave
407.438996 233.446250 translate
0.000000 rotate
0.000000 0.000000 m /two glyphshow
6.362305 0.000000 m /period glyphshow
9.541016 0.000000 m /zero glyphshow
grestore
gsave
/o {
gsave
newpath
translate
0.8 setlinewidth
1 setlinejoin
0 setlinecap
0 0 m
0 -3.5 l

gsave
0.000 setgray
fill
grestore
stroke
grestore
} bind def
502.204 248.04 o
grestore
gsave
494.251117 233.446250 translate
0.000000 rotate
0.000000 0.000000 m /two glyphshow
6.362305 0.000000 m /period glyphshow
9.541016 0.000000 m /five glyphshow
grestore
gsave
/o {
gsave
newpath
translate
0.8 setlinewidth
1 setlinejoin
0 setlinecap
0 0 m
0 -3.5 l

gsave
0.000 setgray
fill
grestore
stroke
grestore
} bind def
589.016 248.04 o
grestore
gsave
581.063239 233.446250 translate
0.000000 rotate
0.000000 0.000000 m /three glyphshow
6.362305 0.000000 m /period glyphshow
9.541016 0.000000 m /zero glyphshow
grestore
gsave
/o {
gsave
newpath
translate
0.8 setlinewidth
1 setlinejoin
0 setlinecap
0 0 m
-3.5 0 l

gsave
0.000 setgray
fill
grestore
stroke
grestore
} bind def
42.1 256.453 o
grestore
gsave
10.818750 252.655816 translate
0.000000 rotate
0.000000 0.000000 m /minus glyphshow
8.378906 0.000000 m /zero glyphshow
14.741211 0.000000 m /period glyphshow
17.919922 0.000000 m /seven glyphshow
grestore
gsave
/o {
gsave
newpath
translate
0.8 setlinewidth
1 setlinejoin
0 setlinecap
0 0 m
-3.5 0 l

gsave
0.000 setgray
fill
grestore
stroke
grestore
} bind def
42.1 277.507 o
grestore
gsave
10.818750 273.710320 translate
0.000000 rotate
0.000000 0.000000 m /minus glyphshow
8.378906 0.000000 m /zero glyphshow
14.741211 0.000000 m /period glyphshow
17.919922 0.000000 m /six glyphshow
grestore
gsave
/o {
gsave
newpath
translate
0.8 setlinewidth
1 setlinejoin
0 setlinecap
0 0 m
-3.5 0 l

gsave
0.000 setgray
fill
grestore
stroke
grestore
} bind def
42.1 298.562 o
grestore
gsave
10.818750 294.764825 translate
0.000000 rotate
0.000000 0.000000 m /minus glyphshow
8.378906 0.000000 m /zero glyphshow
14.741211 0.000000 m /period glyphshow
17.919922 0.000000 m /five glyphshow
grestore
gsave
/o {
gsave
newpath
translate
0.8 setlinewidth
1 setlinejoin
0 setlinecap
0 0 m
-3.5 0 l

gsave
0.000 setgray
fill
grestore
stroke
grestore
} bind def
42.1 319.616 o
grestore
gsave
10.818750 315.819329 translate
0.000000 rotate
0.000000 0.000000 m /minus glyphshow
8.378906 0.000000 m /zero glyphshow
14.741211 0.000000 m /period glyphshow
17.919922 0.000000 m /four glyphshow
grestore
gsave
/o {
gsave
newpath
translate
0.8 setlinewidth
1 setlinejoin
0 setlinecap
0 0 m
-3.5 0 l

gsave
0.000 setgray
fill
grestore
stroke
grestore
} bind def
42.1 340.671 o
grestore
gsave
10.818750 336.873834 translate
0.000000 rotate
0.000000 0.000000 m /minus glyphshow
8.378906 0.000000 m /zero glyphshow
14.741211 0.000000 m /period glyphshow
17.919922 0.000000 m /three glyphshow
grestore
gsave
/o {
gsave
newpath
translate
0.8 setlinewidth
1 setlinejoin
0 setlinecap
0 0 m
-3.5 0 l

gsave
0.000 setgray
fill
grestore
stroke
grestore
} bind def
42.1 361.725 o
grestore
gsave
10.818750 357.928338 translate
0.000000 rotate
0.000000 0.000000 m /minus glyphshow
8.378906 0.000000 m /zero glyphshow
14.741211 0.000000 m /period glyphshow
17.919922 0.000000 m /two glyphshow
grestore
gsave
/o {
gsave
newpath
translate
0.8 setlinewidth
1 setlinejoin
0 setlinecap
0 0 m
-3.5 0 l

gsave
0.000 setgray
fill
grestore
stroke
grestore
} bind def
42.1 382.78 o
grestore
gsave
10.818750 378.982843 translate
0.000000 rotate
0.000000 0.000000 m /minus glyphshow
8.378906 0.000000 m /zero glyphshow
14.741211 0.000000 m /period glyphshow
17.919922 0.000000 m /one glyphshow
grestore
gsave
/o {
gsave
newpath
translate
0.8 setlinewidth
1 setlinejoin
0 setlinecap
0 0 m
-3.5 0 l

gsave
0.000 setgray
fill
grestore
stroke
grestore
} bind def
42.1 403.834 o
grestore
gsave
19.193750 400.037347 translate
0.000000 rotate
0.000000 0.000000 m /zero glyphshow
6.362305 0.000000 m /period glyphshow
9.541016 0.000000 m /zero glyphshow
grestore
1.500 setlinewidth
2 setlinecap
0.122 0.467 0.706 setrgbcolor
gsave
573 162.8 42.1 248 clipbox
68.143636 255.441818 m
69.011758 255.443654 l
70.748 255.906722 l
72.484242 256.608906 l
75.088606 257.924313 l
78.561091 260.022114 l
82.033576 262.378939 l
86.374182 265.602004 l
91.582909 269.772602 l
98.527879 275.727065 l
108.077212 284.279132 l
132.384606 306.064653 l
141.933939 314.200684 l
149.74703 320.503451 l
157.560121 326.582564 l
165.373212 332.368582 l
173.186303 337.825323 l
179.263152 341.831464 l
186.208121 346.132821 l
193.153091 350.170288 l
200.098061 353.94544 l
208.779273 358.431782 l
215.724242 361.786167 l
222.669212 364.907362 l
230.482303 368.191066 l
237.427273 370.848775 l
246.976606 374.198405 l
254.789697 376.723134 l
266.943394 380.304891 l
274.756485 382.376126 l
284.305818 384.6397 l
293.855152 386.707193 l
306.008848 389.054086 l
312.953818 390.245216 l
325.975636 392.24339 l
336.393091 393.614259 l
349.414909 395.092378 l
362.436727 396.303555 l
381.535394 397.870994 l
396.293455 398.758221 l
409.315273 399.462738 l
437.095152 400.821479 l
451.853212 401.426353 l
496.127394 402.861172 l
536.929091 403.328556 l
564.70897 403.266715 l
578.598909 403.32175 l
589.016364 403.435489 l
589.016364 403.435489 l
stroke
grestore
1.000 0.498 0.055 setrgbcolor
gsave
573 162.8 42.1 248 clipbox
68.143636 255.793066 m
73.352364 264.456413 l
78.561091 272.612781 l
83.769818 280.29184 l
88.978545 287.521522 l
94.187273 294.328124 l
99.396 300.736404 l
104.604727 306.769673 l
109.813455 312.449876 l
115.022182 317.797675 l
120.230909 322.83252 l
125.439636 327.572728 l
130.648364 332.035539 l
135.857091 336.237187 l
141.933939 340.829368 l
148.010788 345.109581 l
154.087636 349.099019 l
160.164485 352.817436 l
166.241333 356.283244 l
172.318182 359.513603 l
179.263152 362.937606 l
186.208121 366.097087 l
193.153091 369.012481 l
200.098061 371.702645 l
207.911152 374.481472 l
215.724242 377.019979 l
223.537333 379.338948 l
232.218545 381.681136 l
240.899758 383.799368 l
250.449091 385.896251 l
259.998424 387.77367 l
270.415879 389.598392 l
281.701455 391.341982 l
293.855152 392.981641 l
306.87697 394.500369 l
320.766909 395.88684 l
335.52497 397.135031 l
352.019273 398.29956 l
370.249818 399.352652 l
390.216606 400.277584 l
412.787758 401.095457 l
438.831394 401.808357 l
469.215636 402.409132 l
505.676727 402.899849 l
551.687152 403.285711 l
589.016364 403.478182 l
589.016364 403.478182 l
stroke
grestore
0.800 setlinewidth
0 setlinejoin
[] 0 setdash
0.000 setgray
gsave
42.1 248.04 m
42.1 410.88 l
stroke
grestore
gsave
615.06 248.04 m
615.06 410.88 l
stroke
grestore
gsave
42.1 248.04 m
615.06 248.04 l
stroke
grestore
gsave
42.1 410.88 m
615.06 410.88 l
stroke
grestore
/DejaVuSans findfont
12.000 scalefont
setfont
gsave
296.259688 416.880000 translate
0.000000 rotate
0.000000 0.000000 m /S glyphshow
7.617188 0.000000 m /l glyphshow
10.951172 0.000000 m /o glyphshow
18.292969 0.000000 m /w glyphshow
28.107422 0.000000 m /space glyphshow
31.921875 0.000000 m /M glyphshow
42.275391 0.000000 m /e glyphshow
49.658203 0.000000 m /a glyphshow
57.011719 0.000000 m /n glyphshow
grestore
1.000 setlinewidth
0 setlinecap
0.800 setgray
gsave
49.1 373.53625 m
178.521875 373.53625 l
179.855208 373.53625 180.521875 374.202917 180.521875 375.53625 c
180.521875 403.88 l
180.521875 405.213333 179.855208 405.88 178.521875 405.88 c
49.1 405.88 l
47.766667 405.88 47.1 405.213333 47.1 403.88 c
47.1 375.53625 l
47.1 374.202917 47.766667 373.53625 49.1 373.53625 c
cl
gsave
1.000 setgray
fill
grestore
stroke
grestore
1.500 setlinewidth
1 setlinejoin
2 setlinecap
[] 0 setdash
0.122 0.467 0.706 setrgbcolor
gsave
51.1 397.78625 m
71.1 397.78625 l
stroke
grestore
0.000 setgray
/DejaVuSans findfont
10.000 scalefont
setfont
gsave
79.100000 394.286250 translate
0.000000 rotate
0.000000 0.000000 m /m glyphshow
9.741211 0.000000 m /i glyphshow
12.519531 0.000000 m /c glyphshow
18.017578 0.000000 m /r glyphshow
22.128906 0.000000 m /o glyphshow
28.247070 0.000000 m /s glyphshow
33.457031 0.000000 m /c glyphshow
38.955078 0.000000 m /o glyphshow
45.073242 0.000000 m /p glyphshow
51.420898 0.000000 m /i glyphshow
54.199219 0.000000 m /c glyphshow
59.697266 0.000000 m /space glyphshow
62.875977 0.000000 m /m glyphshow
72.617188 0.000000 m /o glyphshow
78.735352 0.000000 m /d glyphshow
85.083008 0.000000 m /e glyphshow
91.235352 0.000000 m /l glyphshow
grestore
1.000 0.498 0.055 setrgbcolor
gsave
51.1 383.114375 m
71.1 383.114375 l
stroke
grestore
0.000 setgray
gsave
79.100000 379.614375 translate
0.000000 rotate
0.000000 0.000000 m /m glyphshow
9.741211 0.000000 m /a glyphshow
15.869141 0.000000 m /c glyphshow
21.367188 0.000000 m /r glyphshow
25.478516 0.000000 m /o glyphshow
31.596680 0.000000 m /s glyphshow
36.806641 0.000000 m /c glyphshow
42.304688 0.000000 m /o glyphshow
48.422852 0.000000 m /p glyphshow
54.770508 0.000000 m /i glyphshow
57.548828 0.000000 m /c glyphshow
63.046875 0.000000 m /space glyphshow
66.225586 0.000000 m /m glyphshow
75.966797 0.000000 m /o glyphshow
82.084961 0.000000 m /d glyphshow
88.432617 0.000000 m /e glyphshow
94.584961 0.000000 m /l glyphshow
grestore
gsave
42.1 41.96 m
615.06 41.96 l
615.06 204.8 l
42.1 204.8 l
cl
1.000 setgray
fill
grestore
0.800 setlinewidth
0 setlinecap
gsave
/o {
gsave
newpath
translate
0.8 setlinewidth
1 setlinejoin
0 setlinecap
0 0 m
0 -3.5 l

gsave
0.000 setgray
fill
grestore
stroke
grestore
} bind def
68.1436 41.96 o
grestore
gsave
60.190511 27.366250 translate
0.000000 rotate
0.000000 0.000000 m /zero glyphshow
6.362305 0.000000 m /period glyphshow
9.541016 0.000000 m /zero glyphshow
grestore
gsave
/o {
gsave
newpath
translate
0.8 setlinewidth
1 setlinejoin
0 setlinecap
0 0 m
0 -3.5 l

gsave
0.000 setgray
fill
grestore
stroke
grestore
} bind def
154.956 41.96 o
grestore
gsave
147.002633 27.366250 translate
0.000000 rotate
0.000000 0.000000 m /zero glyphshow
6.362305 0.000000 m /period glyphshow
9.541016 0.000000 m /five glyphshow
grestore
gsave
/o {
gsave
newpath
translate
0.8 setlinewidth
1 setlinejoin
0 setlinecap
0 0 m
0 -3.5 l

gsave
0.000 setgray
fill
grestore
stroke
grestore
} bind def
241.768 41.96 o
grestore
gsave
233.814754 27.366250 translate
0.000000 rotate
0.000000 0.000000 m /one glyphshow
6.362305 0.000000 m /period glyphshow
9.541016 0.000000 m /zero glyphshow
grestore
gsave
/o {
gsave
newpath
translate
0.8 setlinewidth
1 setlinejoin
0 setlinecap
0 0 m
0 -3.5 l

gsave
0.000 setgray
fill
grestore
stroke
grestore
} bind def
328.58 41.96 o
grestore
gsave
320.626875 27.366250 translate
0.000000 rotate
0.000000 0.000000 m /one glyphshow
6.362305 0.000000 m /period glyphshow
9.541016 0.000000 m /five glyphshow
grestore
gsave
/o {
gsave
newpath
translate
0.8 setlinewidth
1 setlinejoin
0 setlinecap
0 0 m
0 -3.5 l

gsave
0.000 setgray
fill
grestore
stroke
grestore
} bind def
415.392 41.96 o
grestore
gsave
407.438996 27.366250 translate
0.000000 rotate
0.000000 0.000000 m /two glyphshow
6.362305 0.000000 m /period glyphshow
9.541016 0.000000 m /zero glyphshow
grestore
gsave
/o {
gsave
newpath
translate
0.8 setlinewidth
1 setlinejoin
0 setlinecap
0 0 m
0 -3.5 l

gsave
0.000 setgray
fill
grestore
stroke
grestore
} bind def
502.204 41.96 o
grestore
gsave
494.251117 27.366250 translate
0.000000 rotate
0.000000 0.000000 m /two glyphshow
6.362305 0.000000 m /period glyphshow
9.541016 0.000000 m /five glyphshow
grestore
gsave
/o {
gsave
newpath
translate
0.8 setlinewidth
1 setlinejoin
0 setlinecap
0 0 m
0 -3.5 l

gsave
0.000 setgray
fill
grestore
stroke
grestore
} bind def
589.016 41.96 o
grestore
gsave
581.063239 27.366250 translate
0.000000 rotate
0.000000 0.000000 m /three glyphshow
6.362305 0.000000 m /period glyphshow
9.541016 0.000000 m /zero glyphshow
grestore
gsave
308.072188 13.694375 translate
0.000000 rotate
0.000000 0.000000 m /T glyphshow
6.108398 0.000000 m /i glyphshow
8.886719 0.000000 m /m glyphshow
18.627930 0.000000 m /e glyphshow
24.780273 0.000000 m /space glyphshow
27.958984 0.000000 m /bracketleft glyphshow
31.860352 0.000000 m /s glyphshow
37.070312 0.000000 m /bracketright glyphshow
grestore
gsave
/o {
gsave
newpath
translate
0.8 setlinewidth
1 setlinejoin
0 setlinecap
0 0 m
-3.5 0 l

gsave
0.000 setgray
fill
grestore
stroke
grestore
} bind def
42.1 51.175 o
grestore
gsave
19.193750 47.378088 translate
0.000000 rotate
0.000000 0.000000 m /zero glyphshow
6.362305 0.000000 m /period glyphshow
9.541016 0.000000 m /zero glyphshow
grestore
gsave
/o {
gsave
newpath
translate
0.8 setlinewidth
1 setlinejoin
0 setlinecap
0 0 m
-3.5 0 l

gsave
0.000 setgray
fill
grestore
stroke
grestore
} bind def
42.1 71.9474 o
grestore
gsave
19.193750 68.150514 translate
0.000000 rotate
0.000000 0.000000 m /zero glyphshow
6.362305 0.000000 m /period glyphshow
9.541016 0.000000 m /two glyphshow
grestore
gsave
/o {
gsave
newpath
translate
0.8 setlinewidth
1 setlinejoin
0 setlinecap
0 0 m
-3.5 0 l

gsave
0.000 setgray
fill
grestore
stroke
grestore
} bind def
42.1 92.7198 o
grestore
gsave
19.193750 88.922939 translate
0.000000 rotate
0.000000 0.000000 m /zero glyphshow
6.362305 0.000000 m /period glyphshow
9.541016 0.000000 m /four glyphshow
grestore
gsave
/o {
gsave
newpath
translate
0.8 setlinewidth
1 setlinejoin
0 setlinecap
0 0 m
-3.5 0 l

gsave
0.000 setgray
fill
grestore
stroke
grestore
} bind def
42.1 113.492 o
grestore
gsave
19.193750 109.695365 translate
0.000000 rotate
0.000000 0.000000 m /zero glyphshow
6.362305 0.000000 m /period glyphshow
9.541016 0.000000 m /six glyphshow
grestore
gsave
/o {
gsave
newpath
translate
0.8 setlinewidth
1 setlinejoin
0 setlinecap
0 0 m
-3.5 0 l

gsave
0.000 setgray
fill
grestore
stroke
grestore
} bind def
42.1 134.265 o
grestore
gsave
19.193750 130.467791 translate
0.000000 rotate
0.000000 0.000000 m /zero glyphshow
6.362305 0.000000 m /period glyphshow
9.541016 0.000000 m /eight glyphshow
grestore
gsave
/o {
gsave
newpath
translate
0.8 setlinewidth
1 setlinejoin
0 setlinecap
0 0 m
-3.5 0 l

gsave
0.000 setgray
fill
grestore
stroke
grestore
} bind def
42.1 155.037 o
grestore
gsave
19.193750 151.240216 translate
0.000000 rotate
0.000000 0.000000 m /one glyphshow
6.362305 0.000000 m /period glyphshow
9.541016 0.000000 m /zero glyphshow
grestore
gsave
/o {
gsave
newpath
translate
0.8 setlinewidth
1 setlinejoin
0 setlinecap
0 0 m
-3.5 0 l

gsave
0.000 setgray
fill
grestore
stroke
grestore
} bind def
42.1 175.81 o
grestore
gsave
19.193750 172.012642 translate
0.000000 rotate
0.000000 0.000000 m /one glyphshow
6.362305 0.000000 m /period glyphshow
9.541016 0.000000 m /two glyphshow
grestore
gsave
/o {
gsave
newpath
translate
0.8 setlinewidth
1 setlinejoin
0 setlinecap
0 0 m
-3.5 0 l

gsave
0.000 setgray
fill
grestore
stroke
grestore
} bind def
42.1 196.582 o
grestore
gsave
19.193750 192.785067 translate
0.000000 rotate
0.000000 0.000000 m /one glyphshow
6.362305 0.000000 m /period glyphshow
9.541016 0.000000 m /four glyphshow
grestore
1.500 setlinewidth
2 setlinecap
0.122 0.467 0.706 setrgbcolor
gsave
573 162.8 42.1 41.96 clipbox
68.143636 197.398182 m
69.011758 178.850633 l
69.879879 170.430592 l
70.748 164.588591 l
71.616121 160.049636 l
72.484242 156.11053 l
74.220485 149.409377 l
75.956727 143.68255 l
76.824848 141.119191 l
78.561091 137.446808 l
80.297333 132.810733 l
85.506061 122.584235 l
90.714788 113.557633 l
91.582909 111.675307 l
93.319152 109.44536 l
94.187273 107.867398 l
95.055394 106.855666 l
95.923515 105.497078 l
97.659758 103.369111 l
99.396 101.0967 l
100.264121 99.934884 l
102.868485 97.053066 l
103.736606 95.744212 l
107.209091 92.339279 l
108.077212 91.935046 l
108.945333 90.927096 l
109.813455 90.404491 l
110.681576 89.231969 l
112.417818 87.328371 l
113.285939 86.363342 l
118.494667 81.742124 l
119.362788 81.125494 l
120.230909 80.949523 l
121.967152 80.000538 l
122.835273 79.155477 l
123.703394 78.643791 l
124.571515 78.66414 l
126.307758 77.64173 l
127.175879 76.892855 l
128.044 76.469415 l
129.780242 74.907318 l
130.648364 74.559658 l
134.120848 72.129216 l
137.593333 70.427886 l
138.461455 69.821256 l
139.329576 69.426023 l
140.197697 69.544436 l
141.933939 69.11096 l
143.670182 68.38189 l
144.538303 68.142193 l
145.406424 68.110589 l
146.274545 67.647156 l
147.142667 66.889232 l
148.010788 66.582539 l
150.615152 64.763814 l
151.483273 64.622057 l
153.219515 63.945409 l
154.955758 63.582887 l
155.823879 63.158412 l
156.692 63.114225 l
157.560121 62.556804 l
159.296364 62.001985 l
160.164485 61.663006 l
161.032606 61.18158 l
161.900727 60.907979 l
162.768848 60.985731 l
163.63697 60.471378 l
164.505091 60.543054 l
165.373212 60.473276 l
167.977576 59.494724 l
168.845697 59.349079 l
170.581939 59.242437 l
171.450061 58.923064 l
172.318182 58.237806 l
173.186303 58.234479 l
174.054424 58.104351 l
174.922545 58.394749 l
177.526909 57.919822 l
178.39503 58.091249 l
179.263152 57.884163 l
180.131273 58.042085 l
180.999394 57.710718 l
181.867515 57.743229 l
182.735636 57.250489 l
183.603758 56.912428 l
184.471879 57.280958 l
185.34 56.581855 l
186.208121 57.084348 l
187.076242 56.622518 l
188.812485 56.73738 l
189.680606 56.357002 l
190.548727 56.145589 l
192.28497 56.454351 l
194.889333 55.836028 l
195.757455 56.136033 l
197.493697 55.987582 l
198.361818 55.73623 l
200.098061 54.939183 l
200.966182 54.721414 l
201.834303 54.881777 l
202.702424 54.508179 l
207.04303 53.292183 l
209.647394 52.978211 l
210.515515 53.201838 l
213.119879 53.224566 l
213.988 53.362339 l
214.856121 52.76928 l
216.592364 52.900752 l
217.460485 53.153286 l
220.064848 52.575149 l
220.93297 52.706047 l
221.801091 52.575614 l
222.669212 52.307509 l
223.537333 52.62983 l
224.405455 52.181284 l
225.273576 52.434744 l
227.009818 51.681324 l
230.482303 52.22436 l
231.350424 51.950718 l
232.218545 52.21129 l
233.086667 52.124082 l
234.822909 52.644374 l
236.559152 52.822405 l
239.163515 52.235126 l
240.031636 52.423676 l
240.899758 52.250949 l
241.767879 52.196701 l
242.636 51.883899 l
243.504121 51.995155 l
245.240364 51.88015 l
248.712848 51.401617 l
250.449091 51.351555 l
251.317212 51.762972 l
252.185333 51.727392 l
253.053455 51.961691 l
253.921576 51.766189 l
254.789697 51.875269 l
256.525939 51.489742 l
258.262182 51.722186 l
259.130303 51.101564 l
260.866545 50.331199 l
262.602788 50.571966 l
263.470909 50.508942 l
265.207152 50.72591 l
266.075273 50.753943 l
266.943394 50.569416 l
268.679636 50.935134 l
269.547758 50.985403 l
271.284 50.623375 l
272.152121 50.496188 l
273.888364 50.926312 l
274.756485 51.037369 l
276.492727 51.010546 l
277.360848 51.207571 l
278.22897 50.876091 l
279.097091 50.731518 l
279.965212 51.110027 l
281.701455 50.795797 l
282.569576 51.256702 l
283.437697 51.124165 l
284.305818 50.550547 l
285.173939 50.443342 l
286.910182 50.628896 l
287.778303 50.543812 l
289.514545 50.66146 l
293.855152 50.777882 l
294.723273 50.56369 l
295.591394 50.922475 l
296.459515 50.937074 l
298.195758 50.512012 l
299.063879 50.598507 l
299.932 50.231872 l
300.800121 50.535042 l
301.668242 50.583367 l
302.536364 50.405583 l
303.404485 49.78777 l
304.272606 49.780621 l
305.140727 49.908679 l
306.008848 49.855189 l
307.745091 50.471103 l
308.613212 50.945319 l
309.481333 50.748969 l
310.349455 50.692774 l
311.217576 50.881061 l
312.085697 50.57144 l
312.953818 50.777221 l
314.690061 51.008751 l
315.558182 51.233353 l
316.426303 50.984904 l
317.294424 50.543329 l
319.030667 50.135201 l
319.898788 50.325056 l
322.503152 50.2009 l
323.371273 50.04083 l
324.239394 50.102898 l
325.107515 50.460108 l
326.843758 50.547844 l
327.711879 50.871349 l
328.58 51.008085 l
329.448121 50.970115 l
332.052485 50.297785 l
332.920606 50.461173 l
333.788727 50.871925 l
336.393091 50.911158 l
337.261212 50.575883 l
338.129333 50.555421 l
338.997455 50.809142 l
339.865576 50.748577 l
340.733697 50.371301 l
341.601818 50.876558 l
342.469939 50.92155 l
343.338061 50.663133 l
344.206182 50.594274 l
345.074303 50.818391 l
345.942424 50.82013 l
346.810545 51.230422 l
347.678667 51.395031 l
348.546788 51.158767 l
349.414909 51.160424 l
350.28303 51.0441 l
352.887394 51.295259 l
353.755515 51.803835 l
355.491758 51.638164 l
356.359879 51.569837 l
358.096121 51.01537 l
358.964242 51.0774 l
359.832364 50.838209 l
360.700485 51.145781 l
364.17297 51.118487 l
365.041091 51.210594 l
365.909212 51.165725 l
366.777333 51.376061 l
367.645455 50.906999 l
371.986061 50.823844 l
372.854182 50.423253 l
373.722303 50.254548 l
375.458545 50.603333 l
376.326667 50.643888 l
377.194788 50.567771 l
378.93103 50.777257 l
379.799152 50.556153 l
380.667273 50.885775 l
381.535394 51.347299 l
384.139758 51.167306 l
385.876 51.446963 l
387.612242 51.556956 l
388.480364 51.379255 l
389.348485 51.508442 l
391.084727 51.514704 l
393.689091 51.739217 l
394.557212 51.627879 l
395.425333 51.851949 l
396.293455 52.277558 l
397.161576 51.86274 l
398.029697 51.64689 l
399.765939 51.093736 l
401.502182 51.190959 l
402.370303 51.392445 l
403.238424 50.972665 l
404.106545 51.265716 l
405.842788 50.712756 l
406.710909 50.821761 l
407.57903 50.710863 l
408.447152 51.114624 l
409.315273 50.956182 l
410.183394 51.477189 l
411.051515 51.532495 l
411.919636 51.31727 l
412.787758 51.470937 l
416.260242 51.16598 l
417.128364 50.785271 l
417.996485 50.967357 l
418.864606 50.520348 l
420.600848 50.585689 l
421.46897 50.421928 l
422.337091 50.484299 l
424.073333 51.020782 l
424.941455 50.879563 l
425.809576 50.379416 l
427.545818 49.879183 l
428.413939 49.725324 l
429.282061 50.082971 l
430.150182 50.095113 l
431.886424 50.461943 l
434.490788 50.130536 l
435.358909 50.127902 l
436.22703 50.48009 l
437.095152 50.052832 l
438.831394 50.194514 l
440.567636 50.014593 l
441.435758 50.019935 l
443.172 49.553714 l
444.908242 50.633807 l
446.644485 50.398902 l
447.512606 50.771235 l
448.380727 50.679727 l
449.248848 50.969498 l
450.11697 50.986514 l
451.853212 50.589767 l
452.721333 50.779374 l
453.589455 50.850033 l
455.325697 50.512848 l
456.193818 50.604873 l
457.061939 50.399478 l
458.798182 49.573953 l
460.534424 49.598612 l
461.402545 49.93783 l
462.270667 50.041646 l
463.138788 49.906542 l
464.006909 49.635729 l
465.743152 49.913913 l
466.611273 50.199215 l
468.347515 50.010684 l
470.083758 49.873129 l
470.951879 49.929722 l
471.82 50.132655 l
472.688121 49.758241 l
475.292485 49.440618 l
478.76497 49.51205 l
479.633091 49.361818 l
481.369333 49.628922 l
482.237455 49.553289 l
483.105576 50.046115 l
484.841818 49.707685 l
485.709939 49.883029 l
486.578061 50.222619 l
487.446182 50.357343 l
488.314303 50.053535 l
489.182424 50.238238 l
490.050545 49.979309 l
491.786788 50.249182 l
493.52303 50.948143 l
494.391152 50.815521 l
496.995515 50.945224 l
497.863636 50.546483 l
498.731758 50.825218 l
500.468 50.778333 l
501.336121 51.177996 l
503.072364 51.418372 l
503.940485 51.277481 l
504.808606 51.249381 l
506.544848 50.94985 l
507.41297 51.256495 l
508.281091 51.089995 l
510.885455 51.082008 l
512.621697 50.57984 l
513.489818 50.790997 l
514.357939 50.594347 l
515.226061 50.272718 l
516.094182 50.429476 l
517.830424 50.210257 l
519.566667 50.596464 l
520.434788 50.455052 l
521.302909 50.661882 l
523.039152 51.291295 l
523.907273 50.803585 l
524.775394 50.865197 l
525.643515 51.135676 l
526.511636 51.095291 l
527.379758 50.757122 l
528.247879 50.569965 l
529.116 50.63393 l
530.852242 51.052238 l
531.720364 50.993663 l
532.588485 51.087503 l
533.456606 51.34911 l
534.324727 51.20764 l
535.192848 51.471159 l
537.797212 51.547944 l
538.665333 52.005871 l
540.401576 52.472993 l
541.269697 52.405505 l
542.137818 52.096723 l
543.005939 51.992097 l
543.874061 52.003147 l
544.742182 51.545073 l
546.478424 51.777162 l
547.346545 51.995022 l
549.082788 51.987132 l
550.81903 52.017333 l
551.687152 52.039874 l
553.423394 51.961204 l
554.291515 51.994253 l
555.159636 51.886763 l
556.027758 51.962478 l
557.764 51.394339 l
558.632121 51.362818 l
559.500242 51.683095 l
562.104606 51.849374 l
562.972727 52.147004 l
563.840848 52.190618 l
565.577091 51.96213 l
566.445212 51.996098 l
567.313333 52.182482 l
568.181455 51.921944 l
569.049576 51.863499 l
569.917697 51.9785 l
570.785818 51.699591 l
571.653939 51.556976 l
572.522061 51.540534 l
573.390182 50.94798 l
574.258303 50.75317 l
575.126424 50.77645 l
575.994545 50.39821 l
576.862667 50.301961 l
577.730788 50.418477 l
579.46703 50.251671 l
580.335152 49.810388 l
581.203273 50.267248 l
582.071394 50.584243 l
582.939515 50.767997 l
583.807636 50.7424 l
584.675758 51.078642 l
585.543879 50.875679 l
586.412 51.308929 l
588.148242 51.011965 l
589.016364 51.190073 l
589.016364 51.190073 l
stroke
grestore
0.800 setlinewidth
0 setlinejoin
[] 0 setdash
0.000 setgray
gsave
42.1 41.96 m
42.1 204.8 l
stroke
grestore
gsave
615.06 41.96 m
615.06 204.8 l
stroke
grestore
gsave
42.1 41.96 m
615.06 41.96 l
stroke
grestore
gsave
42.1 204.8 m
615.06 204.8 l
stroke
grestore
/DejaVuSans findfont
12.000 scalefont
setfont
gsave
297.712813 210.800000 translate
0.000000 rotate
0.000000 0.000000 m /F glyphshow
6.886719 0.000000 m /a glyphshow
14.240234 0.000000 m /s glyphshow
20.492188 0.000000 m /t glyphshow
25.197266 0.000000 m /space glyphshow
29.011719 0.000000 m /M glyphshow
39.365234 0.000000 m /e glyphshow
46.748047 0.000000 m /a glyphshow
54.101562 0.000000 m /n glyphshow
grestore
1.000 setlinewidth
0 setlinecap
0.800 setgray
gsave
481.981875 182.128125 m
608.06 182.128125 l
609.393333 182.128125 610.06 182.794792 610.06 184.128125 c
610.06 197.8 l
610.06 199.133333 609.393333 199.8 608.06 199.8 c
481.981875 199.8 l
480.648542 199.8 479.981875 199.133333 479.981875 197.8 c
479.981875 184.128125 l
479.981875 182.794792 480.648542 182.128125 481.981875 182.128125 c
cl
gsave
1.000 setgray
fill
grestore
stroke
grestore
1.500 setlinewidth
1 setlinejoin
2 setlinecap
[] 0 setdash
0.122 0.467 0.706 setrgbcolor
gsave
483.981875 191.70625 m
503.981875 191.70625 l
stroke
grestore
0.000 setgray
/DejaVuSans findfont
10.000 scalefont
setfont
gsave
511.981875 188.206250 translate
0.000000 rotate
0.000000 0.000000 m /m glyphshow
9.741211 0.000000 m /i glyphshow
12.519531 0.000000 m /c glyphshow
18.017578 0.000000 m /r glyphshow
22.128906 0.000000 m /o glyphshow
28.247070 0.000000 m /s glyphshow
33.457031 0.000000 m /c glyphshow
38.955078 0.000000 m /o glyphshow
45.073242 0.000000 m /p glyphshow
51.420898 0.000000 m /i glyphshow
54.199219 0.000000 m /c glyphshow
59.697266 0.000000 m /space glyphshow
62.875977 0.000000 m /m glyphshow
72.617188 0.000000 m /o glyphshow
78.735352 0.000000 m /d glyphshow
85.083008 0.000000 m /e glyphshow
91.235352 0.000000 m /l glyphshow
grestore

end
showpage
