%!PS-Adobe-3.0 EPSF-3.0
%%Title: /Users/hannesvdc/thesis-wit/Source/Python/Samples/bimodal/plots/varianceeps01A5.eps
%%Creator: matplotlib version 2.0.2, http://matplotlib.org/
%%CreationDate: Mon Apr  2 15:22:53 2018
%%Orientation: portrait
%%BoundingBox: -10 172 622 619
%%EndComments
%%BeginProlog
/mpldict 8 dict def
mpldict begin
/m { moveto } bind def
/l { lineto } bind def
/r { rlineto } bind def
/c { curveto } bind def
/cl { closepath } bind def
/box {
m
1 index 0 r
0 exch r
neg 0 r
cl
} bind def
/clipbox {
box
clip
newpath
} bind def
%!PS-Adobe-3.0 Resource-Font
%%Title: DejaVu Sans
%%Copyright: Copyright (c) 2003 by Bitstream, Inc. All Rights Reserved. Copyright (c) 2006 by Tavmjong Bah. All Rights Reserved. DejaVu changes are in public domain 
%%Creator: Converted from TrueType to type 3 by PPR
25 dict begin
/_d{bind def}bind def
/_m{moveto}_d
/_l{lineto}_d
/_cl{closepath eofill}_d
/_c{curveto}_d
/_sc{7 -1 roll{setcachedevice}{pop pop pop pop pop pop}ifelse}_d
/_e{exec}_d
/FontName /DejaVuSans def
/PaintType 0 def
/FontMatrix[.001 0 0 .001 0 0]def
/FontBBox[-1021 -463 1793 1232]def
/FontType 3 def
/Encoding [ /space /period /zero /one /two /three /four /five /six /S /T /V /bracketleft /bracketright /a /c /d /e /i /l /m /n /o /p /r /s /w ] def
/FontInfo 10 dict dup begin
/FamilyName (DejaVu Sans) def
/FullName (DejaVu Sans) def
/Notice (Copyright (c) 2003 by Bitstream, Inc. All Rights Reserved. Copyright (c) 2006 by Tavmjong Bah. All Rights Reserved. DejaVu changes are in public domain ) def
/Weight (Book) def
/Version (Version 2.35) def
/ItalicAngle 0.0 def
/isFixedPitch false def
/UnderlinePosition -130 def
/UnderlineThickness 90 def
end readonly def
/CharStrings 27 dict dup begin
/space{318 0 0 0 0 0 _sc
}_d
/period{318 0 107 0 210 124 _sc
107 124 _m
210 124 _l
210 0 _l
107 0 _l
107 124 _l
_cl}_d
/zero{636 0 66 -13 570 742 _sc
318 664 _m
267 664 229 639 203 589 _c
177 539 165 464 165 364 _c
165 264 177 189 203 139 _c
229 89 267 64 318 64 _c
369 64 407 89 433 139 _c
458 189 471 264 471 364 _c
471 464 458 539 433 589 _c
407 639 369 664 318 664 _c
318 742 _m
399 742 461 709 505 645 _c
548 580 570 486 570 364 _c
570 241 548 147 505 83 _c
461 19 399 -13 318 -13 _c
236 -13 173 19 130 83 _c
87 147 66 241 66 364 _c
66 486 87 580 130 645 _c
173 709 236 742 318 742 _c
_cl}_d
/one{636 0 110 0 544 729 _sc
124 83 _m
285 83 _l
285 639 _l
110 604 _l
110 694 _l
284 729 _l
383 729 _l
383 83 _l
544 83 _l
544 0 _l
124 0 _l
124 83 _l
_cl}_d
/two{{636 0 73 0 536 742 _sc
192 83 _m
536 83 _l
536 0 _l
73 0 _l
73 83 _l
110 121 161 173 226 239 _c
290 304 331 346 348 365 _c
380 400 402 430 414 455 _c
426 479 433 504 433 528 _c
433 566 419 598 392 622 _c
365 646 330 659 286 659 _c
255 659 222 653 188 643 _c
154 632 117 616 78 594 _c
78 694 _l
118 710 155 722 189 730 _c
223 738 255 742 284 742 _c
}_e{359 742 419 723 464 685 _c
509 647 532 597 532 534 _c
532 504 526 475 515 449 _c
504 422 484 390 454 354 _c
446 344 420 317 376 272 _c
332 227 271 164 192 83 _c
_cl}_e}_d
/three{{636 0 76 -13 556 742 _sc
406 393 _m
453 383 490 362 516 330 _c
542 298 556 258 556 212 _c
556 140 531 84 482 45 _c
432 6 362 -13 271 -13 _c
240 -13 208 -10 176 -4 _c
144 1 110 10 76 22 _c
76 117 _l
103 101 133 89 166 81 _c
198 73 232 69 268 69 _c
330 69 377 81 409 105 _c
441 129 458 165 458 212 _c
458 254 443 288 413 312 _c
383 336 341 349 287 349 _c
}_e{202 349 _l
202 430 _l
291 430 _l
339 430 376 439 402 459 _c
428 478 441 506 441 543 _c
441 580 427 609 401 629 _c
374 649 336 659 287 659 _c
260 659 231 656 200 650 _c
169 644 135 635 98 623 _c
98 711 _l
135 721 170 729 203 734 _c
235 739 266 742 296 742 _c
370 742 429 725 473 691 _c
517 657 539 611 539 553 _c
539 513 527 479 504 451 _c
481 423 448 403 406 393 _c
_cl}_e}_d
/four{636 0 49 0 580 729 _sc
378 643 _m
129 254 _l
378 254 _l
378 643 _l
352 729 _m
476 729 _l
476 254 _l
580 254 _l
580 172 _l
476 172 _l
476 0 _l
378 0 _l
378 172 _l
49 172 _l
49 267 _l
352 729 _l
_cl}_d
/five{{636 0 77 -13 549 729 _sc
108 729 _m
495 729 _l
495 646 _l
198 646 _l
198 467 _l
212 472 227 476 241 478 _c
255 480 270 482 284 482 _c
365 482 429 459 477 415 _c
525 370 549 310 549 234 _c
549 155 524 94 475 51 _c
426 8 357 -13 269 -13 _c
238 -13 207 -10 175 -6 _c
143 -1 111 6 77 17 _c
77 116 _l
106 100 136 88 168 80 _c
199 72 232 69 267 69 _c
}_e{323 69 368 83 401 113 _c
433 143 450 183 450 234 _c
450 284 433 324 401 354 _c
368 384 323 399 267 399 _c
241 399 214 396 188 390 _c
162 384 135 375 108 363 _c
108 729 _l
_cl}_e}_d
/six{{636 0 70 -13 573 742 _sc
330 404 _m
286 404 251 388 225 358 _c
199 328 186 286 186 234 _c
186 181 199 139 225 109 _c
251 79 286 64 330 64 _c
374 64 409 79 435 109 _c
461 139 474 181 474 234 _c
474 286 461 328 435 358 _c
409 388 374 404 330 404 _c
526 713 _m
526 623 _l
501 635 476 644 451 650 _c
425 656 400 659 376 659 _c
310 659 260 637 226 593 _c
}_e{192 549 172 482 168 394 _c
187 422 211 444 240 459 _c
269 474 301 482 336 482 _c
409 482 467 459 509 415 _c
551 371 573 310 573 234 _c
573 159 550 99 506 54 _c
462 9 403 -13 330 -13 _c
246 -13 181 19 137 83 _c
92 147 70 241 70 364 _c
70 479 97 571 152 639 _c
206 707 280 742 372 742 _c
396 742 421 739 447 735 _c
472 730 498 723 526 713 _c
_cl}_e}_d
/S{{635 0 66 -13 579 742 _sc
535 705 _m
535 609 _l
497 627 462 640 429 649 _c
395 657 363 662 333 662 _c
279 662 237 651 208 631 _c
179 610 165 580 165 542 _c
165 510 174 485 194 469 _c
213 452 250 439 304 429 _c
364 417 _l
437 403 491 378 526 343 _c
561 307 579 260 579 201 _c
579 130 555 77 508 41 _c
460 5 391 -13 300 -13 _c
265 -13 228 -9 189 -2 _c
}_e{150 5 110 16 69 32 _c
69 134 _l
109 111 148 94 186 83 _c
224 71 262 66 300 66 _c
356 66 399 77 430 99 _c
460 121 476 152 476 194 _c
476 230 465 258 443 278 _c
421 298 385 313 335 323 _c
275 335 _l
201 349 148 372 115 404 _c
82 435 66 478 66 534 _c
66 598 88 649 134 686 _c
179 723 242 742 322 742 _c
356 742 390 739 426 733 _c
461 727 497 717 535 705 _c
}_e{_cl}_e}_d
/T{611 0 -2 0 614 729 _sc
-2 729 _m
614 729 _l
614 646 _l
355 646 _l
355 0 _l
256 0 _l
256 646 _l
-2 646 _l
-2 729 _l
_cl}_d
/V{684 0 8 0 676 729 _sc
286 0 _m
8 729 _l
111 729 _l
342 115 _l
573 729 _l
676 729 _l
398 0 _l
286 0 _l
_cl}_d
/bracketleft{390 0 86 -131 293 760 _sc
86 760 _m
293 760 _l
293 690 _l
176 690 _l
176 -61 _l
293 -61 _l
293 -131 _l
86 -131 _l
86 760 _l
_cl}_d
/bracketright{390 0 97 -131 304 760 _sc
304 760 _m
304 -131 _l
97 -131 _l
97 -61 _l
214 -61 _l
214 690 _l
97 690 _l
97 760 _l
304 760 _l
_cl}_d
/a{{613 0 60 -13 522 560 _sc
343 275 _m
270 275 220 266 192 250 _c
164 233 150 205 150 165 _c
150 133 160 107 181 89 _c
202 70 231 61 267 61 _c
317 61 357 78 387 114 _c
417 149 432 196 432 255 _c
432 275 _l
343 275 _l
522 312 _m
522 0 _l
432 0 _l
432 83 _l
411 49 385 25 355 10 _c
325 -5 287 -13 243 -13 _c
187 -13 142 2 109 33 _c
76 64 60 106 60 159 _c
}_e{60 220 80 266 122 298 _c
163 329 224 345 306 345 _c
432 345 _l
432 354 _l
432 395 418 427 391 450 _c
364 472 326 484 277 484 _c
245 484 215 480 185 472 _c
155 464 127 453 100 439 _c
100 522 _l
132 534 164 544 195 550 _c
226 556 256 560 286 560 _c
365 560 424 539 463 498 _c
502 457 522 395 522 312 _c
_cl}_e}_d
/c{{550 0 55 -13 488 560 _sc
488 526 _m
488 442 _l
462 456 437 466 411 473 _c
385 480 360 484 334 484 _c
276 484 230 465 198 428 _c
166 391 150 339 150 273 _c
150 206 166 154 198 117 _c
230 80 276 62 334 62 _c
360 62 385 65 411 72 _c
437 79 462 90 488 104 _c
488 21 _l
462 9 436 0 410 -5 _c
383 -10 354 -13 324 -13 _c
242 -13 176 12 128 64 _c
}_e{79 115 55 185 55 273 _c
55 362 79 432 128 483 _c
177 534 244 560 330 560 _c
358 560 385 557 411 551 _c
437 545 463 537 488 526 _c
_cl}_e}_d
/d{{635 0 55 -13 544 760 _sc
454 464 _m
454 760 _l
544 760 _l
544 0 _l
454 0 _l
454 82 _l
435 49 411 25 382 10 _c
353 -5 319 -13 279 -13 _c
213 -13 159 13 117 65 _c
75 117 55 187 55 273 _c
55 359 75 428 117 481 _c
159 533 213 560 279 560 _c
319 560 353 552 382 536 _c
411 520 435 496 454 464 _c
148 273 _m
148 207 161 155 188 117 _c
215 79 253 61 301 61 _c
}_e{348 61 385 79 413 117 _c
440 155 454 207 454 273 _c
454 339 440 390 413 428 _c
385 466 348 485 301 485 _c
253 485 215 466 188 428 _c
161 390 148 339 148 273 _c
_cl}_e}_d
/e{{615 0 55 -13 562 560 _sc
562 296 _m
562 252 _l
149 252 _l
153 190 171 142 205 110 _c
238 78 284 62 344 62 _c
378 62 412 66 444 74 _c
476 82 509 95 541 113 _c
541 28 _l
509 14 476 3 442 -3 _c
408 -9 373 -13 339 -13 _c
251 -13 182 12 131 62 _c
80 112 55 181 55 268 _c
55 357 79 428 127 481 _c
175 533 241 560 323 560 _c
397 560 455 536 498 489 _c
}_e{540 441 562 377 562 296 _c
472 322 _m
471 371 457 410 431 440 _c
404 469 368 484 324 484 _c
274 484 234 469 204 441 _c
174 413 156 373 152 322 _c
472 322 _l
_cl}_e}_d
/i{278 0 94 0 184 760 _sc
94 547 _m
184 547 _l
184 0 _l
94 0 _l
94 547 _l
94 760 _m
184 760 _l
184 646 _l
94 646 _l
94 760 _l
_cl}_d
/l{278 0 94 0 184 760 _sc
94 760 _m
184 760 _l
184 0 _l
94 0 _l
94 760 _l
_cl}_d
/m{{974 0 91 0 889 560 _sc
520 442 _m
542 482 569 511 600 531 _c
631 550 668 560 711 560 _c
767 560 811 540 842 500 _c
873 460 889 403 889 330 _c
889 0 _l
799 0 _l
799 327 _l
799 379 789 418 771 444 _c
752 469 724 482 686 482 _c
639 482 602 466 575 435 _c
548 404 535 362 535 309 _c
535 0 _l
445 0 _l
445 327 _l
445 379 435 418 417 444 _c
398 469 369 482 331 482 _c
}_e{285 482 248 466 221 435 _c
194 404 181 362 181 309 _c
181 0 _l
91 0 _l
91 547 _l
181 547 _l
181 462 _l
201 495 226 520 255 536 _c
283 552 317 560 357 560 _c
397 560 430 550 458 530 _c
486 510 506 480 520 442 _c
_cl}_e}_d
/n{634 0 91 0 549 560 _sc
549 330 _m
549 0 _l
459 0 _l
459 327 _l
459 379 448 417 428 443 _c
408 469 378 482 338 482 _c
289 482 251 466 223 435 _c
195 404 181 362 181 309 _c
181 0 _l
91 0 _l
91 547 _l
181 547 _l
181 462 _l
202 494 227 519 257 535 _c
286 551 320 560 358 560 _c
420 560 468 540 500 501 _c
532 462 549 405 549 330 _c
_cl}_d
/o{612 0 55 -13 557 560 _sc
306 484 _m
258 484 220 465 192 427 _c
164 389 150 338 150 273 _c
150 207 163 156 191 118 _c
219 80 257 62 306 62 _c
354 62 392 80 420 118 _c
448 156 462 207 462 273 _c
462 337 448 389 420 427 _c
392 465 354 484 306 484 _c
306 560 _m
384 560 445 534 490 484 _c
534 433 557 363 557 273 _c
557 183 534 113 490 63 _c
445 12 384 -13 306 -13 _c
227 -13 165 12 121 63 _c
77 113 55 183 55 273 _c
55 363 77 433 121 484 _c
165 534 227 560 306 560 _c
_cl}_d
/p{{635 0 91 -207 580 560 _sc
181 82 _m
181 -207 _l
91 -207 _l
91 547 _l
181 547 _l
181 464 _l
199 496 223 520 252 536 _c
281 552 316 560 356 560 _c
422 560 476 533 518 481 _c
559 428 580 359 580 273 _c
580 187 559 117 518 65 _c
476 13 422 -13 356 -13 _c
316 -13 281 -5 252 10 _c
223 25 199 49 181 82 _c
487 273 _m
487 339 473 390 446 428 _c
418 466 381 485 334 485 _c
}_e{286 485 249 466 222 428 _c
194 390 181 339 181 273 _c
181 207 194 155 222 117 _c
249 79 286 61 334 61 _c
381 61 418 79 446 117 _c
473 155 487 207 487 273 _c
_cl}_e}_d
/r{411 0 91 0 411 560 _sc
411 463 _m
401 469 390 473 378 476 _c
366 478 353 480 339 480 _c
288 480 249 463 222 430 _c
194 397 181 350 181 288 _c
181 0 _l
91 0 _l
91 547 _l
181 547 _l
181 462 _l
199 495 224 520 254 536 _c
284 552 321 560 365 560 _c
371 560 378 559 386 559 _c
393 558 401 557 411 555 _c
411 463 _l
_cl}_d
/s{{521 0 54 -13 472 560 _sc
443 531 _m
443 446 _l
417 458 391 468 364 475 _c
336 481 308 485 279 485 _c
234 485 200 478 178 464 _c
156 450 145 430 145 403 _c
145 382 153 366 169 354 _c
185 342 217 330 265 320 _c
296 313 _l
360 299 405 279 432 255 _c
458 230 472 195 472 151 _c
472 100 452 60 412 31 _c
372 1 316 -13 246 -13 _c
216 -13 186 -10 154 -5 _c
}_e{122 0 89 8 54 20 _c
54 113 _l
87 95 120 82 152 74 _c
184 65 216 61 248 61 _c
290 61 323 68 346 82 _c
368 96 380 117 380 144 _c
380 168 371 187 355 200 _c
339 213 303 226 247 238 _c
216 245 _l
160 257 119 275 95 299 _c
70 323 58 356 58 399 _c
58 450 76 490 112 518 _c
148 546 200 560 268 560 _c
301 560 332 557 362 552 _c
391 547 418 540 443 531 _c
}_e{_cl}_e}_d
/w{818 0 42 0 776 547 _sc
42 547 _m
132 547 _l
244 120 _l
356 547 _l
462 547 _l
574 120 _l
686 547 _l
776 547 _l
633 0 _l
527 0 _l
409 448 _l
291 0 _l
185 0 _l
42 547 _l
_cl}_d
end readonly def

/BuildGlyph
 {exch begin
 CharStrings exch
 2 copy known not{pop /.notdef}if
 true 3 1 roll get exec
 end}_d

/BuildChar {
 1 index /Encoding get exch get
 1 index /BuildGlyph get exec
}_d

FontName currentdict end definefont pop
end
%%EndProlog
mpldict begin
-10.8 172.08 translate
633.6 447.84 0 0 clipbox
gsave
0 0 m
633.6 0 l
633.6 447.84 l
0 447.84 l
cl
1.000 setgray
fill
grestore
gsave
24.19 41.96 m
621.54 41.96 l
621.54 421.68 l
24.19 421.68 l
cl
1.000 setgray
fill
grestore
0.800 setlinewidth
1 setlinejoin
0 setlinecap
[] 0 setdash
0.000 setgray
gsave
/o {
gsave
newpath
translate
0.8 setlinewidth
1 setlinejoin
0 setlinecap
0 0 m
0 -3.5 l

gsave
0.000 setgray
fill
grestore
stroke
grestore
} bind def
51.3423 41.96 o
grestore
/DejaVuSans findfont
10.000 scalefont
setfont
gsave
43.389148 27.366250 translate
0.000000 rotate
0.000000 0.000000 m /zero glyphshow
6.362305 0.000000 m /period glyphshow
9.541016 0.000000 m /zero glyphshow
grestore
gsave
/o {
gsave
newpath
translate
0.8 setlinewidth
1 setlinejoin
0 setlinecap
0 0 m
0 -3.5 l

gsave
0.000 setgray
fill
grestore
stroke
grestore
} bind def
141.85 41.96 o
grestore
gsave
133.896723 27.366250 translate
0.000000 rotate
0.000000 0.000000 m /zero glyphshow
6.362305 0.000000 m /period glyphshow
9.541016 0.000000 m /five glyphshow
grestore
gsave
/o {
gsave
newpath
translate
0.8 setlinewidth
1 setlinejoin
0 setlinecap
0 0 m
0 -3.5 l

gsave
0.000 setgray
fill
grestore
stroke
grestore
} bind def
232.357 41.96 o
grestore
gsave
224.404299 27.366250 translate
0.000000 rotate
0.000000 0.000000 m /one glyphshow
6.362305 0.000000 m /period glyphshow
9.541016 0.000000 m /zero glyphshow
grestore
gsave
/o {
gsave
newpath
translate
0.8 setlinewidth
1 setlinejoin
0 setlinecap
0 0 m
0 -3.5 l

gsave
0.000 setgray
fill
grestore
stroke
grestore
} bind def
322.865 41.96 o
grestore
gsave
314.911875 27.366250 translate
0.000000 rotate
0.000000 0.000000 m /one glyphshow
6.362305 0.000000 m /period glyphshow
9.541016 0.000000 m /five glyphshow
grestore
gsave
/o {
gsave
newpath
translate
0.8 setlinewidth
1 setlinejoin
0 setlinecap
0 0 m
0 -3.5 l

gsave
0.000 setgray
fill
grestore
stroke
grestore
} bind def
413.373 41.96 o
grestore
gsave
405.419451 27.366250 translate
0.000000 rotate
0.000000 0.000000 m /two glyphshow
6.362305 0.000000 m /period glyphshow
9.541016 0.000000 m /zero glyphshow
grestore
gsave
/o {
gsave
newpath
translate
0.8 setlinewidth
1 setlinejoin
0 setlinecap
0 0 m
0 -3.5 l

gsave
0.000 setgray
fill
grestore
stroke
grestore
} bind def
503.88 41.96 o
grestore
gsave
495.927027 27.366250 translate
0.000000 rotate
0.000000 0.000000 m /two glyphshow
6.362305 0.000000 m /period glyphshow
9.541016 0.000000 m /five glyphshow
grestore
gsave
/o {
gsave
newpath
translate
0.8 setlinewidth
1 setlinejoin
0 setlinecap
0 0 m
0 -3.5 l

gsave
0.000 setgray
fill
grestore
stroke
grestore
} bind def
594.388 41.96 o
grestore
gsave
586.434602 27.366250 translate
0.000000 rotate
0.000000 0.000000 m /three glyphshow
6.362305 0.000000 m /period glyphshow
9.541016 0.000000 m /zero glyphshow
grestore
gsave
302.357187 13.694375 translate
0.000000 rotate
0.000000 0.000000 m /T glyphshow
6.108398 0.000000 m /i glyphshow
8.886719 0.000000 m /m glyphshow
18.627930 0.000000 m /e glyphshow
24.780273 0.000000 m /space glyphshow
27.958984 0.000000 m /bracketleft glyphshow
31.860352 0.000000 m /s glyphshow
37.070312 0.000000 m /bracketright glyphshow
grestore
gsave
/o {
gsave
newpath
translate
0.8 setlinewidth
1 setlinejoin
0 setlinecap
0 0 m
-3.5 0 l

gsave
0.000 setgray
fill
grestore
stroke
grestore
} bind def
24.19 52.4646 o
grestore
gsave
10.830625 48.667727 translate
0.000000 rotate
0.000000 0.000000 m /zero glyphshow
grestore
gsave
/o {
gsave
newpath
translate
0.8 setlinewidth
1 setlinejoin
0 setlinecap
0 0 m
-3.5 0 l

gsave
0.000 setgray
fill
grestore
stroke
grestore
} bind def
24.19 106.949 o
grestore
gsave
10.830625 103.152613 translate
0.000000 rotate
0.000000 0.000000 m /one glyphshow
grestore
gsave
/o {
gsave
newpath
translate
0.8 setlinewidth
1 setlinejoin
0 setlinecap
0 0 m
-3.5 0 l

gsave
0.000 setgray
fill
grestore
stroke
grestore
} bind def
24.19 161.434 o
grestore
gsave
10.830625 157.637499 translate
0.000000 rotate
0.000000 0.000000 m /two glyphshow
grestore
gsave
/o {
gsave
newpath
translate
0.8 setlinewidth
1 setlinejoin
0 setlinecap
0 0 m
-3.5 0 l

gsave
0.000 setgray
fill
grestore
stroke
grestore
} bind def
24.19 215.919 o
grestore
gsave
10.830625 212.122385 translate
0.000000 rotate
0.000000 0.000000 m /three glyphshow
grestore
gsave
/o {
gsave
newpath
translate
0.8 setlinewidth
1 setlinejoin
0 setlinecap
0 0 m
-3.5 0 l

gsave
0.000 setgray
fill
grestore
stroke
grestore
} bind def
24.19 270.404 o
grestore
gsave
10.830625 266.607271 translate
0.000000 rotate
0.000000 0.000000 m /four glyphshow
grestore
gsave
/o {
gsave
newpath
translate
0.8 setlinewidth
1 setlinejoin
0 setlinecap
0 0 m
-3.5 0 l

gsave
0.000 setgray
fill
grestore
stroke
grestore
} bind def
24.19 324.889 o
grestore
gsave
10.830625 321.092157 translate
0.000000 rotate
0.000000 0.000000 m /five glyphshow
grestore
gsave
/o {
gsave
newpath
translate
0.8 setlinewidth
1 setlinejoin
0 setlinecap
0 0 m
-3.5 0 l

gsave
0.000 setgray
fill
grestore
stroke
grestore
} bind def
24.19 379.374 o
grestore
gsave
10.830625 375.577043 translate
0.000000 rotate
0.000000 0.000000 m /six glyphshow
grestore
1.500 setlinewidth
2 setlinecap
0.122 0.467 0.706 setrgbcolor
gsave
597.3 379.7 24.19 41.96 clipbox
51.342273 59.22 m
55.867652 92.541614 l
57.677803 104.613474 l
58.582879 109.82134 l
59.487955 115.97812 l
63.108258 136.385187 l
66.728561 155.926023 l
69.443788 169.089057 l
70.348864 171.379724 l
72.159015 179.785135 l
73.969167 187.098572 l
74.874242 191.650254 l
75.779318 195.064378 l
76.684394 198.991457 l
77.58947 203.859511 l
78.494545 207.431554 l
80.304697 215.686432 l
81.209773 219.114868 l
83.019924 224.976358 l
83.925 229.38942 l
85.735152 236.460973 l
86.640227 239.273352 l
87.545303 242.832294 l
88.450379 245.751102 l
90.26053 252.690428 l
91.165606 254.96582 l
92.070682 258.778353 l
93.880833 263.934925 l
94.785909 266.161639 l
96.596061 271.842016 l
97.501136 273.620047 l
98.406212 276.35173 l
100.216364 282.98424 l
101.121439 284.757391 l
102.026515 285.739995 l
102.931591 287.799643 l
103.836667 290.443213 l
104.741742 293.819842 l
106.551894 298.054115 l
107.45697 299.05298 l
108.362045 301.715853 l
109.267121 303.591087 l
110.172197 304.299678 l
111.077273 306.491264 l
113.7925 309.751432 l
114.697576 311.184695 l
115.602652 313.001661 l
116.507727 315.415822 l
117.412803 316.341242 l
118.317879 317.896006 l
119.222955 318.515146 l
120.12803 318.994729 l
121.033106 320.552486 l
121.938182 322.525898 l
122.843258 323.472739 l
123.748333 325.245686 l
124.653409 325.755227 l
125.558485 326.739874 l
126.463561 328.831913 l
127.368636 332.004465 l
128.273712 333.803584 l
129.178788 334.532061 l
130.083864 335.737958 l
130.988939 338.510338 l
131.894015 338.90253 l
132.799091 339.933308 l
133.704167 343.28406 l
134.609242 344.608921 l
135.514318 345.283704 l
136.419394 346.22262 l
137.32447 346.285839 l
138.229545 347.450026 l
139.134621 349.304117 l
140.039697 350.532306 l
141.849848 351.677316 l
142.754924 351.638517 l
143.66 352.225002 l
144.565076 352.958621 l
145.470152 355.033186 l
147.280303 356.840313 l
149.090455 359.31225 l
149.99553 362.165849 l
150.900606 361.769266 l
151.805682 362.419459 l
152.710758 362.232627 l
154.520909 365.044516 l
155.425985 365.880214 l
156.331061 367.161438 l
157.236136 367.867253 l
158.141212 367.677655 l
159.046288 367.985625 l
159.951364 367.814982 l
160.856439 368.476458 l
161.761515 369.570205 l
162.666591 370.070154 l
163.571667 367.917353 l
164.476742 368.785172 l
165.381818 368.881785 l
167.19197 370.509668 l
168.097045 372.820434 l
169.002121 374.162978 l
169.907197 373.932299 l
170.812273 374.378118 l
171.717348 374.145299 l
172.622424 373.736443 l
173.5275 375.019254 l
174.432576 374.983045 l
175.337652 375.390112 l
176.242727 376.894104 l
177.147803 377.015927 l
178.052879 379.026255 l
178.957955 378.251942 l
179.86303 379.29875 l
180.768106 380.955502 l
181.673182 380.143795 l
182.578258 380.639762 l
183.483333 380.902238 l
184.388409 381.595245 l
185.293485 381.062433 l
186.198561 380.198542 l
187.103636 380.146481 l
188.008712 379.70382 l
188.913788 379.097321 l
189.818864 379.262834 l
190.723939 378.715322 l
191.629015 378.864498 l
192.534091 380.967672 l
193.439167 381.51861 l
194.344242 382.758926 l
195.249318 381.11824 l
196.154394 380.816837 l
197.05947 382.411293 l
197.964545 382.563347 l
198.869621 381.793579 l
199.774697 381.268089 l
200.679773 381.993956 l
201.584848 383.903819 l
202.489924 384.545672 l
203.395 383.939968 l
204.300076 384.05038 l
205.205152 382.843763 l
206.110227 383.056141 l
207.015303 383.034198 l
207.920379 382.165936 l
209.73053 385.901396 l
210.635606 384.054054 l
211.540682 384.301569 l
212.445758 382.127693 l
213.350833 382.238809 l
214.255909 381.855815 l
215.160985 384.005802 l
216.066061 383.808508 l
216.971136 384.84164 l
217.876212 386.755621 l
218.781288 388.968577 l
219.686364 389.419858 l
220.591439 389.66109 l
221.496515 389.5913 l
222.401591 390.857135 l
223.306667 391.842669 l
225.116818 391.737344 l
226.021894 391.793642 l
226.92697 393.124336 l
227.832045 392.937059 l
228.737121 393.031151 l
229.642197 393.89539 l
232.357424 395.169062 l
233.2625 393.793595 l
234.167576 392.134105 l
235.072652 392.401018 l
235.977727 392.024984 l
236.882803 391.301052 l
237.787879 391.284406 l
238.692955 391.477269 l
239.59803 393.0316 l
240.503106 392.800543 l
241.408182 394.279021 l
242.313258 394.841108 l
243.218333 392.722183 l
244.123409 393.722482 l
245.028485 392.97054 l
245.933561 391.408331 l
246.838636 391.720977 l
248.648788 393.324927 l
249.553864 394.148857 l
250.458939 393.828934 l
252.269091 392.622826 l
253.174167 393.092957 l
254.079242 393.030235 l
254.984318 393.457793 l
255.889394 393.548119 l
256.79447 394.128484 l
257.699545 395.006075 l
258.604621 396.776751 l
260.414773 393.094298 l
262.224924 395.226799 l
263.13 394.536668 l
264.035076 394.579752 l
264.940152 394.044331 l
265.845227 393.728292 l
267.655379 396.16534 l
268.560455 396.162149 l
269.46553 395.163244 l
270.370606 395.557996 l
271.275682 395.660921 l
272.180758 397.505658 l
273.085833 397.192343 l
273.990909 395.306877 l
274.895985 395.946342 l
275.801061 395.537689 l
276.706136 396.253646 l
277.611212 396.279463 l
278.516288 396.557338 l
279.421364 397.178225 l
280.326439 397.487728 l
281.231515 396.555598 l
282.136591 396.882035 l
283.041667 396.80159 l
283.946742 396.047407 l
284.851818 395.03382 l
285.756894 395.8683 l
286.66197 394.030525 l
287.567045 392.790999 l
288.472121 392.811461 l
289.377197 394.098328 l
290.282273 394.768879 l
291.187348 394.199168 l
292.092424 394.001104 l
292.9975 394.8919 l
293.902576 395.616798 l
294.807652 394.999926 l
295.712727 395.800365 l
296.617803 396.812342 l
297.522879 397.261676 l
298.427955 397.510219 l
299.33303 397.903978 l
300.238106 397.912334 l
301.143182 396.918775 l
302.048258 398.352859 l
302.953333 397.325384 l
303.858409 397.481424 l
304.763485 399.118175 l
305.668561 399.780066 l
306.573636 399.996007 l
307.478712 399.309647 l
308.383788 399.472155 l
309.288864 399.776865 l
310.193939 398.494313 l
311.099015 399.857928 l
312.004091 398.828633 l
312.909167 399.02597 l
313.814242 399.41596 l
314.719318 401.081211 l
316.52947 401.306305 l
317.434545 398.497423 l
318.339621 398.597738 l
320.149773 398.021809 l
321.054848 398.589178 l
321.959924 398.936351 l
322.865 399.930611 l
323.770076 400.647807 l
324.675152 400.200452 l
325.580227 399.23258 l
326.485303 399.109277 l
327.390379 400.384487 l
328.295455 401.379128 l
329.20053 400.894595 l
330.105606 401.011825 l
331.010682 401.423242 l
331.915758 400.742601 l
332.820833 401.929023 l
333.725909 400.881922 l
334.630985 400.568678 l
335.536061 399.998652 l
336.441136 398.612647 l
337.346212 397.681891 l
338.251288 399.218484 l
339.156364 399.704077 l
340.061439 399.042166 l
340.966515 399.08605 l
341.871591 400.822726 l
342.776667 400.984099 l
343.681742 399.009939 l
344.586818 398.545526 l
345.491894 398.584707 l
346.39697 398.455246 l
347.302045 398.024779 l
348.207121 396.822137 l
349.112197 396.431527 l
350.017273 395.777414 l
350.922348 397.618044 l
351.827424 398.641396 l
352.7325 399.074198 l
353.637576 397.035037 l
354.542652 396.624925 l
355.447727 395.740634 l
356.352803 395.589574 l
357.257879 396.17144 l
358.162955 396.359671 l
359.06803 397.361922 l
359.973106 399.472103 l
360.878182 400.598737 l
361.783258 400.639923 l
362.688333 402.034039 l
363.593409 403.058237 l
364.498485 403.284975 l
365.403561 402.656787 l
366.308636 402.907354 l
367.213712 401.872125 l
368.118788 401.809089 l
369.023864 402.065704 l
369.928939 402.191771 l
370.834015 403.486566 l
371.739091 404.165179 l
372.644167 402.293836 l
373.549242 401.32662 l
374.454318 402.047684 l
375.359394 402.007035 l
376.26447 401.798811 l
377.169545 401.818141 l
378.074621 400.670779 l
378.979697 398.759174 l
379.884773 399.787815 l
380.789848 400.520242 l
383.505076 398.931617 l
384.410152 399.835675 l
385.315227 398.360243 l
386.220303 399.692833 l
387.125379 399.739005 l
388.030455 399.380368 l
388.93553 398.883181 l
389.840606 399.52704 l
390.745682 398.737437 l
392.555833 399.127535 l
393.460909 398.959377 l
394.365985 400.086718 l
395.271061 399.740807 l
396.176136 398.829404 l
397.986288 399.354363 l
398.891364 398.872266 l
399.796439 398.656956 l
400.701515 397.860265 l
401.606591 399.191222 l
402.511667 398.719626 l
403.416742 397.628094 l
404.321818 397.040334 l
405.226894 396.163466 l
406.13197 394.599502 l
407.037045 394.950702 l
407.942121 395.607146 l
408.847197 393.719699 l
409.752273 393.730451 l
410.657348 393.047904 l
412.4675 393.572989 l
413.372576 393.981641 l
415.182727 391.193634 l
416.087803 390.962596 l
416.992879 390.27112 l
417.897955 390.514969 l
418.80303 391.053593 l
419.708106 390.339883 l
420.613182 388.7969 l
421.518258 389.33114 l
422.423333 391.022404 l
423.328409 391.469755 l
424.233485 392.11763 l
425.138561 392.045524 l
426.948712 389.966745 l
428.758864 392.143163 l
429.663939 392.736858 l
430.569015 392.285264 l
431.474091 392.168166 l
432.379167 392.571945 l
433.284242 393.294219 l
434.189318 394.266908 l
435.094394 394.615141 l
435.99947 397.066305 l
436.904545 398.525983 l
437.809621 399.328628 l
438.714697 398.554005 l
439.619773 397.607223 l
440.524848 399.015751 l
441.429924 399.991855 l
442.335 399.97614 l
443.240076 399.331214 l
444.145152 400.658205 l
445.050227 399.933326 l
445.955303 400.146924 l
448.67053 398.645647 l
450.480682 400.101986 l
451.385758 400.10198 l
452.290833 398.234803 l
453.195909 397.942708 l
455.006061 395.38327 l
455.911136 395.758679 l
456.816212 397.457167 l
457.721288 396.964259 l
458.626364 395.462684 l
459.531439 395.191644 l
460.436515 394.606281 l
461.341591 394.715587 l
462.246667 394.347448 l
463.151742 394.845978 l
464.056818 393.441275 l
464.961894 394.081952 l
465.86697 395.469443 l
466.772045 394.586321 l
467.677121 395.077124 l
469.487273 394.607547 l
470.392348 395.448583 l
471.297424 395.812026 l
472.2025 396.584907 l
473.107576 396.869379 l
474.917727 398.246687 l
475.822803 398.222689 l
476.727879 398.601777 l
477.632955 397.692136 l
478.53803 399.003532 l
479.443106 399.480912 l
480.348182 397.823373 l
481.253258 398.855793 l
482.158333 398.87225 l
483.063409 398.006187 l
483.968485 396.216527 l
484.873561 398.890234 l
485.778636 399.634268 l
486.683712 399.267972 l
487.588788 400.751311 l
488.493864 399.760063 l
489.398939 397.405765 l
490.304015 397.240668 l
491.209091 395.566364 l
492.114167 394.703008 l
493.019242 394.491652 l
493.924318 395.334758 l
494.829394 392.878936 l
495.73447 393.409267 l
496.639545 393.334668 l
497.544621 393.811704 l
498.449697 392.873528 l
499.354773 393.235111 l
500.259848 394.856115 l
501.164924 394.104723 l
502.07 394.023427 l
502.975076 392.691181 l
503.880152 392.70045 l
504.785227 391.627507 l
505.690303 393.153145 l
506.595379 395.196386 l
507.500455 394.535838 l
508.40553 395.423177 l
509.310606 395.84554 l
510.215682 396.466895 l
511.120758 396.232541 l
512.025833 396.216967 l
512.930909 396.341104 l
513.835985 396.2128 l
514.741061 395.752992 l
516.551212 396.361517 l
517.456288 395.565602 l
518.361364 395.340635 l
519.266439 394.473738 l
520.171515 395.091484 l
521.076591 393.909403 l
521.981667 395.003049 l
522.886742 395.826616 l
523.791818 394.906538 l
524.696894 396.212763 l
525.60197 397.726586 l
526.507045 396.520784 l
527.412121 397.139635 l
529.222273 397.034301 l
530.127348 398.50217 l
531.032424 397.824709 l
531.9375 397.816895 l
532.842576 397.258658 l
533.747652 397.707739 l
534.652727 398.290178 l
535.557803 399.074446 l
536.462879 397.884651 l
537.367955 397.332942 l
538.27303 398.868289 l
539.178106 398.275939 l
540.083182 398.017572 l
540.988258 397.192573 l
542.798409 396.282953 l
543.703485 396.424807 l
544.608561 395.844902 l
545.513636 394.535014 l
546.418712 395.270728 l
547.323788 395.803723 l
548.228864 396.941114 l
550.039015 395.19197 l
550.944091 394.349472 l
551.849167 395.210315 l
552.754242 395.124502 l
553.659318 396.139218 l
554.564394 396.589885 l
555.46947 396.626631 l
556.374545 396.951877 l
558.184697 396.389007 l
559.089773 394.712173 l
560.899924 394.017889 l
561.805 393.988396 l
562.710076 394.243975 l
563.615152 393.279892 l
564.520227 393.879726 l
565.425303 394.094697 l
566.330379 394.75054 l
567.235455 394.935142 l
568.14053 396.242597 l
569.045606 394.956601 l
569.950682 394.917938 l
570.855758 396.050775 l
571.760833 395.44944 l
572.665909 396.985929 l
573.570985 395.920304 l
574.476061 395.203481 l
575.381136 396.102871 l
576.286212 396.134794 l
577.191288 395.347001 l
578.096364 395.961738 l
579.906515 396.012545 l
580.811591 395.510889 l
581.716667 395.481588 l
583.526818 397.195348 l
584.431894 397.255177 l
585.33697 399.212719 l
586.242045 399.033132 l
587.147121 399.661012 l
588.052197 399.484344 l
588.957273 400.027598 l
589.862348 402.50231 l
590.767424 402.844571 l
591.6725 404.42 l
592.577576 404.136933 l
593.482652 404.236724 l
594.387727 402.250393 l
594.387727 402.250393 l
stroke
grestore
1.000 0.498 0.055 setrgbcolor
gsave
597.3 379.7 24.19 41.96 clipbox
51.342273 59.283593 m
52.247348 66.076828 l
53.152424 72.311252 l
58.582879 109.77568 l
63.108258 137.336475 l
64.918409 148.597086 l
65.823485 152.651942 l
68.538712 168.168155 l
70.348864 176.238157 l
73.064091 188.538505 l
75.779318 200.223412 l
76.684394 204.813399 l
77.58947 207.739869 l
80.304697 219.663977 l
81.209773 222.258426 l
83.019924 229.22347 l
83.925 231.926044 l
84.830076 235.684381 l
85.735152 238.815661 l
86.640227 242.597688 l
88.450379 248.949791 l
89.355455 251.0668 l
91.165606 256.662049 l
92.070682 258.221728 l
94.785909 266.032992 l
95.690985 269.498928 l
96.596061 271.907189 l
97.501136 274.76251 l
98.406212 276.738931 l
99.311288 277.991447 l
100.216364 280.811741 l
101.121439 282.387405 l
102.026515 285.70959 l
102.931591 287.520905 l
103.836667 290.900391 l
105.646818 295.950509 l
107.45697 299.648981 l
108.362045 302.392029 l
109.267121 303.545712 l
110.172197 303.191428 l
111.077273 306.040752 l
111.982348 308.215838 l
112.887424 311.281895 l
113.7925 312.258144 l
114.697576 313.769977 l
117.412803 319.954197 l
118.317879 319.425457 l
119.222955 320.377723 l
120.12803 323.234132 l
121.938182 325.169572 l
122.843258 325.176729 l
124.653409 327.55558 l
125.558485 326.68234 l
127.368636 330.13761 l
128.273712 330.465578 l
129.178788 330.667223 l
130.083864 331.537779 l
131.894015 335.813321 l
132.799091 336.347418 l
133.704167 336.706638 l
134.609242 338.625805 l
136.419394 339.787342 l
138.229545 343.53987 l
139.134621 343.94526 l
140.039697 345.114863 l
140.944773 346.000275 l
141.849848 347.113389 l
142.754924 348.440611 l
143.66 349.065848 l
144.565076 350.910472 l
146.375227 353.799363 l
148.185379 354.475993 l
149.090455 356.203029 l
150.900606 361.61888 l
151.805682 361.925163 l
152.710758 363.335314 l
153.615833 364.111252 l
154.520909 364.630985 l
155.425985 367.628412 l
156.331061 367.390314 l
157.236136 367.846572 l
158.141212 367.156423 l
159.046288 368.150825 l
159.951364 366.491628 l
160.856439 367.386996 l
161.761515 367.244858 l
162.666591 367.453042 l
163.571667 365.832065 l
164.476742 365.990018 l
165.381818 365.579097 l
166.286894 365.904547 l
167.19197 366.481587 l
168.097045 366.440958 l
169.002121 367.149569 l
169.907197 365.87234 l
170.812273 366.17506 l
171.717348 366.760465 l
172.622424 366.728822 l
173.5275 364.9692 l
174.432576 366.274701 l
178.052879 369.644277 l
178.957955 368.748436 l
179.86303 368.816158 l
181.673182 370.603893 l
182.578258 370.480986 l
183.483333 370.153989 l
184.388409 371.164593 l
185.293485 372.352074 l
186.198561 374.593841 l
187.103636 376.500554 l
188.008712 376.340848 l
188.913788 375.846544 l
189.818864 375.864296 l
190.723939 375.676764 l
191.629015 374.838858 l
192.534091 375.259238 l
193.439167 375.96217 l
194.344242 377.069652 l
195.249318 377.775884 l
196.154394 377.606203 l
197.05947 376.90641 l
197.964545 379.183134 l
198.869621 379.670373 l
199.774697 380.017883 l
200.679773 382.242017 l
201.584848 382.101427 l
204.300076 380.774301 l
205.205152 381.786119 l
206.110227 380.815993 l
207.920379 384.128839 l
208.825455 384.281358 l
209.73053 385.126987 l
210.635606 384.664954 l
212.445758 386.021518 l
213.350833 384.990907 l
214.255909 384.963113 l
215.160985 385.910234 l
216.066061 385.61366 l
216.971136 384.888665 l
217.876212 385.32681 l
218.781288 384.772532 l
219.686364 386.080818 l
221.496515 382.612097 l
222.401591 382.849354 l
223.306667 383.410751 l
224.211742 383.522245 l
226.021894 384.41204 l
226.92697 384.671688 l
227.832045 385.894772 l
228.737121 385.251952 l
229.642197 385.87637 l
230.547273 387.003091 l
231.452348 386.269037 l
232.357424 387.966726 l
233.2625 387.861176 l
234.167576 387.916222 l
235.072652 388.99739 l
235.977727 387.924641 l
236.882803 388.263334 l
237.787879 389.138534 l
238.692955 389.60112 l
239.59803 389.784703 l
240.503106 389.78671 l
241.408182 391.181043 l
242.313258 390.467334 l
243.218333 388.889513 l
244.123409 390.341623 l
245.028485 390.274541 l
246.838636 391.916976 l
247.743712 392.087288 l
248.648788 392.097677 l
249.553864 391.174887 l
250.458939 392.969991 l
251.364015 394.434139 l
252.269091 394.410776 l
253.174167 395.534256 l
254.079242 394.378811 l
254.984318 395.119692 l
255.889394 394.92766 l
256.79447 394.433143 l
257.699545 394.097184 l
258.604621 394.651175 l
259.509697 395.394405 l
260.414773 397.141977 l
261.319848 395.110832 l
262.224924 394.582814 l
263.13 392.953227 l
264.035076 392.010911 l
264.940152 395.5903 l
265.845227 394.870149 l
266.750303 394.394942 l
267.655379 393.012258 l
269.46553 393.838223 l
270.370606 392.050985 l
271.275682 392.624715 l
272.180758 392.540109 l
273.085833 391.895461 l
273.990909 390.520541 l
274.895985 391.204948 l
275.801061 392.858585 l
276.706136 392.895212 l
277.611212 393.590554 l
279.421364 392.968523 l
280.326439 393.02805 l
281.231515 394.478112 l
282.136591 394.909645 l
283.041667 394.813473 l
284.851818 394.118607 l
285.756894 392.815904 l
286.66197 392.575958 l
287.567045 391.902118 l
288.472121 393.067944 l
289.377197 391.051483 l
290.282273 390.323727 l
291.187348 390.82389 l
292.092424 390.451512 l
292.9975 391.533769 l
293.902576 391.57624 l
294.807652 390.754303 l
295.712727 392.168617 l
296.617803 391.809202 l
297.522879 392.778496 l
298.427955 393.319289 l
299.33303 392.49457 l
300.238106 391.472932 l
301.143182 391.795823 l
302.048258 391.551144 l
302.953333 392.536646 l
303.858409 394.347381 l
304.763485 394.266772 l
305.668561 392.877419 l
306.573636 392.935823 l
307.478712 391.82965 l
308.383788 391.460234 l
309.288864 391.252876 l
310.193939 392.12583 l
311.099015 391.820825 l
312.004091 390.898325 l
312.909167 391.008949 l
313.814242 393.223062 l
314.719318 394.116386 l
315.624394 394.343111 l
316.52947 396.285577 l
317.434545 397.349368 l
318.339621 399.006568 l
319.244697 398.73442 l
320.149773 398.705454 l
321.054848 398.883098 l
321.959924 400.42305 l
322.865 400.814495 l
323.770076 401.764808 l
324.675152 401.925089 l
326.485303 400.841082 l
327.390379 399.432251 l
328.295455 399.963856 l
330.105606 398.668681 l
331.915758 400.467295 l
332.820833 398.783568 l
333.725909 398.117195 l
334.630985 397.981287 l
335.536061 399.590464 l
336.441136 398.519339 l
337.346212 395.838933 l
338.251288 395.195552 l
339.156364 395.519036 l
340.061439 395.130398 l
340.966515 393.767389 l
341.871591 394.594437 l
342.776667 394.304583 l
343.681742 393.321036 l
344.586818 391.931681 l
345.491894 391.583296 l
346.39697 390.49557 l
347.302045 390.128753 l
348.207121 390.888807 l
350.017273 391.184263 l
350.922348 392.518872 l
351.827424 394.302097 l
352.7325 391.584377 l
353.637576 392.666633 l
354.542652 391.387373 l
355.447727 391.370918 l
356.352803 390.394389 l
357.257879 390.429212 l
359.06803 391.300459 l
359.973106 392.483333 l
360.878182 391.962183 l
361.783258 392.097651 l
362.688333 391.501347 l
363.593409 392.082404 l
364.498485 394.667645 l
365.403561 395.536933 l
366.308636 394.23445 l
367.213712 393.539546 l
369.023864 394.069363 l
369.928939 395.31576 l
370.834015 394.736224 l
371.739091 396.415086 l
372.644167 397.197609 l
373.549242 399.651921 l
374.454318 399.510537 l
375.359394 399.85701 l
376.26447 400.352758 l
377.169545 399.927381 l
378.074621 398.101212 l
378.979697 398.161509 l
379.884773 396.410911 l
380.789848 396.158695 l
381.694924 396.051771 l
382.6 394.000933 l
383.505076 393.376527 l
384.410152 392.959039 l
385.315227 393.653097 l
386.220303 393.439772 l
387.125379 394.152479 l
388.030455 395.286289 l
388.93553 395.89169 l
389.840606 396.257476 l
390.745682 395.094593 l
391.650758 394.385209 l
392.555833 394.244746 l
393.460909 392.56451 l
394.365985 391.563701 l
395.271061 393.358622 l
396.176136 393.778684 l
397.081212 394.681367 l
397.986288 394.995485 l
399.796439 396.332464 l
400.701515 397.313573 l
401.606591 396.280189 l
402.511667 396.970712 l
403.416742 396.544034 l
404.321818 397.504342 l
405.226894 396.536115 l
406.13197 394.785996 l
407.037045 395.273246 l
408.847197 394.529915 l
410.657348 394.739855 l
411.562424 395.218673 l
412.4675 395.346039 l
413.372576 393.91044 l
414.277652 395.443174 l
415.182727 395.496211 l
416.087803 397.821749 l
417.897955 396.747629 l
418.80303 395.152178 l
419.708106 394.747259 l
420.613182 393.516351 l
421.518258 393.051534 l
422.423333 392.093185 l
423.328409 390.730178 l
424.233485 389.86313 l
425.138561 389.690778 l
426.043636 390.380656 l
426.948712 390.899705 l
427.853788 390.72478 l
428.758864 390.746818 l
429.663939 390.45051 l
430.569015 389.859525 l
431.474091 389.698925 l
432.379167 391.402021 l
433.284242 391.006691 l
434.189318 390.392157 l
435.094394 388.889558 l
435.99947 390.579311 l
436.904545 390.456222 l
437.809621 388.109523 l
438.714697 387.517718 l
439.619773 387.074054 l
440.524848 386.175061 l
441.429924 387.661948 l
442.335 387.127352 l
443.240076 385.870097 l
444.145152 385.815324 l
445.050227 388.646581 l
445.955303 388.720275 l
446.860379 389.011718 l
447.765455 389.758137 l
448.67053 390.190409 l
449.575606 388.870865 l
450.480682 391.545383 l
451.385758 391.610056 l
453.195909 392.412036 l
454.100985 392.449359 l
455.006061 392.740765 l
455.911136 393.198302 l
456.816212 395.09987 l
457.721288 395.453164 l
458.626364 395.124791 l
459.531439 394.417132 l
460.436515 394.04823 l
461.341591 393.132066 l
462.246667 392.587813 l
464.056818 392.647047 l
464.961894 392.700806 l
465.86697 391.791301 l
466.772045 391.394977 l
467.677121 392.543491 l
468.582197 392.749132 l
469.487273 391.797936 l
470.392348 392.168706 l
471.297424 391.874655 l
472.2025 391.995411 l
473.107576 391.23353 l
474.012652 391.539407 l
474.917727 390.547446 l
475.822803 390.133342 l
476.727879 390.007832 l
477.632955 391.418154 l
478.53803 392.302098 l
479.443106 392.160682 l
480.348182 390.747979 l
481.253258 390.836544 l
482.158333 390.504246 l
483.063409 389.860435 l
484.873561 389.93523 l
485.778636 390.04647 l
486.683712 389.991347 l
487.588788 391.331403 l
488.493864 391.890863 l
489.398939 392.937876 l
490.304015 394.263275 l
491.209091 394.983582 l
492.114167 395.109187 l
493.019242 395.922412 l
493.924318 395.855486 l
494.829394 398.059976 l
495.73447 398.322686 l
496.639545 398.034119 l
497.544621 400.304807 l
498.449697 402.251014 l
499.354773 402.43066 l
500.259848 403.66459 l
501.164924 403.348281 l
502.975076 401.929424 l
503.880152 402.227045 l
504.785227 401.503359 l
505.690303 402.923292 l
506.595379 401.923764 l
507.500455 402.003715 l
508.40553 401.200621 l
509.310606 399.500496 l
510.215682 399.501285 l
511.120758 398.515824 l
512.025833 397.997659 l
512.930909 399.06571 l
514.741061 399.910381 l
515.646136 400.682183 l
516.551212 401.835332 l
517.456288 402.768024 l
518.361364 402.87959 l
519.266439 402.505059 l
521.076591 400.235804 l
521.981667 399.056818 l
522.886742 399.019676 l
523.791818 399.396385 l
524.696894 399.267232 l
525.60197 399.788652 l
526.507045 400.614648 l
527.412121 400.570175 l
528.317197 399.89575 l
529.222273 401.532396 l
530.127348 400.686594 l
531.032424 400.037052 l
531.9375 400.283972 l
532.842576 400.920103 l
533.747652 399.110704 l
534.652727 399.35787 l
535.557803 398.90349 l
536.462879 399.67187 l
537.367955 398.982866 l
538.27303 397.910392 l
539.178106 397.570537 l
540.083182 398.262471 l
540.988258 396.653649 l
541.893333 397.791752 l
542.798409 396.56522 l
543.703485 396.730388 l
544.608561 397.177599 l
545.513636 395.762695 l
546.418712 396.307174 l
547.323788 395.659072 l
548.228864 395.1669 l
549.133939 395.070036 l
550.039015 393.656302 l
551.849167 394.161201 l
553.659318 392.28834 l
554.564394 393.560906 l
556.374545 393.057079 l
557.279621 393.674805 l
558.184697 393.218198 l
559.994848 391.901723 l
560.899924 392.479611 l
561.805 393.287274 l
562.710076 395.077745 l
563.615152 394.887467 l
564.520227 395.422245 l
565.425303 396.321187 l
566.330379 395.982031 l
567.235455 396.364182 l
568.14053 398.323494 l
569.045606 397.177373 l
569.950682 395.75996 l
571.760833 397.1185 l
573.570985 396.987044 l
574.476061 397.076589 l
575.381136 396.55924 l
576.286212 397.985682 l
577.191288 397.287566 l
578.096364 398.021677 l
579.001439 397.626811 l
579.906515 396.60448 l
580.811591 396.310726 l
581.716667 395.319407 l
583.526818 395.318021 l
584.431894 395.988358 l
585.33697 395.779686 l
586.242045 393.399653 l
587.147121 393.32066 l
588.052197 393.016141 l
588.957273 393.714492 l
589.862348 392.074105 l
590.767424 392.997997 l
591.6725 393.283041 l
592.577576 394.180406 l
593.482652 395.852096 l
594.387727 396.990094 l
594.387727 396.990094 l
stroke
grestore
0.800 setlinewidth
0 setlinejoin
[] 0 setdash
0.000 setgray
gsave
24.19 41.96 m
24.19 421.68 l
stroke
grestore
gsave
621.54 41.96 m
621.54 421.68 l
stroke
grestore
gsave
24.19 41.96 m
621.54 41.96 l
stroke
grestore
gsave
24.19 421.68 m
621.54 421.68 l
stroke
grestore
/DejaVuSans findfont
12.000 scalefont
setfont
gsave
280.513437 427.680000 translate
0.000000 rotate
0.000000 0.000000 m /S glyphshow
7.617188 0.000000 m /l glyphshow
10.951172 0.000000 m /o glyphshow
18.292969 0.000000 m /w glyphshow
28.107422 0.000000 m /space glyphshow
31.921875 0.000000 m /V glyphshow
40.130859 0.000000 m /a glyphshow
47.484375 0.000000 m /r glyphshow
52.417969 0.000000 m /i glyphshow
55.751953 0.000000 m /a glyphshow
63.105469 0.000000 m /n glyphshow
70.710938 0.000000 m /c glyphshow
77.308594 0.000000 m /e glyphshow
grestore
1.000 setlinewidth
0 setlinecap
0.800 setgray
gsave
31.19 384.33625 m
160.611875 384.33625 l
161.945208 384.33625 162.611875 385.002917 162.611875 386.33625 c
162.611875 414.68 l
162.611875 416.013333 161.945208 416.68 160.611875 416.68 c
31.19 416.68 l
29.856667 416.68 29.19 416.013333 29.19 414.68 c
29.19 386.33625 l
29.19 385.002917 29.856667 384.33625 31.19 384.33625 c
cl
gsave
1.000 setgray
fill
grestore
stroke
grestore
1.500 setlinewidth
1 setlinejoin
2 setlinecap
[] 0 setdash
0.122 0.467 0.706 setrgbcolor
gsave
33.19 408.58625 m
53.19 408.58625 l
stroke
grestore
0.000 setgray
/DejaVuSans findfont
10.000 scalefont
setfont
gsave
61.190000 405.086250 translate
0.000000 rotate
0.000000 0.000000 m /m glyphshow
9.741211 0.000000 m /i glyphshow
12.519531 0.000000 m /c glyphshow
18.017578 0.000000 m /r glyphshow
22.128906 0.000000 m /o glyphshow
28.247070 0.000000 m /s glyphshow
33.457031 0.000000 m /c glyphshow
38.955078 0.000000 m /o glyphshow
45.073242 0.000000 m /p glyphshow
51.420898 0.000000 m /i glyphshow
54.199219 0.000000 m /c glyphshow
59.697266 0.000000 m /space glyphshow
62.875977 0.000000 m /m glyphshow
72.617188 0.000000 m /o glyphshow
78.735352 0.000000 m /d glyphshow
85.083008 0.000000 m /e glyphshow
91.235352 0.000000 m /l glyphshow
grestore
1.000 0.498 0.055 setrgbcolor
gsave
33.19 393.914375 m
53.19 393.914375 l
stroke
grestore
0.000 setgray
gsave
61.190000 390.414375 translate
0.000000 rotate
0.000000 0.000000 m /m glyphshow
9.741211 0.000000 m /a glyphshow
15.869141 0.000000 m /c glyphshow
21.367188 0.000000 m /r glyphshow
25.478516 0.000000 m /o glyphshow
31.596680 0.000000 m /s glyphshow
36.806641 0.000000 m /c glyphshow
42.304688 0.000000 m /o glyphshow
48.422852 0.000000 m /p glyphshow
54.770508 0.000000 m /i glyphshow
57.548828 0.000000 m /c glyphshow
63.046875 0.000000 m /space glyphshow
66.225586 0.000000 m /m glyphshow
75.966797 0.000000 m /o glyphshow
82.084961 0.000000 m /d glyphshow
88.432617 0.000000 m /e glyphshow
94.584961 0.000000 m /l glyphshow
grestore

end
showpage
