%!PS-Adobe-3.0 EPSF-3.0
%%Title: /Users/hannesvdc/thesis-wit/Source/Python/Samples/bimodal/plots/varianceeps01A0.eps
%%Creator: matplotlib version 2.0.2, http://matplotlib.org/
%%CreationDate: Mon Apr  2 14:29:52 2018
%%Orientation: portrait
%%BoundingBox: 0 170 611 621
%%EndComments
%%BeginProlog
/mpldict 8 dict def
mpldict begin
/m { moveto } bind def
/l { lineto } bind def
/r { rlineto } bind def
/c { curveto } bind def
/cl { closepath } bind def
/box {
m
1 index 0 r
0 exch r
neg 0 r
cl
} bind def
/clipbox {
box
clip
newpath
} bind def
%!PS-Adobe-3.0 Resource-Font
%%Title: DejaVu Sans
%%Copyright: Copyright (c) 2003 by Bitstream, Inc. All Rights Reserved. Copyright (c) 2006 by Tavmjong Bah. All Rights Reserved. DejaVu changes are in public domain 
%%Creator: Converted from TrueType to type 3 by PPR
25 dict begin
/_d{bind def}bind def
/_m{moveto}_d
/_l{lineto}_d
/_cl{closepath eofill}_d
/_c{curveto}_d
/_sc{7 -1 roll{setcachedevice}{pop pop pop pop pop pop}ifelse}_d
/_e{exec}_d
/FontName /DejaVuSans def
/PaintType 0 def
/FontMatrix[.001 0 0 .001 0 0]def
/FontBBox[-1021 -463 1793 1232]def
/FontType 3 def
/Encoding [ /space /period /zero /one /two /three /four /five /six /seven /eight /nine /F /S /T /V /bracketleft /bracketright /a /c /d /e /i /l /m /n /o /p /r /s /t /w ] def
/FontInfo 10 dict dup begin
/FamilyName (DejaVu Sans) def
/FullName (DejaVu Sans) def
/Notice (Copyright (c) 2003 by Bitstream, Inc. All Rights Reserved. Copyright (c) 2006 by Tavmjong Bah. All Rights Reserved. DejaVu changes are in public domain ) def
/Weight (Book) def
/Version (Version 2.35) def
/ItalicAngle 0.0 def
/isFixedPitch false def
/UnderlinePosition -130 def
/UnderlineThickness 90 def
end readonly def
/CharStrings 32 dict dup begin
/space{318 0 0 0 0 0 _sc
}_d
/period{318 0 107 0 210 124 _sc
107 124 _m
210 124 _l
210 0 _l
107 0 _l
107 124 _l
_cl}_d
/zero{636 0 66 -13 570 742 _sc
318 664 _m
267 664 229 639 203 589 _c
177 539 165 464 165 364 _c
165 264 177 189 203 139 _c
229 89 267 64 318 64 _c
369 64 407 89 433 139 _c
458 189 471 264 471 364 _c
471 464 458 539 433 589 _c
407 639 369 664 318 664 _c
318 742 _m
399 742 461 709 505 645 _c
548 580 570 486 570 364 _c
570 241 548 147 505 83 _c
461 19 399 -13 318 -13 _c
236 -13 173 19 130 83 _c
87 147 66 241 66 364 _c
66 486 87 580 130 645 _c
173 709 236 742 318 742 _c
_cl}_d
/one{636 0 110 0 544 729 _sc
124 83 _m
285 83 _l
285 639 _l
110 604 _l
110 694 _l
284 729 _l
383 729 _l
383 83 _l
544 83 _l
544 0 _l
124 0 _l
124 83 _l
_cl}_d
/two{{636 0 73 0 536 742 _sc
192 83 _m
536 83 _l
536 0 _l
73 0 _l
73 83 _l
110 121 161 173 226 239 _c
290 304 331 346 348 365 _c
380 400 402 430 414 455 _c
426 479 433 504 433 528 _c
433 566 419 598 392 622 _c
365 646 330 659 286 659 _c
255 659 222 653 188 643 _c
154 632 117 616 78 594 _c
78 694 _l
118 710 155 722 189 730 _c
223 738 255 742 284 742 _c
}_e{359 742 419 723 464 685 _c
509 647 532 597 532 534 _c
532 504 526 475 515 449 _c
504 422 484 390 454 354 _c
446 344 420 317 376 272 _c
332 227 271 164 192 83 _c
_cl}_e}_d
/three{{636 0 76 -13 556 742 _sc
406 393 _m
453 383 490 362 516 330 _c
542 298 556 258 556 212 _c
556 140 531 84 482 45 _c
432 6 362 -13 271 -13 _c
240 -13 208 -10 176 -4 _c
144 1 110 10 76 22 _c
76 117 _l
103 101 133 89 166 81 _c
198 73 232 69 268 69 _c
330 69 377 81 409 105 _c
441 129 458 165 458 212 _c
458 254 443 288 413 312 _c
383 336 341 349 287 349 _c
}_e{202 349 _l
202 430 _l
291 430 _l
339 430 376 439 402 459 _c
428 478 441 506 441 543 _c
441 580 427 609 401 629 _c
374 649 336 659 287 659 _c
260 659 231 656 200 650 _c
169 644 135 635 98 623 _c
98 711 _l
135 721 170 729 203 734 _c
235 739 266 742 296 742 _c
370 742 429 725 473 691 _c
517 657 539 611 539 553 _c
539 513 527 479 504 451 _c
481 423 448 403 406 393 _c
_cl}_e}_d
/four{636 0 49 0 580 729 _sc
378 643 _m
129 254 _l
378 254 _l
378 643 _l
352 729 _m
476 729 _l
476 254 _l
580 254 _l
580 172 _l
476 172 _l
476 0 _l
378 0 _l
378 172 _l
49 172 _l
49 267 _l
352 729 _l
_cl}_d
/five{{636 0 77 -13 549 729 _sc
108 729 _m
495 729 _l
495 646 _l
198 646 _l
198 467 _l
212 472 227 476 241 478 _c
255 480 270 482 284 482 _c
365 482 429 459 477 415 _c
525 370 549 310 549 234 _c
549 155 524 94 475 51 _c
426 8 357 -13 269 -13 _c
238 -13 207 -10 175 -6 _c
143 -1 111 6 77 17 _c
77 116 _l
106 100 136 88 168 80 _c
199 72 232 69 267 69 _c
}_e{323 69 368 83 401 113 _c
433 143 450 183 450 234 _c
450 284 433 324 401 354 _c
368 384 323 399 267 399 _c
241 399 214 396 188 390 _c
162 384 135 375 108 363 _c
108 729 _l
_cl}_e}_d
/six{{636 0 70 -13 573 742 _sc
330 404 _m
286 404 251 388 225 358 _c
199 328 186 286 186 234 _c
186 181 199 139 225 109 _c
251 79 286 64 330 64 _c
374 64 409 79 435 109 _c
461 139 474 181 474 234 _c
474 286 461 328 435 358 _c
409 388 374 404 330 404 _c
526 713 _m
526 623 _l
501 635 476 644 451 650 _c
425 656 400 659 376 659 _c
310 659 260 637 226 593 _c
}_e{192 549 172 482 168 394 _c
187 422 211 444 240 459 _c
269 474 301 482 336 482 _c
409 482 467 459 509 415 _c
551 371 573 310 573 234 _c
573 159 550 99 506 54 _c
462 9 403 -13 330 -13 _c
246 -13 181 19 137 83 _c
92 147 70 241 70 364 _c
70 479 97 571 152 639 _c
206 707 280 742 372 742 _c
396 742 421 739 447 735 _c
472 730 498 723 526 713 _c
_cl}_e}_d
/seven{636 0 82 0 551 729 _sc
82 729 _m
551 729 _l
551 687 _l
286 0 _l
183 0 _l
432 646 _l
82 646 _l
82 729 _l
_cl}_d
/eight{{636 0 68 -13 568 742 _sc
318 346 _m
271 346 234 333 207 308 _c
180 283 167 249 167 205 _c
167 161 180 126 207 101 _c
234 76 271 64 318 64 _c
364 64 401 76 428 102 _c
455 127 469 161 469 205 _c
469 249 455 283 429 308 _c
402 333 365 346 318 346 _c
219 388 _m
177 398 144 418 120 447 _c
96 476 85 511 85 553 _c
85 611 105 657 147 691 _c
188 725 245 742 318 742 _c
}_e{390 742 447 725 489 691 _c
530 657 551 611 551 553 _c
551 511 539 476 515 447 _c
491 418 459 398 417 388 _c
464 377 501 355 528 323 _c
554 291 568 251 568 205 _c
568 134 546 80 503 43 _c
459 5 398 -13 318 -13 _c
237 -13 175 5 132 43 _c
89 80 68 134 68 205 _c
68 251 81 291 108 323 _c
134 355 171 377 219 388 _c
183 544 _m
183 506 194 476 218 455 _c
}_e{242 434 275 424 318 424 _c
360 424 393 434 417 455 _c
441 476 453 506 453 544 _c
453 582 441 611 417 632 _c
393 653 360 664 318 664 _c
275 664 242 653 218 632 _c
194 611 183 582 183 544 _c
_cl}_e}_d
/nine{{636 0 63 -13 566 742 _sc
110 15 _m
110 105 _l
134 93 159 84 185 78 _c
210 72 235 69 260 69 _c
324 69 374 90 408 134 _c
442 178 462 244 468 334 _c
448 306 424 284 396 269 _c
367 254 335 247 300 247 _c
226 247 168 269 126 313 _c
84 357 63 417 63 494 _c
63 568 85 628 129 674 _c
173 719 232 742 306 742 _c
390 742 455 709 499 645 _c
543 580 566 486 566 364 _c
}_e{566 248 538 157 484 89 _c
429 21 356 -13 264 -13 _c
239 -13 214 -10 189 -6 _c
163 -2 137 5 110 15 _c
306 324 _m
350 324 385 339 411 369 _c
437 399 450 441 450 494 _c
450 546 437 588 411 618 _c
385 648 350 664 306 664 _c
262 664 227 648 201 618 _c
175 588 162 546 162 494 _c
162 441 175 399 201 369 _c
227 339 262 324 306 324 _c
_cl}_e}_d
/F{575 0 98 0 517 729 _sc
98 729 _m
517 729 _l
517 646 _l
197 646 _l
197 431 _l
486 431 _l
486 348 _l
197 348 _l
197 0 _l
98 0 _l
98 729 _l
_cl}_d
/S{{635 0 66 -13 579 742 _sc
535 705 _m
535 609 _l
497 627 462 640 429 649 _c
395 657 363 662 333 662 _c
279 662 237 651 208 631 _c
179 610 165 580 165 542 _c
165 510 174 485 194 469 _c
213 452 250 439 304 429 _c
364 417 _l
437 403 491 378 526 343 _c
561 307 579 260 579 201 _c
579 130 555 77 508 41 _c
460 5 391 -13 300 -13 _c
265 -13 228 -9 189 -2 _c
}_e{150 5 110 16 69 32 _c
69 134 _l
109 111 148 94 186 83 _c
224 71 262 66 300 66 _c
356 66 399 77 430 99 _c
460 121 476 152 476 194 _c
476 230 465 258 443 278 _c
421 298 385 313 335 323 _c
275 335 _l
201 349 148 372 115 404 _c
82 435 66 478 66 534 _c
66 598 88 649 134 686 _c
179 723 242 742 322 742 _c
356 742 390 739 426 733 _c
461 727 497 717 535 705 _c
}_e{_cl}_e}_d
/T{611 0 -2 0 614 729 _sc
-2 729 _m
614 729 _l
614 646 _l
355 646 _l
355 0 _l
256 0 _l
256 646 _l
-2 646 _l
-2 729 _l
_cl}_d
/V{684 0 8 0 676 729 _sc
286 0 _m
8 729 _l
111 729 _l
342 115 _l
573 729 _l
676 729 _l
398 0 _l
286 0 _l
_cl}_d
/bracketleft{390 0 86 -131 293 760 _sc
86 760 _m
293 760 _l
293 690 _l
176 690 _l
176 -61 _l
293 -61 _l
293 -131 _l
86 -131 _l
86 760 _l
_cl}_d
/bracketright{390 0 97 -131 304 760 _sc
304 760 _m
304 -131 _l
97 -131 _l
97 -61 _l
214 -61 _l
214 690 _l
97 690 _l
97 760 _l
304 760 _l
_cl}_d
/a{{613 0 60 -13 522 560 _sc
343 275 _m
270 275 220 266 192 250 _c
164 233 150 205 150 165 _c
150 133 160 107 181 89 _c
202 70 231 61 267 61 _c
317 61 357 78 387 114 _c
417 149 432 196 432 255 _c
432 275 _l
343 275 _l
522 312 _m
522 0 _l
432 0 _l
432 83 _l
411 49 385 25 355 10 _c
325 -5 287 -13 243 -13 _c
187 -13 142 2 109 33 _c
76 64 60 106 60 159 _c
}_e{60 220 80 266 122 298 _c
163 329 224 345 306 345 _c
432 345 _l
432 354 _l
432 395 418 427 391 450 _c
364 472 326 484 277 484 _c
245 484 215 480 185 472 _c
155 464 127 453 100 439 _c
100 522 _l
132 534 164 544 195 550 _c
226 556 256 560 286 560 _c
365 560 424 539 463 498 _c
502 457 522 395 522 312 _c
_cl}_e}_d
/c{{550 0 55 -13 488 560 _sc
488 526 _m
488 442 _l
462 456 437 466 411 473 _c
385 480 360 484 334 484 _c
276 484 230 465 198 428 _c
166 391 150 339 150 273 _c
150 206 166 154 198 117 _c
230 80 276 62 334 62 _c
360 62 385 65 411 72 _c
437 79 462 90 488 104 _c
488 21 _l
462 9 436 0 410 -5 _c
383 -10 354 -13 324 -13 _c
242 -13 176 12 128 64 _c
}_e{79 115 55 185 55 273 _c
55 362 79 432 128 483 _c
177 534 244 560 330 560 _c
358 560 385 557 411 551 _c
437 545 463 537 488 526 _c
_cl}_e}_d
/d{{635 0 55 -13 544 760 _sc
454 464 _m
454 760 _l
544 760 _l
544 0 _l
454 0 _l
454 82 _l
435 49 411 25 382 10 _c
353 -5 319 -13 279 -13 _c
213 -13 159 13 117 65 _c
75 117 55 187 55 273 _c
55 359 75 428 117 481 _c
159 533 213 560 279 560 _c
319 560 353 552 382 536 _c
411 520 435 496 454 464 _c
148 273 _m
148 207 161 155 188 117 _c
215 79 253 61 301 61 _c
}_e{348 61 385 79 413 117 _c
440 155 454 207 454 273 _c
454 339 440 390 413 428 _c
385 466 348 485 301 485 _c
253 485 215 466 188 428 _c
161 390 148 339 148 273 _c
_cl}_e}_d
/e{{615 0 55 -13 562 560 _sc
562 296 _m
562 252 _l
149 252 _l
153 190 171 142 205 110 _c
238 78 284 62 344 62 _c
378 62 412 66 444 74 _c
476 82 509 95 541 113 _c
541 28 _l
509 14 476 3 442 -3 _c
408 -9 373 -13 339 -13 _c
251 -13 182 12 131 62 _c
80 112 55 181 55 268 _c
55 357 79 428 127 481 _c
175 533 241 560 323 560 _c
397 560 455 536 498 489 _c
}_e{540 441 562 377 562 296 _c
472 322 _m
471 371 457 410 431 440 _c
404 469 368 484 324 484 _c
274 484 234 469 204 441 _c
174 413 156 373 152 322 _c
472 322 _l
_cl}_e}_d
/i{278 0 94 0 184 760 _sc
94 547 _m
184 547 _l
184 0 _l
94 0 _l
94 547 _l
94 760 _m
184 760 _l
184 646 _l
94 646 _l
94 760 _l
_cl}_d
/l{278 0 94 0 184 760 _sc
94 760 _m
184 760 _l
184 0 _l
94 0 _l
94 760 _l
_cl}_d
/m{{974 0 91 0 889 560 _sc
520 442 _m
542 482 569 511 600 531 _c
631 550 668 560 711 560 _c
767 560 811 540 842 500 _c
873 460 889 403 889 330 _c
889 0 _l
799 0 _l
799 327 _l
799 379 789 418 771 444 _c
752 469 724 482 686 482 _c
639 482 602 466 575 435 _c
548 404 535 362 535 309 _c
535 0 _l
445 0 _l
445 327 _l
445 379 435 418 417 444 _c
398 469 369 482 331 482 _c
}_e{285 482 248 466 221 435 _c
194 404 181 362 181 309 _c
181 0 _l
91 0 _l
91 547 _l
181 547 _l
181 462 _l
201 495 226 520 255 536 _c
283 552 317 560 357 560 _c
397 560 430 550 458 530 _c
486 510 506 480 520 442 _c
_cl}_e}_d
/n{634 0 91 0 549 560 _sc
549 330 _m
549 0 _l
459 0 _l
459 327 _l
459 379 448 417 428 443 _c
408 469 378 482 338 482 _c
289 482 251 466 223 435 _c
195 404 181 362 181 309 _c
181 0 _l
91 0 _l
91 547 _l
181 547 _l
181 462 _l
202 494 227 519 257 535 _c
286 551 320 560 358 560 _c
420 560 468 540 500 501 _c
532 462 549 405 549 330 _c
_cl}_d
/o{612 0 55 -13 557 560 _sc
306 484 _m
258 484 220 465 192 427 _c
164 389 150 338 150 273 _c
150 207 163 156 191 118 _c
219 80 257 62 306 62 _c
354 62 392 80 420 118 _c
448 156 462 207 462 273 _c
462 337 448 389 420 427 _c
392 465 354 484 306 484 _c
306 560 _m
384 560 445 534 490 484 _c
534 433 557 363 557 273 _c
557 183 534 113 490 63 _c
445 12 384 -13 306 -13 _c
227 -13 165 12 121 63 _c
77 113 55 183 55 273 _c
55 363 77 433 121 484 _c
165 534 227 560 306 560 _c
_cl}_d
/p{{635 0 91 -207 580 560 _sc
181 82 _m
181 -207 _l
91 -207 _l
91 547 _l
181 547 _l
181 464 _l
199 496 223 520 252 536 _c
281 552 316 560 356 560 _c
422 560 476 533 518 481 _c
559 428 580 359 580 273 _c
580 187 559 117 518 65 _c
476 13 422 -13 356 -13 _c
316 -13 281 -5 252 10 _c
223 25 199 49 181 82 _c
487 273 _m
487 339 473 390 446 428 _c
418 466 381 485 334 485 _c
}_e{286 485 249 466 222 428 _c
194 390 181 339 181 273 _c
181 207 194 155 222 117 _c
249 79 286 61 334 61 _c
381 61 418 79 446 117 _c
473 155 487 207 487 273 _c
_cl}_e}_d
/r{411 0 91 0 411 560 _sc
411 463 _m
401 469 390 473 378 476 _c
366 478 353 480 339 480 _c
288 480 249 463 222 430 _c
194 397 181 350 181 288 _c
181 0 _l
91 0 _l
91 547 _l
181 547 _l
181 462 _l
199 495 224 520 254 536 _c
284 552 321 560 365 560 _c
371 560 378 559 386 559 _c
393 558 401 557 411 555 _c
411 463 _l
_cl}_d
/s{{521 0 54 -13 472 560 _sc
443 531 _m
443 446 _l
417 458 391 468 364 475 _c
336 481 308 485 279 485 _c
234 485 200 478 178 464 _c
156 450 145 430 145 403 _c
145 382 153 366 169 354 _c
185 342 217 330 265 320 _c
296 313 _l
360 299 405 279 432 255 _c
458 230 472 195 472 151 _c
472 100 452 60 412 31 _c
372 1 316 -13 246 -13 _c
216 -13 186 -10 154 -5 _c
}_e{122 0 89 8 54 20 _c
54 113 _l
87 95 120 82 152 74 _c
184 65 216 61 248 61 _c
290 61 323 68 346 82 _c
368 96 380 117 380 144 _c
380 168 371 187 355 200 _c
339 213 303 226 247 238 _c
216 245 _l
160 257 119 275 95 299 _c
70 323 58 356 58 399 _c
58 450 76 490 112 518 _c
148 546 200 560 268 560 _c
301 560 332 557 362 552 _c
391 547 418 540 443 531 _c
}_e{_cl}_e}_d
/t{392 0 27 0 368 702 _sc
183 702 _m
183 547 _l
368 547 _l
368 477 _l
183 477 _l
183 180 _l
183 135 189 106 201 94 _c
213 81 238 75 276 75 _c
368 75 _l
368 0 _l
276 0 _l
206 0 158 13 132 39 _c
106 65 93 112 93 180 _c
93 477 _l
27 477 _l
27 547 _l
93 547 _l
93 702 _l
183 702 _l
_cl}_d
/w{818 0 42 0 776 547 _sc
42 547 _m
132 547 _l
244 120 _l
356 547 _l
462 547 _l
574 120 _l
686 547 _l
776 547 _l
633 0 _l
527 0 _l
409 448 _l
291 0 _l
185 0 _l
42 547 _l
_cl}_d
end readonly def

/BuildGlyph
 {exch begin
 CharStrings exch
 2 copy known not{pop /.notdef}if
 true 3 1 roll get exec
 end}_d

/BuildChar {
 1 index /Encoding get exch get
 1 index /BuildGlyph get exec
}_d

FontName currentdict end definefont pop
end
%%EndProlog
mpldict begin
0.36 170.28 translate
611.28 451.44 0 0 clipbox
gsave
0 0 m
611.28 0 l
611.28 451.44 l
0 451.44 l
cl
1.000 setgray
fill
grestore
gsave
40.165 255.24 m
599.22 255.24 l
599.22 425.28 l
40.165 425.28 l
cl
1.000 setgray
fill
grestore
0.800 setlinewidth
1 setlinejoin
0 setlinecap
[] 0 setdash
0.000 setgray
gsave
/o {
gsave
newpath
translate
0.8 setlinewidth
1 setlinejoin
0 setlinecap
0 0 m
0 -3.5 l

gsave
0.000 setgray
fill
grestore
stroke
grestore
} bind def
65.5766 255.24 o
grestore
/DejaVuSans findfont
10.000 scalefont
setfont
gsave
57.623466 240.646250 translate
0.000000 rotate
0.000000 0.000000 m /zero glyphshow
6.362305 0.000000 m /period glyphshow
9.541016 0.000000 m /zero glyphshow
grestore
gsave
/o {
gsave
newpath
translate
0.8 setlinewidth
1 setlinejoin
0 setlinecap
0 0 m
0 -3.5 l

gsave
0.000 setgray
fill
grestore
stroke
grestore
} bind def
150.282 255.24 o
grestore
gsave
142.328769 240.646250 translate
0.000000 rotate
0.000000 0.000000 m /zero glyphshow
6.362305 0.000000 m /period glyphshow
9.541016 0.000000 m /five glyphshow
grestore
gsave
/o {
gsave
newpath
translate
0.8 setlinewidth
1 setlinejoin
0 setlinecap
0 0 m
0 -3.5 l

gsave
0.000 setgray
fill
grestore
stroke
grestore
} bind def
234.987 255.24 o
grestore
gsave
227.034072 240.646250 translate
0.000000 rotate
0.000000 0.000000 m /one glyphshow
6.362305 0.000000 m /period glyphshow
9.541016 0.000000 m /zero glyphshow
grestore
gsave
/o {
gsave
newpath
translate
0.8 setlinewidth
1 setlinejoin
0 setlinecap
0 0 m
0 -3.5 l

gsave
0.000 setgray
fill
grestore
stroke
grestore
} bind def
319.693 255.24 o
grestore
gsave
311.739375 240.646250 translate
0.000000 rotate
0.000000 0.000000 m /one glyphshow
6.362305 0.000000 m /period glyphshow
9.541016 0.000000 m /five glyphshow
grestore
gsave
/o {
gsave
newpath
translate
0.8 setlinewidth
1 setlinejoin
0 setlinecap
0 0 m
0 -3.5 l

gsave
0.000 setgray
fill
grestore
stroke
grestore
} bind def
404.398 255.24 o
grestore
gsave
396.444678 240.646250 translate
0.000000 rotate
0.000000 0.000000 m /two glyphshow
6.362305 0.000000 m /period glyphshow
9.541016 0.000000 m /zero glyphshow
grestore
gsave
/o {
gsave
newpath
translate
0.8 setlinewidth
1 setlinejoin
0 setlinecap
0 0 m
0 -3.5 l

gsave
0.000 setgray
fill
grestore
stroke
grestore
} bind def
489.103 255.24 o
grestore
gsave
481.149981 240.646250 translate
0.000000 rotate
0.000000 0.000000 m /two glyphshow
6.362305 0.000000 m /period glyphshow
9.541016 0.000000 m /five glyphshow
grestore
gsave
/o {
gsave
newpath
translate
0.8 setlinewidth
1 setlinejoin
0 setlinecap
0 0 m
0 -3.5 l

gsave
0.000 setgray
fill
grestore
stroke
grestore
} bind def
573.808 255.24 o
grestore
gsave
565.855284 240.646250 translate
0.000000 rotate
0.000000 0.000000 m /three glyphshow
6.362305 0.000000 m /period glyphshow
9.541016 0.000000 m /zero glyphshow
grestore
gsave
/o {
gsave
newpath
translate
0.8 setlinewidth
1 setlinejoin
0 setlinecap
0 0 m
-3.5 0 l

gsave
0.000 setgray
fill
grestore
stroke
grestore
} bind def
40.165 262.968 o
grestore
gsave
10.899375 259.171341 translate
0.000000 rotate
0.000000 0.000000 m /zero glyphshow
6.362305 0.000000 m /period glyphshow
9.541016 0.000000 m /zero glyphshow
15.903320 0.000000 m /zero glyphshow
grestore
gsave
/o {
gsave
newpath
translate
0.8 setlinewidth
1 setlinejoin
0 setlinecap
0 0 m
-3.5 0 l

gsave
0.000 setgray
fill
grestore
stroke
grestore
} bind def
40.165 287.367 o
grestore
gsave
10.899375 283.570352 translate
0.000000 rotate
0.000000 0.000000 m /zero glyphshow
6.362305 0.000000 m /period glyphshow
9.541016 0.000000 m /zero glyphshow
15.903320 0.000000 m /two glyphshow
grestore
gsave
/o {
gsave
newpath
translate
0.8 setlinewidth
1 setlinejoin
0 setlinecap
0 0 m
-3.5 0 l

gsave
0.000 setgray
fill
grestore
stroke
grestore
} bind def
40.165 311.766 o
grestore
gsave
10.899375 307.969363 translate
0.000000 rotate
0.000000 0.000000 m /zero glyphshow
6.362305 0.000000 m /period glyphshow
9.541016 0.000000 m /zero glyphshow
15.903320 0.000000 m /four glyphshow
grestore
gsave
/o {
gsave
newpath
translate
0.8 setlinewidth
1 setlinejoin
0 setlinecap
0 0 m
-3.5 0 l

gsave
0.000 setgray
fill
grestore
stroke
grestore
} bind def
40.165 336.165 o
grestore
gsave
10.899375 332.368374 translate
0.000000 rotate
0.000000 0.000000 m /zero glyphshow
6.362305 0.000000 m /period glyphshow
9.541016 0.000000 m /zero glyphshow
15.903320 0.000000 m /six glyphshow
grestore
gsave
/o {
gsave
newpath
translate
0.8 setlinewidth
1 setlinejoin
0 setlinecap
0 0 m
-3.5 0 l

gsave
0.000 setgray
fill
grestore
stroke
grestore
} bind def
40.165 360.564 o
grestore
gsave
10.899375 356.767384 translate
0.000000 rotate
0.000000 0.000000 m /zero glyphshow
6.362305 0.000000 m /period glyphshow
9.541016 0.000000 m /zero glyphshow
15.903320 0.000000 m /eight glyphshow
grestore
gsave
/o {
gsave
newpath
translate
0.8 setlinewidth
1 setlinejoin
0 setlinecap
0 0 m
-3.5 0 l

gsave
0.000 setgray
fill
grestore
stroke
grestore
} bind def
40.165 384.963 o
grestore
gsave
10.899375 381.166395 translate
0.000000 rotate
0.000000 0.000000 m /zero glyphshow
6.362305 0.000000 m /period glyphshow
9.541016 0.000000 m /one glyphshow
15.903320 0.000000 m /zero glyphshow
grestore
gsave
/o {
gsave
newpath
translate
0.8 setlinewidth
1 setlinejoin
0 setlinecap
0 0 m
-3.5 0 l

gsave
0.000 setgray
fill
grestore
stroke
grestore
} bind def
40.165 409.362 o
grestore
gsave
10.899375 405.565406 translate
0.000000 rotate
0.000000 0.000000 m /zero glyphshow
6.362305 0.000000 m /period glyphshow
9.541016 0.000000 m /one glyphshow
15.903320 0.000000 m /two glyphshow
grestore
1.500 setlinewidth
2 setlinecap
0.122 0.467 0.706 setrgbcolor
gsave
559.1 170 40.17 255.2 clipbox
65.576591 417.550909 m
68.11775 408.501187 l
71.505962 397.404379 l
74.047121 389.736578 l
76.58828 382.625826 l
79.129439 376.097783 l
81.670598 370.077731 l
84.211758 364.569914 l
86.752917 359.492921 l
89.294076 354.885335 l
91.835235 350.700367 l
94.376394 346.94146 l
96.917553 343.588899 l
99.458712 340.574191 l
101.999871 337.939902 l
104.54103 335.664217 l
107.082189 333.68401 l
109.623348 331.985146 l
112.164508 330.590399 l
114.705667 329.426541 l
118.093879 328.144428 l
120.635038 327.416792 l
124.02325 326.694641 l
127.411462 326.210818 l
130.799674 325.965331 l
134.187886 325.895002 l
141.811364 326.092313 l
146.046629 326.477453 l
151.128947 327.181985 l
161.293583 328.875826 l
168.917061 330.380085 l
174.846432 331.654689 l
179.081697 332.502441 l
190.093386 334.46916 l
203.646235 336.620628 l
210.422659 337.483545 l
218.893189 338.294813 l
241.763621 340.337568 l
248.540045 340.829351 l
257.857629 341.592351 l
269.716371 342.18643 l
288.351538 342.473315 l
312.069023 342.930417 l
319.6925 343.188057 l
348.492303 343.888403 l
359.503992 343.785484 l
373.903894 343.853524 l
381.527371 343.50811 l
397.621379 343.035171 l
416.256545 342.972047 l
454.373932 343.402022 l
466.232674 343.602683 l
487.409 343.73443 l
505.197114 343.603848 l
510.279432 343.46435 l
529.761652 343.354072 l
537.385129 343.405918 l
547.549765 343.764504 l
554.326189 343.931309 l
572.114303 344.12862 l
573.808409 344.210498 l
573.808409 344.210498 l
stroke
grestore
1.000 0.498 0.055 setrgbcolor
gsave
559.1 170 40.17 255.2 clipbox
65.576591 414.20217 m
68.964803 402.518544 l
72.353015 391.737541 l
75.741227 381.789428 l
79.129439 372.609859 l
82.517652 364.13946 l
85.905864 356.323445 l
89.294076 349.111258 l
92.682288 342.456251 l
96.0705 336.315379 l
99.458712 330.648921 l
102.846924 325.420228 l
106.235136 320.595478 l
109.623348 316.143467 l
113.011561 312.035396 l
116.399773 308.244696 l
119.787985 304.746848 l
123.176197 301.519227 l
127.411462 297.833059 l
131.646727 294.499355 l
135.881992 291.484413 l
140.117258 288.757754 l
144.352523 286.291812 l
148.587788 284.061658 l
153.670106 281.665124 l
158.752424 279.540872 l
163.834742 277.657968 l
168.917061 275.98899 l
174.846432 274.279959 l
180.775803 272.795245 l
187.552227 271.335516 l
194.328652 270.092619 l
201.952129 268.913628 l
210.422659 267.83101 l
219.740242 266.86638 l
229.904879 266.030919 l
241.763621 265.279697 l
255.31647 264.643994 l
271.410477 264.112026 l
291.73975 263.674279 l
317.998394 263.346855 l
355.268727 263.124575 l
417.950652 263.003545 l
573.808409 262.969091 l
573.808409 262.969091 l
stroke
grestore
0.800 setlinewidth
0 setlinejoin
[] 0 setdash
0.000 setgray
gsave
40.165 255.24 m
40.165 425.28 l
stroke
grestore
gsave
599.22 255.24 m
599.22 425.28 l
stroke
grestore
gsave
40.165 255.24 m
599.22 255.24 l
stroke
grestore
gsave
40.165 425.28 m
599.22 425.28 l
stroke
grestore
/DejaVuSans findfont
12.000 scalefont
setfont
gsave
277.340938 431.280000 translate
0.000000 rotate
0.000000 0.000000 m /S glyphshow
7.617188 0.000000 m /l glyphshow
10.951172 0.000000 m /o glyphshow
18.292969 0.000000 m /w glyphshow
28.107422 0.000000 m /space glyphshow
31.921875 0.000000 m /V glyphshow
40.130859 0.000000 m /a glyphshow
47.484375 0.000000 m /r glyphshow
52.417969 0.000000 m /i glyphshow
55.751953 0.000000 m /a glyphshow
63.105469 0.000000 m /n glyphshow
70.710938 0.000000 m /c glyphshow
77.308594 0.000000 m /e glyphshow
grestore
1.000 setlinewidth
0 setlinecap
0.800 setgray
gsave
462.798125 387.93625 m
592.22 387.93625 l
593.553333 387.93625 594.22 388.602917 594.22 389.93625 c
594.22 418.28 l
594.22 419.613333 593.553333 420.28 592.22 420.28 c
462.798125 420.28 l
461.464792 420.28 460.798125 419.613333 460.798125 418.28 c
460.798125 389.93625 l
460.798125 388.602917 461.464792 387.93625 462.798125 387.93625 c
cl
gsave
1.000 setgray
fill
grestore
stroke
grestore
1.500 setlinewidth
1 setlinejoin
2 setlinecap
[] 0 setdash
0.122 0.467 0.706 setrgbcolor
gsave
464.798125 412.18625 m
484.798125 412.18625 l
stroke
grestore
0.000 setgray
/DejaVuSans findfont
10.000 scalefont
setfont
gsave
492.798125 408.686250 translate
0.000000 rotate
0.000000 0.000000 m /m glyphshow
9.741211 0.000000 m /i glyphshow
12.519531 0.000000 m /c glyphshow
18.017578 0.000000 m /r glyphshow
22.128906 0.000000 m /o glyphshow
28.247070 0.000000 m /s glyphshow
33.457031 0.000000 m /c glyphshow
38.955078 0.000000 m /o glyphshow
45.073242 0.000000 m /p glyphshow
51.420898 0.000000 m /i glyphshow
54.199219 0.000000 m /c glyphshow
59.697266 0.000000 m /space glyphshow
62.875977 0.000000 m /m glyphshow
72.617188 0.000000 m /o glyphshow
78.735352 0.000000 m /d glyphshow
85.083008 0.000000 m /e glyphshow
91.235352 0.000000 m /l glyphshow
grestore
1.000 0.498 0.055 setrgbcolor
gsave
464.798125 397.514375 m
484.798125 397.514375 l
stroke
grestore
0.000 setgray
gsave
492.798125 394.014375 translate
0.000000 rotate
0.000000 0.000000 m /m glyphshow
9.741211 0.000000 m /a glyphshow
15.869141 0.000000 m /c glyphshow
21.367188 0.000000 m /r glyphshow
25.478516 0.000000 m /o glyphshow
31.596680 0.000000 m /s glyphshow
36.806641 0.000000 m /c glyphshow
42.304688 0.000000 m /o glyphshow
48.422852 0.000000 m /p glyphshow
54.770508 0.000000 m /i glyphshow
57.548828 0.000000 m /c glyphshow
63.046875 0.000000 m /space glyphshow
66.225586 0.000000 m /m glyphshow
75.966797 0.000000 m /o glyphshow
82.084961 0.000000 m /d glyphshow
88.432617 0.000000 m /e glyphshow
94.584961 0.000000 m /l glyphshow
grestore
gsave
40.165 41.96 m
599.22 41.96 l
599.22 212 l
40.165 212 l
cl
1.000 setgray
fill
grestore
0.800 setlinewidth
0 setlinecap
gsave
/o {
gsave
newpath
translate
0.8 setlinewidth
1 setlinejoin
0 setlinecap
0 0 m
0 -3.5 l

gsave
0.000 setgray
fill
grestore
stroke
grestore
} bind def
65.5766 41.96 o
grestore
gsave
57.623466 27.366250 translate
0.000000 rotate
0.000000 0.000000 m /zero glyphshow
6.362305 0.000000 m /period glyphshow
9.541016 0.000000 m /zero glyphshow
grestore
gsave
/o {
gsave
newpath
translate
0.8 setlinewidth
1 setlinejoin
0 setlinecap
0 0 m
0 -3.5 l

gsave
0.000 setgray
fill
grestore
stroke
grestore
} bind def
150.282 41.96 o
grestore
gsave
142.328769 27.366250 translate
0.000000 rotate
0.000000 0.000000 m /zero glyphshow
6.362305 0.000000 m /period glyphshow
9.541016 0.000000 m /five glyphshow
grestore
gsave
/o {
gsave
newpath
translate
0.8 setlinewidth
1 setlinejoin
0 setlinecap
0 0 m
0 -3.5 l

gsave
0.000 setgray
fill
grestore
stroke
grestore
} bind def
234.987 41.96 o
grestore
gsave
227.034072 27.366250 translate
0.000000 rotate
0.000000 0.000000 m /one glyphshow
6.362305 0.000000 m /period glyphshow
9.541016 0.000000 m /zero glyphshow
grestore
gsave
/o {
gsave
newpath
translate
0.8 setlinewidth
1 setlinejoin
0 setlinecap
0 0 m
0 -3.5 l

gsave
0.000 setgray
fill
grestore
stroke
grestore
} bind def
319.693 41.96 o
grestore
gsave
311.739375 27.366250 translate
0.000000 rotate
0.000000 0.000000 m /one glyphshow
6.362305 0.000000 m /period glyphshow
9.541016 0.000000 m /five glyphshow
grestore
gsave
/o {
gsave
newpath
translate
0.8 setlinewidth
1 setlinejoin
0 setlinecap
0 0 m
0 -3.5 l

gsave
0.000 setgray
fill
grestore
stroke
grestore
} bind def
404.398 41.96 o
grestore
gsave
396.444678 27.366250 translate
0.000000 rotate
0.000000 0.000000 m /two glyphshow
6.362305 0.000000 m /period glyphshow
9.541016 0.000000 m /zero glyphshow
grestore
gsave
/o {
gsave
newpath
translate
0.8 setlinewidth
1 setlinejoin
0 setlinecap
0 0 m
0 -3.5 l

gsave
0.000 setgray
fill
grestore
stroke
grestore
} bind def
489.103 41.96 o
grestore
gsave
481.149981 27.366250 translate
0.000000 rotate
0.000000 0.000000 m /two glyphshow
6.362305 0.000000 m /period glyphshow
9.541016 0.000000 m /five glyphshow
grestore
gsave
/o {
gsave
newpath
translate
0.8 setlinewidth
1 setlinejoin
0 setlinecap
0 0 m
0 -3.5 l

gsave
0.000 setgray
fill
grestore
stroke
grestore
} bind def
573.808 41.96 o
grestore
gsave
565.855284 27.366250 translate
0.000000 rotate
0.000000 0.000000 m /three glyphshow
6.362305 0.000000 m /period glyphshow
9.541016 0.000000 m /zero glyphshow
grestore
gsave
299.184688 13.694375 translate
0.000000 rotate
0.000000 0.000000 m /T glyphshow
6.108398 0.000000 m /i glyphshow
8.886719 0.000000 m /m glyphshow
18.627930 0.000000 m /e glyphshow
24.780273 0.000000 m /space glyphshow
27.958984 0.000000 m /bracketleft glyphshow
31.860352 0.000000 m /s glyphshow
37.070312 0.000000 m /bracketright glyphshow
grestore
gsave
/o {
gsave
newpath
translate
0.8 setlinewidth
1 setlinejoin
0 setlinecap
0 0 m
-3.5 0 l

gsave
0.000 setgray
fill
grestore
stroke
grestore
} bind def
40.165 59.7101 o
grestore
gsave
17.258750 55.913258 translate
0.000000 rotate
0.000000 0.000000 m /zero glyphshow
6.362305 0.000000 m /period glyphshow
9.541016 0.000000 m /three glyphshow
grestore
gsave
/o {
gsave
newpath
translate
0.8 setlinewidth
1 setlinejoin
0 setlinecap
0 0 m
-3.5 0 l

gsave
0.000 setgray
fill
grestore
stroke
grestore
} bind def
40.165 83.8707 o
grestore
gsave
17.258750 80.073840 translate
0.000000 rotate
0.000000 0.000000 m /zero glyphshow
6.362305 0.000000 m /period glyphshow
9.541016 0.000000 m /four glyphshow
grestore
gsave
/o {
gsave
newpath
translate
0.8 setlinewidth
1 setlinejoin
0 setlinecap
0 0 m
-3.5 0 l

gsave
0.000 setgray
fill
grestore
stroke
grestore
} bind def
40.165 108.031 o
grestore
gsave
17.258750 104.234422 translate
0.000000 rotate
0.000000 0.000000 m /zero glyphshow
6.362305 0.000000 m /period glyphshow
9.541016 0.000000 m /five glyphshow
grestore
gsave
/o {
gsave
newpath
translate
0.8 setlinewidth
1 setlinejoin
0 setlinecap
0 0 m
-3.5 0 l

gsave
0.000 setgray
fill
grestore
stroke
grestore
} bind def
40.165 132.192 o
grestore
gsave
17.258750 128.395004 translate
0.000000 rotate
0.000000 0.000000 m /zero glyphshow
6.362305 0.000000 m /period glyphshow
9.541016 0.000000 m /six glyphshow
grestore
gsave
/o {
gsave
newpath
translate
0.8 setlinewidth
1 setlinejoin
0 setlinecap
0 0 m
-3.5 0 l

gsave
0.000 setgray
fill
grestore
stroke
grestore
} bind def
40.165 156.352 o
grestore
gsave
17.258750 152.555586 translate
0.000000 rotate
0.000000 0.000000 m /zero glyphshow
6.362305 0.000000 m /period glyphshow
9.541016 0.000000 m /seven glyphshow
grestore
gsave
/o {
gsave
newpath
translate
0.8 setlinewidth
1 setlinejoin
0 setlinecap
0 0 m
-3.5 0 l

gsave
0.000 setgray
fill
grestore
stroke
grestore
} bind def
40.165 180.513 o
grestore
gsave
17.258750 176.716168 translate
0.000000 rotate
0.000000 0.000000 m /zero glyphshow
6.362305 0.000000 m /period glyphshow
9.541016 0.000000 m /eight glyphshow
grestore
gsave
/o {
gsave
newpath
translate
0.8 setlinewidth
1 setlinejoin
0 setlinecap
0 0 m
-3.5 0 l

gsave
0.000 setgray
fill
grestore
stroke
grestore
} bind def
40.165 204.674 o
grestore
gsave
17.258750 200.876750 translate
0.000000 rotate
0.000000 0.000000 m /zero glyphshow
6.362305 0.000000 m /period glyphshow
9.541016 0.000000 m /nine glyphshow
grestore
1.500 setlinewidth
2 setlinecap
0.122 0.467 0.706 setrgbcolor
gsave
559.1 170 40.17 41.96 clipbox
65.576591 108.98348 m
66.423644 59.578424 l
67.270697 50.986471 l
68.11775 49.689091 l
68.964803 50.019135 l
69.811856 51.187589 l
74.047121 64.3728 l
74.894174 67.467019 l
75.741227 70.985793 l
76.58828 73.92874 l
77.435333 77.570861 l
78.282386 80.476581 l
79.129439 83.829873 l
81.670598 95.799575 l
82.517652 97.880525 l
85.058811 108.065709 l
85.905864 111.464478 l
86.752917 114.325322 l
87.59997 116.353354 l
88.447023 121.026762 l
89.294076 124.03433 l
90.141129 128.408369 l
90.988182 130.244888 l
92.682288 136.187585 l
93.529341 138.793565 l
94.376394 141.831732 l
95.223447 144.356588 l
96.917553 150.175724 l
97.764606 151.94136 l
98.611659 153.133946 l
99.458712 155.43568 l
100.305765 157.029682 l
101.152818 159.190134 l
101.999871 160.083773 l
102.846924 161.408474 l
103.693977 163.83916 l
104.54103 163.698792 l
105.388083 166.752359 l
106.235136 169.004696 l
107.082189 168.604258 l
108.776295 173.465994 l
109.623348 174.21352 l
111.317455 177.52826 l
112.164508 177.327665 l
113.011561 177.468153 l
113.858614 179.564296 l
114.705667 179.958637 l
115.55272 179.016395 l
116.399773 181.367686 l
117.246826 181.970468 l
118.093879 184.015674 l
118.940932 184.961141 l
119.787985 184.798318 l
120.635038 184.77658 l
121.482091 184.500884 l
123.176197 184.596925 l
124.02325 184.454615 l
125.717356 186.833404 l
126.564409 187.391714 l
127.411462 187.575479 l
128.258515 188.06315 l
129.105568 187.869975 l
129.952621 188.287853 l
130.799674 187.368379 l
131.646727 187.773966 l
132.49378 188.01433 l
133.340833 188.138222 l
134.187886 188.430494 l
135.034939 189.536779 l
136.729045 187.484144 l
137.576098 187.665095 l
138.423152 188.130999 l
139.270205 189.932338 l
140.117258 190.612892 l
140.964311 191.12026 l
142.658417 191.415748 l
143.50547 193.328575 l
144.352523 194.924154 l
145.199576 195.944701 l
146.046629 196.241909 l
146.893682 197.781584 l
147.740735 197.191546 l
148.587788 197.476001 l
149.434841 197.638093 l
150.281894 196.69691 l
151.128947 195.071064 l
151.976 194.682398 l
152.823053 195.233836 l
153.670106 196.842838 l
154.517159 196.265348 l
156.211265 196.887326 l
157.058318 198.617741 l
157.905371 198.879222 l
158.752424 198.874475 l
159.599477 198.314624 l
160.44653 200.573038 l
161.293583 198.124485 l
162.140636 197.270272 l
162.987689 197.712208 l
163.834742 197.712382 l
164.681795 196.615956 l
165.528848 196.342894 l
166.375902 197.091115 l
167.222955 196.892576 l
168.070008 198.391613 l
168.917061 198.489294 l
169.764114 198.104116 l
170.611167 198.593693 l
171.45822 198.67605 l
173.152326 199.960664 l
173.999379 200.531344 l
174.846432 200.783447 l
177.387591 201.09494 l
179.081697 198.637817 l
180.775803 199.332462 l
181.622856 197.186039 l
182.469909 197.952044 l
183.316962 195.979617 l
184.164015 198.951614 l
185.011068 198.250616 l
185.858121 198.74493 l
186.705174 199.782439 l
187.552227 200.369558 l
188.39928 199.310282 l
189.246333 201.104141 l
190.093386 201.900217 l
190.940439 201.697154 l
191.787492 201.194523 l
192.634545 202.02356 l
193.481598 202.334555 l
194.328652 203.844721 l
195.175705 201.898111 l
196.022758 202.711914 l
198.563917 200.134152 l
199.41097 198.967449 l
200.258023 199.119784 l
201.105076 198.472552 l
201.952129 199.041722 l
202.799182 200.392724 l
203.646235 201.016065 l
204.493288 199.567929 l
205.340341 200.312451 l
206.187394 199.824279 l
207.034447 199.659351 l
207.8815 197.901878 l
208.728553 198.638744 l
209.575606 198.555677 l
210.422659 197.549365 l
211.269712 196.949745 l
212.116765 198.700486 l
212.963818 197.681696 l
213.810871 199.363134 l
214.657924 200.158608 l
215.504977 201.17071 l
216.35203 201.488839 l
217.199083 201.115189 l
218.046136 200.098496 l
218.893189 201.060277 l
219.740242 201.152086 l
220.587295 201.678402 l
221.434348 199.646379 l
222.281402 201.304834 l
223.128455 201.49508 l
223.975508 202.326178 l
224.822561 201.600541 l
225.669614 201.541703 l
226.516667 201.594319 l
227.36372 202.576187 l
228.210773 201.997537 l
229.057826 201.595087 l
229.904879 199.890836 l
231.598985 203.725362 l
232.446038 203.630602 l
233.293091 202.739007 l
234.140144 202.741933 l
235.83425 200.760081 l
236.681303 199.892662 l
237.528356 199.38637 l
238.375409 199.980546 l
239.222462 199.586301 l
240.069515 199.41166 l
240.916568 198.580665 l
241.763621 198.293567 l
242.610674 197.678407 l
243.457727 198.652863 l
244.30478 197.249688 l
245.151833 196.230033 l
245.998886 198.243836 l
246.845939 198.629379 l
247.692992 200.202444 l
248.540045 199.850477 l
249.387098 200.734033 l
251.081205 201.984409 l
251.928258 202.105037 l
252.775311 203.459976 l
253.622364 202.704192 l
254.469417 202.541678 l
255.31647 202.513144 l
256.163523 204.107985 l
257.010576 204.047617 l
257.857629 202.843988 l
258.704682 201.099744 l
259.551735 201.792212 l
260.398788 201.600311 l
261.245841 200.692074 l
262.092894 202.007927 l
262.939947 202.943756 l
263.787 202.86946 l
264.634053 203.607713 l
266.328159 202.896125 l
267.175212 201.816943 l
268.022265 201.451342 l
268.869318 201.210629 l
269.716371 202.872345 l
270.563424 201.749429 l
271.410477 202.86881 l
272.25753 203.20702 l
273.104583 203.731455 l
273.951636 202.483764 l
275.645742 200.990828 l
276.492795 199.929068 l
277.339848 199.238797 l
278.186902 199.078357 l
279.033955 199.800552 l
279.881008 199.391009 l
280.728061 198.36114 l
282.422167 200.784962 l
283.26922 201.411521 l
284.116273 199.414896 l
284.963326 199.283129 l
285.810379 199.905875 l
286.657432 199.717449 l
287.504485 198.434591 l
288.351538 200.189207 l
289.198591 200.405326 l
290.045644 202.595865 l
290.892697 201.19805 l
291.73975 201.93418 l
292.586803 201.996479 l
293.433856 200.523569 l
295.127962 198.694124 l
295.975015 199.968311 l
297.669121 196.847504 l
298.516174 196.698326 l
299.363227 196.838035 l
300.21028 197.186692 l
301.057333 198.039286 l
301.904386 197.344312 l
302.751439 199.568018 l
303.598492 199.918795 l
304.445545 198.440058 l
305.292598 198.608116 l
306.139652 199.302297 l
306.986705 199.438003 l
307.833758 198.771034 l
308.680811 199.582777 l
309.527864 200.690522 l
310.374917 198.847931 l
312.069023 201.003226 l
312.916076 201.638296 l
313.763129 201.240713 l
314.610182 202.391733 l
315.457235 200.467747 l
317.151341 199.854993 l
317.998394 198.684116 l
318.845447 198.754589 l
319.6925 200.266553 l
320.539553 201.086758 l
321.386606 199.538343 l
322.233659 200.743586 l
323.080712 201.070555 l
323.927765 200.11549 l
324.774818 199.911883 l
325.621871 198.676274 l
326.468924 198.522868 l
327.315977 198.22629 l
328.16303 199.816123 l
329.010083 199.838991 l
331.551242 198.862316 l
332.398295 198.987346 l
333.245348 198.220396 l
334.092402 197.784982 l
334.939455 198.072364 l
335.786508 199.41744 l
336.633561 199.719954 l
337.480614 199.593853 l
338.327667 196.982476 l
339.17472 196.001264 l
340.021773 198.224152 l
340.868826 199.077245 l
341.715879 199.000102 l
342.562932 198.311993 l
344.257038 199.333181 l
345.104091 201.429124 l
345.951144 199.524869 l
346.798197 199.876679 l
347.64525 199.017377 l
348.492303 198.977373 l
349.339356 199.755179 l
350.186409 200.28506 l
351.033462 198.957143 l
352.727568 197.179329 l
353.574621 197.108039 l
354.421674 198.009533 l
355.268727 199.359678 l
356.11578 198.950426 l
356.962833 199.098224 l
357.809886 199.649121 l
358.656939 200.954778 l
359.503992 201.510872 l
360.351045 201.704084 l
361.198098 201.37707 l
362.045152 199.201453 l
362.892205 200.112392 l
363.739258 202.569738 l
364.586311 203.184723 l
365.433364 202.553758 l
366.280417 202.681077 l
367.12747 202.302074 l
367.974523 201.066838 l
368.821576 200.920745 l
369.668629 201.563563 l
370.515682 201.002424 l
371.362735 200.632484 l
372.209788 197.997982 l
373.056841 197.71877 l
373.903894 196.80152 l
374.750947 196.101731 l
376.445053 192.835466 l
377.292106 193.854656 l
378.139159 195.157548 l
378.986212 194.957152 l
379.833265 193.153464 l
380.680318 193.938563 l
382.374424 194.837176 l
383.221477 195.250566 l
384.06853 196.186496 l
384.915583 196.09605 l
385.762636 196.498536 l
386.609689 197.389115 l
387.456742 197.828155 l
389.150848 197.243624 l
389.997902 195.917933 l
390.844955 196.489018 l
391.692008 197.644993 l
392.539061 196.940099 l
393.386114 198.488334 l
394.233167 198.254993 l
395.08022 199.586826 l
395.927273 199.312465 l
396.774326 199.649028 l
397.621379 200.588264 l
398.468432 199.554454 l
399.315485 200.349317 l
400.162538 198.862376 l
401.009591 199.156982 l
401.856644 199.215524 l
402.703697 198.974294 l
403.55075 197.484655 l
404.397803 199.408085 l
405.244856 202.422528 l
406.091909 202.914405 l
407.786015 202.317634 l
408.633068 201.472769 l
409.480121 201.411531 l
410.327174 200.776888 l
411.174227 201.664069 l
412.02128 200.880377 l
412.868333 200.974291 l
413.715386 200.795198 l
414.562439 200.312318 l
415.409492 199.96223 l
416.256545 200.164766 l
417.103598 199.857589 l
417.950652 198.866783 l
418.797705 199.301957 l
419.644758 199.320747 l
420.491811 200.092702 l
421.338864 199.037575 l
423.880023 202.346695 l
424.727076 201.964167 l
425.574129 199.824159 l
426.421182 198.442607 l
427.268235 198.318255 l
428.115288 198.881929 l
428.962341 199.190882 l
429.809394 199.022442 l
430.656447 197.598232 l
431.5035 198.658595 l
432.350553 198.156862 l
433.197606 198.51399 l
434.044659 199.353014 l
434.891712 199.101085 l
435.738765 199.367013 l
436.585818 199.251447 l
437.432871 199.395943 l
438.279924 199.719106 l
439.126977 201.183359 l
439.97403 200.148467 l
442.515189 199.387464 l
443.362242 201.951306 l
444.209295 202.979928 l
445.056348 201.149212 l
445.903402 200.943845 l
446.750455 202.567236 l
447.597508 203.14939 l
448.444561 202.244291 l
449.291614 201.62157 l
450.138667 203.505427 l
450.98572 202.675319 l
451.832773 202.296604 l
452.679826 202.745718 l
453.526879 203.845411 l
454.373932 203.763217 l
456.068038 204.202447 l
458.609197 201.1409 l
459.45625 200.705496 l
460.303303 200.868917 l
461.997409 199.129294 l
462.844462 199.172608 l
463.691515 201.093212 l
464.538568 200.843651 l
465.385621 201.711096 l
466.232674 199.757224 l
467.079727 200.318002 l
467.92678 199.919345 l
468.773833 200.139233 l
470.467939 198.364295 l
471.314992 197.353393 l
472.162045 198.882035 l
473.009098 199.637263 l
473.856152 200.914135 l
474.703205 202.578096 l
475.550258 201.176275 l
476.397311 202.1822 l
478.091417 202.65712 l
478.93847 202.446334 l
479.785523 202.825914 l
480.632576 202.02979 l
481.479629 201.782293 l
482.326682 202.03057 l
483.173735 200.479484 l
484.020788 201.137816 l
484.867841 201.269443 l
485.714894 200.685803 l
487.409 201.588428 l
488.256053 201.479507 l
489.103106 202.245366 l
489.950159 201.649655 l
490.797212 201.481825 l
491.644265 200.758574 l
492.491318 201.589227 l
493.338371 201.789094 l
494.185424 201.325971 l
495.032477 202.08893 l
495.87953 202.446967 l
496.726583 204.270909 l
498.420689 201.974302 l
499.267742 200.086761 l
500.114795 199.856186 l
500.961848 198.959719 l
501.808902 199.259744 l
502.655955 197.489136 l
503.503008 197.494343 l
504.350061 196.817545 l
505.197114 198.029136 l
506.044167 198.80466 l
506.89122 198.106104 l
507.738273 198.528056 l
508.585326 200.098005 l
509.432379 199.268919 l
510.279432 199.962313 l
511.126485 198.680181 l
511.973538 199.041948 l
512.820591 198.927466 l
513.667644 200.078865 l
514.514697 200.7027 l
515.36175 197.513711 l
517.055856 196.875408 l
517.902909 197.978647 l
518.749962 197.861002 l
519.597015 197.345478 l
520.444068 198.21899 l
521.291121 198.720047 l
522.985227 202.334387 l
523.83228 200.645305 l
524.679333 201.651956 l
525.526386 200.101658 l
526.373439 199.063132 l
527.220492 200.250633 l
528.067545 198.817263 l
528.914598 200.208743 l
530.608705 199.768215 l
531.455758 200.549337 l
533.149864 200.808744 l
533.996917 201.788436 l
534.84397 200.406357 l
535.691023 200.356039 l
536.538076 200.084681 l
537.385129 198.920626 l
538.232182 199.177087 l
539.079235 200.169439 l
539.926288 199.180438 l
540.773341 201.372499 l
541.620394 201.806444 l
542.467447 201.417592 l
543.3145 202.632544 l
544.161553 202.841606 l
545.008606 201.43945 l
545.855659 200.697441 l
546.702712 200.610501 l
547.549765 200.994456 l
548.396818 199.148078 l
549.243871 199.349007 l
550.090924 200.319378 l
550.937977 201.490469 l
552.632083 199.184815 l
553.479136 200.720576 l
554.326189 198.540854 l
555.173242 198.968261 l
556.020295 199.80762 l
556.867348 198.776493 l
557.714402 199.630523 l
558.561455 199.800357 l
560.255561 199.242921 l
561.102614 200.974171 l
561.949667 201.414444 l
563.643773 201.530293 l
564.490826 200.987608 l
566.184932 200.881324 l
567.031985 201.707131 l
567.879038 200.909427 l
568.726091 202.051544 l
570.420197 201.689591 l
571.26725 202.242137 l
572.114303 201.422798 l
572.961356 202.405081 l
573.808409 201.046457 l
573.808409 201.046457 l
stroke
grestore
0.800 setlinewidth
0 setlinejoin
[] 0 setdash
0.000 setgray
gsave
40.165 41.96 m
40.165 212 l
stroke
grestore
gsave
599.22 41.96 m
599.22 212 l
stroke
grestore
gsave
40.165 41.96 m
599.22 41.96 l
stroke
grestore
gsave
40.165 212 m
599.22 212 l
stroke
grestore
/DejaVuSans findfont
12.000 scalefont
setfont
gsave
278.794063 218.000000 translate
0.000000 rotate
0.000000 0.000000 m /F glyphshow
6.886719 0.000000 m /a glyphshow
14.240234 0.000000 m /s glyphshow
20.492188 0.000000 m /t glyphshow
25.197266 0.000000 m /space glyphshow
29.011719 0.000000 m /V glyphshow
37.220703 0.000000 m /a glyphshow
44.574219 0.000000 m /r glyphshow
49.507812 0.000000 m /i glyphshow
52.841797 0.000000 m /a glyphshow
60.195312 0.000000 m /n glyphshow
67.800781 0.000000 m /c glyphshow
74.398438 0.000000 m /e glyphshow
grestore
1.000 setlinewidth
0 setlinecap
0.800 setgray
gsave
466.141875 46.96 m
592.22 46.96 l
593.553333 46.96 594.22 47.626667 594.22 48.96 c
594.22 62.631875 l
594.22 63.965208 593.553333 64.631875 592.22 64.631875 c
466.141875 64.631875 l
464.808542 64.631875 464.141875 63.965208 464.141875 62.631875 c
464.141875 48.96 l
464.141875 47.626667 464.808542 46.96 466.141875 46.96 c
cl
gsave
1.000 setgray
fill
grestore
stroke
grestore
1.500 setlinewidth
1 setlinejoin
2 setlinecap
[] 0 setdash
0.122 0.467 0.706 setrgbcolor
gsave
468.141875 56.538125 m
488.141875 56.538125 l
stroke
grestore
0.000 setgray
/DejaVuSans findfont
10.000 scalefont
setfont
gsave
496.141875 53.038125 translate
0.000000 rotate
0.000000 0.000000 m /m glyphshow
9.741211 0.000000 m /i glyphshow
12.519531 0.000000 m /c glyphshow
18.017578 0.000000 m /r glyphshow
22.128906 0.000000 m /o glyphshow
28.247070 0.000000 m /s glyphshow
33.457031 0.000000 m /c glyphshow
38.955078 0.000000 m /o glyphshow
45.073242 0.000000 m /p glyphshow
51.420898 0.000000 m /i glyphshow
54.199219 0.000000 m /c glyphshow
59.697266 0.000000 m /space glyphshow
62.875977 0.000000 m /m glyphshow
72.617188 0.000000 m /o glyphshow
78.735352 0.000000 m /d glyphshow
85.083008 0.000000 m /e glyphshow
91.235352 0.000000 m /l glyphshow
grestore

end
showpage
